%!PS-Adobe-3.0 EPSF-3.0
%%Creator: (MATLAB, The Mathworks, Inc. Version 9.1.0.441655 \(R2016b\). Operating System: Linux)
%%Title: /srv/bgeiger/GIT/complexitychallenge/Report/GI_GRandom.eps
%%CreationDate: 2018-05-03T10:35:31
%%Pages: (atend)
%%BoundingBox: 0 0 420 315
%%LanguageLevel: 3
%%EndComments
%%BeginProlog
%%BeginResource: procset (Apache XML Graphics Std ProcSet) 1.2 0
%%Version: 1.2 0
%%Copyright: (Copyright 2001-2003,2010 The Apache Software Foundation. License terms: http://www.apache.org/licenses/LICENSE-2.0)
/bd{bind def}bind def
/ld{load def}bd
/GR/grestore ld
/M/moveto ld
/LJ/setlinejoin ld
/C/curveto ld
/f/fill ld
/LW/setlinewidth ld
/GC/setgray ld
/t/show ld
/N/newpath ld
/CT/concat ld
/cp/closepath ld
/S/stroke ld
/L/lineto ld
/CC/setcmykcolor ld
/A/ashow ld
/GS/gsave ld
/RC/setrgbcolor ld
/RM/rmoveto ld
/ML/setmiterlimit ld
/re {4 2 roll M
1 index 0 rlineto
0 exch rlineto
neg 0 rlineto
cp } bd
/_ctm matrix def
/_tm matrix def
/BT { _ctm currentmatrix pop matrix _tm copy pop 0 0 moveto } bd
/ET { _ctm setmatrix } bd
/iTm { _ctm setmatrix _tm concat } bd
/Tm { _tm astore pop iTm 0 0 moveto } bd
/ux 0.0 def
/uy 0.0 def
/F {
  /Tp exch def
  /Tf exch def
  Tf findfont Tp scalefont setfont
  /cf Tf def  /cs Tp def
} bd
/ULS {currentpoint /uy exch def /ux exch def} bd
/ULE {
  /Tcx currentpoint pop def
  gsave
  newpath
  cf findfont cs scalefont dup
  /FontMatrix get 0 get /Ts exch def /FontInfo get dup
  /UnderlinePosition get Ts mul /To exch def
  /UnderlineThickness get Ts mul /Tt exch def
  ux uy To add moveto  Tcx uy To add lineto
  Tt setlinewidth stroke
  grestore
} bd
/OLE {
  /Tcx currentpoint pop def
  gsave
  newpath
  cf findfont cs scalefont dup
  /FontMatrix get 0 get /Ts exch def /FontInfo get dup
  /UnderlinePosition get Ts mul /To exch def
  /UnderlineThickness get Ts mul /Tt exch def
  ux uy To add cs add moveto Tcx uy To add cs add lineto
  Tt setlinewidth stroke
  grestore
} bd
/SOE {
  /Tcx currentpoint pop def
  gsave
  newpath
  cf findfont cs scalefont dup
  /FontMatrix get 0 get /Ts exch def /FontInfo get dup
  /UnderlinePosition get Ts mul /To exch def
  /UnderlineThickness get Ts mul /Tt exch def
  ux uy To add cs 10 mul 26 idiv add moveto Tcx uy To add cs 10 mul 26 idiv add lineto
  Tt setlinewidth stroke
  grestore
} bd
/QT {
/Y22 exch store
/X22 exch store
/Y21 exch store
/X21 exch store
currentpoint
/Y21 load 2 mul add 3 div exch
/X21 load 2 mul add 3 div exch
/X21 load 2 mul /X22 load add 3 div
/Y21 load 2 mul /Y22 load add 3 div
/X22 load /Y22 load curveto
} bd
/SSPD {
dup length /d exch dict def
{
/v exch def
/k exch def
currentpagedevice k known {
/cpdv currentpagedevice k get def
v cpdv ne {
/upd false def
/nullv v type /nulltype eq def
/nullcpdv cpdv type /nulltype eq def
nullv nullcpdv or
{
/upd true def
} {
/sametype v type cpdv type eq def
sametype {
v type /arraytype eq {
/vlen v length def
/cpdvlen cpdv length def
vlen cpdvlen eq {
0 1 vlen 1 sub {
/i exch def
/obj v i get def
/cpdobj cpdv i get def
obj cpdobj ne {
/upd true def
exit
} if
} for
} {
/upd true def
} ifelse
} {
v type /dicttype eq {
v {
/dv exch def
/dk exch def
/cpddv cpdv dk get def
dv cpddv ne {
/upd true def
exit
} if
} forall
} {
/upd true def
} ifelse
} ifelse
} if
} ifelse
upd true eq {
d k v put
} if
} if
} if
} forall
d length 0 gt {
d setpagedevice
} if
} bd
/RE { % /NewFontName [NewEncodingArray] /FontName RE -
  findfont dup length dict begin
  {
    1 index /FID ne
    {def} {pop pop} ifelse
  } forall
  /Encoding exch def
  /FontName 1 index def
  currentdict definefont pop
  end
} bind def
%%EndResource
%%BeginResource: procset (Apache XML Graphics EPS ProcSet) 1.0 0
%%Version: 1.0 0
%%Copyright: (Copyright 2002-2003 The Apache Software Foundation. License terms: http://www.apache.org/licenses/LICENSE-2.0)
/BeginEPSF { %def
/b4_Inc_state save def         % Save state for cleanup
/dict_count countdictstack def % Count objects on dict stack
/op_count count 1 sub def      % Count objects on operand stack
userdict begin                 % Push userdict on dict stack
/showpage { } def              % Redefine showpage, { } = null proc
0 setgray 0 setlinecap         % Prepare graphics state
1 setlinewidth 0 setlinejoin
10 setmiterlimit [ ] 0 setdash newpath
/languagelevel where           % If level not equal to 1 then
{pop languagelevel             % set strokeadjust and
1 ne                           % overprint to their defaults.
{false setstrokeadjust false setoverprint
} if
} if
} bd
/EndEPSF { %def
count op_count sub {pop} repeat            % Clean up stacks
countdictstack dict_count sub {end} repeat
b4_Inc_state restore
} bd
%%EndResource
%FOPBeginFontDict
%%IncludeResource: font Courier-Bold
%%IncludeResource: font Helvetica
%%IncludeResource: font Courier-BoldOblique
%%IncludeResource: font Courier-Oblique
%%IncludeResource: font Times-Roman
%%IncludeResource: font Helvetica-BoldOblique
%%IncludeResource: font Helvetica-Bold
%%IncludeResource: font Helvetica-Oblique
%%IncludeResource: font Times-BoldItalic
%%IncludeResource: font Courier
%%IncludeResource: font Times-Italic
%%IncludeResource: font Times-Bold
%%IncludeResource: font Symbol
%%IncludeResource: font ZapfDingbats
%FOPEndFontDict
%%BeginResource: encoding WinAnsiEncoding
/WinAnsiEncoding [
/.notdef /.notdef /.notdef /.notdef /.notdef
/.notdef /.notdef /.notdef /.notdef /.notdef
/.notdef /.notdef /.notdef /.notdef /.notdef
/.notdef /.notdef /.notdef /.notdef /.notdef
/.notdef /.notdef /.notdef /.notdef /.notdef
/.notdef /.notdef /.notdef /.notdef /.notdef
/.notdef /.notdef /space /exclam /quotedbl
/numbersign /dollar /percent /ampersand /quotesingle
/parenleft /parenright /asterisk /plus /comma
/hyphen /period /slash /zero /one
/two /three /four /five /six
/seven /eight /nine /colon /semicolon
/less /equal /greater /question /at
/A /B /C /D /E
/F /G /H /I /J
/K /L /M /N /O
/P /Q /R /S /T
/U /V /W /X /Y
/Z /bracketleft /backslash /bracketright /asciicircum
/underscore /quoteleft /a /b /c
/d /e /f /g /h
/i /j /k /l /m
/n /o /p /q /r
/s /t /u /v /w
/x /y /z /braceleft /bar
/braceright /asciitilde /bullet /Euro /bullet
/quotesinglbase /florin /quotedblbase /ellipsis /dagger
/daggerdbl /circumflex /perthousand /Scaron /guilsinglleft
/OE /bullet /Zcaron /bullet /bullet
/quoteleft /quoteright /quotedblleft /quotedblright /bullet
/endash /emdash /asciitilde /trademark /scaron
/guilsinglright /oe /bullet /zcaron /Ydieresis
/space /exclamdown /cent /sterling /currency
/yen /brokenbar /section /dieresis /copyright
/ordfeminine /guillemotleft /logicalnot /sfthyphen /registered
/macron /degree /plusminus /twosuperior /threesuperior
/acute /mu /paragraph /middot /cedilla
/onesuperior /ordmasculine /guillemotright /onequarter /onehalf
/threequarters /questiondown /Agrave /Aacute /Acircumflex
/Atilde /Adieresis /Aring /AE /Ccedilla
/Egrave /Eacute /Ecircumflex /Edieresis /Igrave
/Iacute /Icircumflex /Idieresis /Eth /Ntilde
/Ograve /Oacute /Ocircumflex /Otilde /Odieresis
/multiply /Oslash /Ugrave /Uacute /Ucircumflex
/Udieresis /Yacute /Thorn /germandbls /agrave
/aacute /acircumflex /atilde /adieresis /aring
/ae /ccedilla /egrave /eacute /ecircumflex
/edieresis /igrave /iacute /icircumflex /idieresis
/eth /ntilde /ograve /oacute /ocircumflex
/otilde /odieresis /divide /oslash /ugrave
/uacute /ucircumflex /udieresis /yacute /thorn
/ydieresis
] def
%%EndResource
%FOPBeginFontReencode
/Courier-Bold findfont
dup length dict begin
  {1 index /FID ne {def} {pop pop} ifelse} forall
  /Encoding WinAnsiEncoding def
  currentdict
end
/Courier-Bold exch definefont pop
/Helvetica findfont
dup length dict begin
  {1 index /FID ne {def} {pop pop} ifelse} forall
  /Encoding WinAnsiEncoding def
  currentdict
end
/Helvetica exch definefont pop
/Courier-BoldOblique findfont
dup length dict begin
  {1 index /FID ne {def} {pop pop} ifelse} forall
  /Encoding WinAnsiEncoding def
  currentdict
end
/Courier-BoldOblique exch definefont pop
/Courier-Oblique findfont
dup length dict begin
  {1 index /FID ne {def} {pop pop} ifelse} forall
  /Encoding WinAnsiEncoding def
  currentdict
end
/Courier-Oblique exch definefont pop
/Times-Roman findfont
dup length dict begin
  {1 index /FID ne {def} {pop pop} ifelse} forall
  /Encoding WinAnsiEncoding def
  currentdict
end
/Times-Roman exch definefont pop
/Helvetica-BoldOblique findfont
dup length dict begin
  {1 index /FID ne {def} {pop pop} ifelse} forall
  /Encoding WinAnsiEncoding def
  currentdict
end
/Helvetica-BoldOblique exch definefont pop
/Helvetica-Bold findfont
dup length dict begin
  {1 index /FID ne {def} {pop pop} ifelse} forall
  /Encoding WinAnsiEncoding def
  currentdict
end
/Helvetica-Bold exch definefont pop
/Helvetica-Oblique findfont
dup length dict begin
  {1 index /FID ne {def} {pop pop} ifelse} forall
  /Encoding WinAnsiEncoding def
  currentdict
end
/Helvetica-Oblique exch definefont pop
/Times-BoldItalic findfont
dup length dict begin
  {1 index /FID ne {def} {pop pop} ifelse} forall
  /Encoding WinAnsiEncoding def
  currentdict
end
/Times-BoldItalic exch definefont pop
/Courier findfont
dup length dict begin
  {1 index /FID ne {def} {pop pop} ifelse} forall
  /Encoding WinAnsiEncoding def
  currentdict
end
/Courier exch definefont pop
/Times-Italic findfont
dup length dict begin
  {1 index /FID ne {def} {pop pop} ifelse} forall
  /Encoding WinAnsiEncoding def
  currentdict
end
/Times-Italic exch definefont pop
/Times-Bold findfont
dup length dict begin
  {1 index /FID ne {def} {pop pop} ifelse} forall
  /Encoding WinAnsiEncoding def
  currentdict
end
/Times-Bold exch definefont pop
%FOPEndFontReencode
%%EndProlog
%%Page: 1 1
%%PageBoundingBox: 0 0 420 315
%%BeginPageSetup
[1 0 0 -1 0 315] CT
%%EndPageSetup
GS
[0.75 0 0 0.75 0 0] CT
1 GC
N
0 0 560 420 re
f
GR
GS
[0.75 0 0 0.75 0 0] CT
1 GC
N
0 0 560 420 re
f
GR
GS
[0.75 0 0 0.75 0 0] CT
1 GC
N
73 374 M
507 374 L
507 31 L
73 31 L
cp
f
GR
GS
[0.75 0 0 0.75 0 0] CT
0.149 GC
2 setlinecap
1 LJ
0.667 LW
N
73 374 M
507 374 L
S
GR
GS
[0.75 0 0 0.75 0 0] CT
0.149 GC
2 setlinecap
1 LJ
0.667 LW
N
73 31 M
507 31 L
S
GR
GS
[0.75 0 0 0.75 0 0] CT
0.149 GC
2 setlinecap
1 LJ
0.667 LW
N
73 374 M
73 369.66 L
S
GR
GS
[0.75 0 0 0.75 0 0] CT
0.149 GC
2 setlinecap
1 LJ
0.667 LW
N
159.8 374 M
159.8 369.66 L
S
GR
GS
[0.75 0 0 0.75 0 0] CT
0.149 GC
2 setlinecap
1 LJ
0.667 LW
N
246.6 374 M
246.6 369.66 L
S
GR
GS
[0.75 0 0 0.75 0 0] CT
0.149 GC
2 setlinecap
1 LJ
0.667 LW
N
333.4 374 M
333.4 369.66 L
S
GR
GS
[0.75 0 0 0.75 0 0] CT
0.149 GC
2 setlinecap
1 LJ
0.667 LW
N
420.2 374 M
420.2 369.66 L
S
GR
GS
[0.75 0 0 0.75 0 0] CT
0.149 GC
2 setlinecap
1 LJ
0.667 LW
N
507 374 M
507 369.66 L
S
GR
GS
[0.75 0 0 0.75 0 0] CT
0.149 GC
2 setlinecap
1 LJ
0.667 LW
N
73 31 M
73 35.34 L
S
GR
GS
[0.75 0 0 0.75 0 0] CT
0.149 GC
2 setlinecap
1 LJ
0.667 LW
N
159.8 31 M
159.8 35.34 L
S
GR
GS
[0.75 0 0 0.75 0 0] CT
0.149 GC
2 setlinecap
1 LJ
0.667 LW
N
246.6 31 M
246.6 35.34 L
S
GR
GS
[0.75 0 0 0.75 0 0] CT
0.149 GC
2 setlinecap
1 LJ
0.667 LW
N
333.4 31 M
333.4 35.34 L
S
GR
GS
[0.75 0 0 0.75 0 0] CT
0.149 GC
2 setlinecap
1 LJ
0.667 LW
N
420.2 31 M
420.2 35.34 L
S
GR
GS
[0.75 0 0 0.75 0 0] CT
0.149 GC
2 setlinecap
1 LJ
0.667 LW
N
507 31 M
507 35.34 L
S
GR
GS
[0.75 0 0 0.75 54.75 284.50001] CT
0.149 GC
/Helvetica 13.333 F
GS
[1 0 0 1 0 0] CT
-4.5 13 moveto 
1 -1 scale
(0) t 
GR
GR
GS
[0.75 0 0 0.75 119.85 284.50001] CT
0.149 GC
/Helvetica 13.333 F
GS
[1 0 0 1 0 0] CT
-8.5 13 moveto 
1 -1 scale
(10) t 
GR
GR
GS
[0.75 0 0 0.75 184.95 284.50001] CT
0.149 GC
/Helvetica 13.333 F
GS
[1 0 0 1 0 0] CT
-8.5 13 moveto 
1 -1 scale
(20) t 
GR
GR
GS
[0.75 0 0 0.75 250.05 284.50001] CT
0.149 GC
/Helvetica 13.333 F
GS
[1 0 0 1 0 0] CT
-8.5 13 moveto 
1 -1 scale
(30) t 
GR
GR
GS
[0.75 0 0 0.75 315.15001 284.50001] CT
0.149 GC
/Helvetica 13.333 F
GS
[1 0 0 1 0 0] CT
-8.5 13 moveto 
1 -1 scale
(40) t 
GR
GR
GS
[0.75 0 0 0.75 380.25 284.50001] CT
0.149 GC
/Helvetica 13.333 F
GS
[1 0 0 1 0 0] CT
-8.5 13 moveto 
1 -1 scale
(50) t 
GR
GR
GS
[0.75 0 0 0.75 217.50016 298.24999] CT
0.149 GC
N
-83.793 12.32 M
-83.793 11.789 L
-82.262 11.789 -82.262 10.914 QT
-82.262 2.695 L
-82.747 2.601 -83.793 2.601 QT
-83.793 2.07 L
-80.934 2.07 L
-80.856 2.07 -80.825 2.132 QT
-75.512 9.945 L
-75.512 3.492 L
-75.512 2.601 -77.059 2.601 QT
-77.059 2.07 L
-73.497 2.07 L
-73.497 2.601 L
-75.028 2.601 -75.028 3.492 QT
-75.028 12.195 L
-75.028 12.226 -75.09 12.273 QT
-75.153 12.32 -75.184 12.32 QT
-75.372 12.32 L
-75.45 12.32 -75.465 12.257 QT
-81.778 2.992 L
-81.778 10.914 L
-81.778 11.789 -80.231 11.789 QT
-80.231 12.32 L
-83.793 12.32 L
cp
f
GR
GS
[0.75 0 0 0.75 217.50016 298.24999] CT
0.149 GC
N
-71.637 10.539 M
-71.637 7.226 L
-71.637 6.82 -71.762 6.64 QT
-71.887 6.461 -72.114 6.422 QT
-72.34 6.382 -72.809 6.382 QT
-72.809 5.851 L
-70.543 5.695 L
-70.543 10.539 L
-70.543 11.117 -70.457 11.445 QT
-70.372 11.773 -70.098 11.929 QT
-69.825 12.086 -69.231 12.086 QT
-68.418 12.086 -67.942 11.414 QT
-67.465 10.742 -67.465 9.882 QT
-67.465 7.226 L
-67.465 6.82 -67.59 6.64 QT
-67.715 6.461 -67.942 6.422 QT
-68.168 6.382 -68.637 6.382 QT
-68.637 5.851 L
-66.372 5.695 L
-66.372 10.961 L
-66.372 11.351 -66.254 11.531 QT
-66.137 11.711 -65.911 11.75 QT
-65.684 11.789 -65.2 11.789 QT
-65.2 12.32 L
-67.418 12.492 L
-67.418 11.226 L
-67.7 11.789 -68.2 12.14 QT
-68.7 12.492 -69.293 12.492 QT
-70.372 12.492 -71.004 12.031 QT
-71.637 11.57 -71.637 10.539 QT
cp
f
GR
GS
[0.75 0 0 0.75 217.50016 298.24999] CT
0.149 GC
N
-64.661 12.32 M
-64.661 11.789 L
-64.161 11.789 -63.825 11.711 QT
-63.489 11.632 -63.489 11.32 QT
-63.489 7.226 L
-63.489 6.82 -63.614 6.64 QT
-63.739 6.461 -63.966 6.422 QT
-64.192 6.382 -64.661 6.382 QT
-64.661 5.851 L
-62.489 5.695 L
-62.489 7.164 L
-62.192 6.507 -61.598 6.101 QT
-61.005 5.695 -60.317 5.695 QT
-58.583 5.695 -58.286 7.101 QT
-57.989 6.461 -57.411 6.078 QT
-56.833 5.695 -56.145 5.695 QT
-55.458 5.695 -54.997 5.914 QT
-54.536 6.132 -54.301 6.586 QT
-54.067 7.039 -54.067 7.711 QT
-54.067 11.32 L
-54.067 11.632 -53.731 11.711 QT
-53.395 11.789 -52.895 11.789 QT
-52.895 12.32 L
-56.317 12.32 L
-56.317 11.789 L
-55.817 11.789 -55.481 11.711 QT
-55.145 11.632 -55.145 11.32 QT
-55.145 7.757 L
-55.145 7.007 -55.364 6.547 QT
-55.583 6.086 -56.239 6.086 QT
-57.098 6.086 -57.661 6.781 QT
-58.223 7.476 -58.223 8.351 QT
-58.223 11.32 L
-58.223 11.632 -57.895 11.711 QT
-57.567 11.789 -57.051 11.789 QT
-57.051 12.32 L
-60.489 12.32 L
-60.489 11.789 L
-59.973 11.789 -59.645 11.711 QT
-59.317 11.632 -59.317 11.32 QT
-59.317 7.757 L
-59.317 7.023 -59.528 6.554 QT
-59.739 6.086 -60.411 6.086 QT
-61.27 6.086 -61.833 6.781 QT
-62.395 7.476 -62.395 8.351 QT
-62.395 11.32 L
-62.395 11.632 -62.067 11.711 QT
-61.739 11.789 -61.239 11.789 QT
-61.239 12.32 L
-64.661 12.32 L
cp
f
GR
GS
[0.75 0 0 0.75 217.50016 298.24999] CT
0.149 GC
N
-51.737 12.32 M
-51.737 3.445 L
-51.737 3.039 -51.862 2.859 QT
-51.987 2.679 -52.213 2.64 QT
-52.44 2.601 -52.909 2.601 QT
-52.909 2.07 L
-50.69 1.914 L
-50.69 6.601 L
-50.44 6.336 -50.112 6.125 QT
-49.784 5.914 -49.401 5.804 QT
-49.018 5.695 -48.612 5.695 QT
-47.94 5.695 -47.369 5.961 QT
-46.799 6.226 -46.369 6.703 QT
-45.94 7.179 -45.705 7.804 QT
-45.471 8.429 -45.471 9.086 QT
-45.471 9.992 -45.916 10.773 QT
-46.362 11.554 -47.127 12.023 QT
-47.893 12.492 -48.799 12.492 QT
-49.377 12.492 -49.909 12.195 QT
-50.44 11.898 -50.799 11.414 QT
-51.299 12.32 L
-51.737 12.32 L
cp
-50.643 10.851 M
-50.393 11.398 -49.924 11.742 QT
-49.455 12.086 -48.893 12.086 QT
-48.112 12.086 -47.635 11.64 QT
-47.159 11.195 -46.963 10.515 QT
-46.768 9.836 -46.768 9.086 QT
-46.768 7.82 -47.096 7.164 QT
-47.252 6.867 -47.502 6.617 QT
-47.752 6.367 -48.065 6.226 QT
-48.377 6.086 -48.721 6.086 QT
-49.315 6.086 -49.83 6.398 QT
-50.346 6.711 -50.643 7.257 QT
-50.643 10.851 L
cp
f
GR
GS
[0.75 0 0 0.75 217.50016 298.24999] CT
0.149 GC
N
-41.009 12.492 M
-41.931 12.492 -42.689 12.007 QT
-43.447 11.523 -43.884 10.726 QT
-44.322 9.929 -44.322 9.039 QT
-44.322 8.148 -43.923 7.359 QT
-43.525 6.57 -42.814 6.086 QT
-42.103 5.601 -41.228 5.601 QT
-40.525 5.601 -40.017 5.828 QT
-39.509 6.054 -39.181 6.468 QT
-38.853 6.882 -38.689 7.437 QT
-38.525 7.992 -38.525 8.664 QT
-38.525 8.851 -38.665 8.851 QT
-43.009 8.851 L
-43.009 9.023 L
-43.009 10.257 -42.509 11.156 QT
-42.009 12.054 -40.869 12.054 QT
-40.415 12.054 -40.025 11.843 QT
-39.634 11.632 -39.345 11.273 QT
-39.056 10.914 -38.947 10.492 QT
-38.931 10.445 -38.892 10.398 QT
-38.853 10.351 -38.806 10.351 QT
-38.665 10.351 L
-38.525 10.351 -38.525 10.554 QT
-38.728 11.398 -39.431 11.945 QT
-40.134 12.492 -41.009 12.492 QT
cp
-42.994 8.476 M
-39.587 8.476 L
-39.587 7.914 -39.744 7.336 QT
-39.9 6.757 -40.267 6.375 QT
-40.634 5.992 -41.228 5.992 QT
-42.072 5.992 -42.533 6.789 QT
-42.994 7.586 -42.994 8.476 QT
cp
f
GR
GS
[0.75 0 0 0.75 217.50016 298.24999] CT
0.149 GC
N
-37.834 12.32 M
-37.834 11.789 L
-37.319 11.789 -36.991 11.711 QT
-36.663 11.632 -36.663 11.32 QT
-36.663 7.226 L
-36.663 6.82 -36.788 6.64 QT
-36.913 6.461 -37.139 6.422 QT
-37.366 6.382 -37.834 6.382 QT
-37.834 5.851 L
-35.694 5.695 L
-35.694 7.164 L
-35.444 6.507 -34.998 6.101 QT
-34.553 5.695 -33.913 5.695 QT
-33.475 5.695 -33.123 5.961 QT
-32.772 6.226 -32.772 6.648 QT
-32.772 6.929 -32.967 7.125 QT
-33.163 7.32 -33.444 7.32 QT
-33.725 7.32 -33.92 7.125 QT
-34.116 6.929 -34.116 6.648 QT
-34.116 6.242 -33.834 6.086 QT
-33.913 6.086 L
-34.522 6.086 -34.905 6.523 QT
-35.288 6.961 -35.452 7.609 QT
-35.616 8.257 -35.616 8.851 QT
-35.616 11.32 L
-35.616 11.789 -34.163 11.789 QT
-34.163 12.32 L
-37.834 12.32 L
cp
f
GR
GS
[0.75 0 0 0.75 217.50016 298.24999] CT
0.149 GC
N
-23.842 12.492 M
-24.748 12.492 -25.514 12.031 QT
-26.279 11.57 -26.725 10.804 QT
-27.17 10.039 -27.17 9.132 QT
-27.17 8.445 -26.928 7.804 QT
-26.685 7.164 -26.225 6.664 QT
-25.764 6.164 -25.154 5.882 QT
-24.545 5.601 -23.842 5.601 QT
-22.92 5.601 -22.162 6.086 QT
-21.404 6.57 -20.967 7.39 QT
-20.529 8.211 -20.529 9.132 QT
-20.529 10.023 -20.975 10.797 QT
-21.42 11.57 -22.185 12.031 QT
-22.951 12.492 -23.842 12.492 QT
cp
-23.842 12.054 M
-22.639 12.054 -22.24 11.179 QT
-21.842 10.304 -21.842 8.961 QT
-21.842 8.211 -21.92 7.711 QT
-21.998 7.211 -22.264 6.804 QT
-22.435 6.57 -22.693 6.382 QT
-22.951 6.195 -23.24 6.093 QT
-23.529 5.992 -23.842 5.992 QT
-24.31 5.992 -24.732 6.203 QT
-25.154 6.414 -25.435 6.804 QT
-25.717 7.242 -25.787 7.75 QT
-25.857 8.257 -25.857 8.961 QT
-25.857 9.804 -25.717 10.476 QT
-25.576 11.148 -25.131 11.601 QT
-24.685 12.054 -23.842 12.054 QT
cp
f
GR
GS
[0.75 0 0 0.75 217.50016 298.24999] CT
0.149 GC
N
-19.774 12.32 M
-19.774 11.789 L
-19.274 11.789 -18.946 11.711 QT
-18.618 11.632 -18.618 11.32 QT
-18.618 6.382 L
-19.758 6.382 L
-19.758 5.851 L
-18.618 5.851 L
-18.618 4.054 L
-18.618 3.57 -18.415 3.148 QT
-18.211 2.726 -17.868 2.414 QT
-17.524 2.101 -17.079 1.922 QT
-16.633 1.742 -16.165 1.742 QT
-15.665 1.742 -15.258 2.047 QT
-14.852 2.351 -14.852 2.836 QT
-14.852 3.132 -15.04 3.328 QT
-15.227 3.523 -15.524 3.523 QT
-15.805 3.523 -16.008 3.328 QT
-16.211 3.132 -16.211 2.836 QT
-16.211 2.367 -15.805 2.211 QT
-16.04 2.132 -16.243 2.132 QT
-16.68 2.132 -16.993 2.445 QT
-17.305 2.757 -17.454 3.203 QT
-17.602 3.648 -17.602 4.086 QT
-17.602 5.851 L
-15.883 5.851 L
-15.883 6.382 L
-17.555 6.382 L
-17.555 11.32 L
-17.555 11.617 -17.118 11.703 QT
-16.68 11.789 -16.102 11.789 QT
-16.102 12.32 L
-19.774 12.32 L
cp
f
GR
GS
[0.75 0 0 0.75 217.50016 298.24999] CT
0.149 GC
N
-7.435 10.711 M
-6.904 11.382 -6.122 11.75 QT
-5.341 12.117 -4.482 12.117 QT
-3.654 12.117 -2.974 11.695 QT
-2.294 11.273 -2.294 10.492 QT
-2.294 9.226 L
-2.294 8.757 -4.169 8.757 QT
-4.169 8.226 L
0.128 8.226 L
0.128 8.757 L
-0.341 8.757 -0.622 8.836 QT
-0.904 8.914 -0.904 9.226 QT
-0.904 12.195 L
-0.904 12.242 -0.943 12.281 QT
-0.982 12.32 -1.029 12.32 QT
-1.169 12.32 -1.497 11.992 QT
-1.825 11.664 -2.013 11.398 QT
-2.372 12.039 -3.161 12.343 QT
-3.95 12.648 -4.794 12.648 QT
-6.263 12.648 -7.458 11.898 QT
-8.654 11.148 -9.349 9.89 QT
-10.044 8.632 -10.044 7.195 QT
-10.044 6.132 -9.646 5.125 QT
-9.247 4.117 -8.521 3.359 QT
-7.794 2.601 -6.833 2.172 QT
-5.872 1.742 -4.794 1.742 QT
-4.029 1.742 -3.333 2.078 QT
-2.638 2.414 -2.091 3.023 QT
-1.232 1.789 L
-1.138 1.742 -1.122 1.742 QT
-1.013 1.742 L
-0.966 1.742 -0.935 1.781 QT
-0.904 1.82 -0.904 1.867 QT
-0.904 5.914 L
-0.904 6.054 -1.013 6.054 QT
-1.279 6.054 L
-1.419 6.054 -1.419 5.914 QT
-1.419 5.492 -1.591 4.953 QT
-1.763 4.414 -2.036 3.937 QT
-2.31 3.461 -2.654 3.086 QT
-3.497 2.273 -4.591 2.273 QT
-5.419 2.273 -6.185 2.648 QT
-6.95 3.023 -7.466 3.679 QT
-8.013 4.382 -8.224 5.281 QT
-8.435 6.179 -8.435 7.195 QT
-8.435 9.492 -7.435 10.711 QT
cp
f
GR
GS
[0.75 0 0 0.75 217.50016 298.24999] CT
0.149 GC
N
1.012 12.32 M
1.012 11.789 L
1.528 11.789 1.856 11.711 QT
2.184 11.632 2.184 11.32 QT
2.184 7.226 L
2.184 6.82 2.059 6.64 QT
1.934 6.461 1.707 6.422 QT
1.481 6.382 1.012 6.382 QT
1.012 5.851 L
3.153 5.695 L
3.153 7.164 L
3.403 6.507 3.848 6.101 QT
4.293 5.695 4.934 5.695 QT
5.371 5.695 5.723 5.961 QT
6.074 6.226 6.074 6.648 QT
6.074 6.929 5.879 7.125 QT
5.684 7.32 5.403 7.32 QT
5.121 7.32 4.926 7.125 QT
4.731 6.929 4.731 6.648 QT
4.731 6.242 5.012 6.086 QT
4.934 6.086 L
4.324 6.086 3.942 6.523 QT
3.559 6.961 3.395 7.609 QT
3.231 8.257 3.231 8.851 QT
3.231 11.32 L
3.231 11.789 4.684 11.789 QT
4.684 12.32 L
1.012 12.32 L
cp
f
GR
GS
[0.75 0 0 0.75 217.50016 298.24999] CT
0.149 GC
N
10.1 12.492 M
9.178 12.492 8.42 12.007 QT
7.663 11.523 7.225 10.726 QT
6.788 9.929 6.788 9.039 QT
6.788 8.148 7.186 7.359 QT
7.585 6.57 8.295 6.086 QT
9.006 5.601 9.881 5.601 QT
10.585 5.601 11.092 5.828 QT
11.6 6.054 11.928 6.468 QT
12.256 6.882 12.42 7.437 QT
12.585 7.992 12.585 8.664 QT
12.585 8.851 12.444 8.851 QT
8.1 8.851 L
8.1 9.023 L
8.1 10.257 8.6 11.156 QT
9.1 12.054 10.241 12.054 QT
10.694 12.054 11.085 11.843 QT
11.475 11.632 11.764 11.273 QT
12.053 10.914 12.163 10.492 QT
12.178 10.445 12.217 10.398 QT
12.256 10.351 12.303 10.351 QT
12.444 10.351 L
12.585 10.351 12.585 10.554 QT
12.381 11.398 11.678 11.945 QT
10.975 12.492 10.1 12.492 QT
cp
8.116 8.476 M
11.522 8.476 L
11.522 7.914 11.366 7.336 QT
11.21 6.757 10.842 6.375 QT
10.475 5.992 9.881 5.992 QT
9.038 5.992 8.577 6.789 QT
8.116 7.586 8.116 8.476 QT
cp
f
GR
GS
[0.75 0 0 0.75 217.50016 298.24999] CT
0.149 GC
N
16.619 12.492 M
15.697 12.492 14.939 12.007 QT
14.181 11.523 13.744 10.726 QT
13.306 9.929 13.306 9.039 QT
13.306 8.148 13.705 7.359 QT
14.103 6.57 14.814 6.086 QT
15.525 5.601 16.4 5.601 QT
17.103 5.601 17.611 5.828 QT
18.119 6.054 18.447 6.468 QT
18.775 6.882 18.939 7.437 QT
19.103 7.992 19.103 8.664 QT
19.103 8.851 18.962 8.851 QT
14.619 8.851 L
14.619 9.023 L
14.619 10.257 15.119 11.156 QT
15.619 12.054 16.759 12.054 QT
17.212 12.054 17.603 11.843 QT
17.994 11.632 18.283 11.273 QT
18.572 10.914 18.681 10.492 QT
18.697 10.445 18.736 10.398 QT
18.775 10.351 18.822 10.351 QT
18.962 10.351 L
19.103 10.351 19.103 10.554 QT
18.9 11.398 18.197 11.945 QT
17.494 12.492 16.619 12.492 QT
cp
14.634 8.476 M
18.041 8.476 L
18.041 7.914 17.884 7.336 QT
17.728 6.757 17.361 6.375 QT
16.994 5.992 16.4 5.992 QT
15.556 5.992 15.095 6.789 QT
14.634 7.586 14.634 8.476 QT
cp
f
GR
GS
[0.75 0 0 0.75 217.50016 298.24999] CT
0.149 GC
N
23.059 12.492 M
22.184 12.492 21.45 12.007 QT
20.715 11.523 20.309 10.742 QT
19.903 9.961 19.903 9.086 QT
19.903 8.179 20.348 7.398 QT
20.793 6.617 21.551 6.156 QT
22.309 5.695 23.231 5.695 QT
23.778 5.695 24.27 5.922 QT
24.762 6.148 25.122 6.57 QT
25.122 3.445 L
25.122 3.039 24.997 2.859 QT
24.872 2.679 24.653 2.64 QT
24.434 2.601 23.95 2.601 QT
23.95 2.07 L
26.168 1.914 L
26.168 10.961 L
26.168 11.351 26.293 11.531 QT
26.418 11.711 26.637 11.75 QT
26.856 11.789 27.34 11.789 QT
27.34 12.32 L
25.075 12.492 L
25.075 11.539 L
24.684 11.992 24.153 12.242 QT
23.622 12.492 23.059 12.492 QT
cp
21.528 11.023 M
21.793 11.507 22.223 11.797 QT
22.653 12.086 23.153 12.086 QT
23.778 12.086 24.293 11.734 QT
24.809 11.382 25.075 10.804 QT
25.075 7.211 L
24.903 6.882 24.629 6.617 QT
24.356 6.351 24.028 6.218 QT
23.7 6.086 23.325 6.086 QT
22.543 6.086 22.067 6.523 QT
21.59 6.961 21.395 7.648 QT
21.2 8.336 21.2 9.101 QT
21.2 9.695 21.262 10.14 QT
21.325 10.586 21.528 11.023 QT
cp
f
GR
GS
[0.75 0 0 0.75 217.50016 298.24999] CT
0.149 GC
N
28.582 14.789 M
28.863 15.007 29.207 15.007 QT
30.16 15.007 30.754 13.586 QT
31.27 12.32 L
29.02 6.804 L
28.879 6.539 28.598 6.461 QT
28.317 6.382 27.832 6.382 QT
27.832 5.851 L
30.988 5.851 L
30.988 6.382 L
30.16 6.382 30.16 6.742 QT
30.16 6.804 30.176 6.82 QT
31.848 10.929 L
33.348 7.242 L
33.395 7.117 33.395 6.976 QT
33.395 6.804 33.293 6.664 QT
33.192 6.523 33.035 6.453 QT
32.879 6.382 32.676 6.382 QT
32.676 5.851 L
35.176 5.851 L
35.176 6.382 L
34.707 6.382 34.356 6.593 QT
34.004 6.804 33.817 7.226 QT
31.223 13.586 L
31.02 14.07 30.746 14.476 QT
30.473 14.882 30.074 15.14 QT
29.676 15.398 29.207 15.398 QT
28.66 15.398 28.246 15.031 QT
27.832 14.664 27.832 14.132 QT
27.832 13.851 28.028 13.664 QT
28.223 13.476 28.488 13.476 QT
28.692 13.476 28.84 13.562 QT
28.988 13.648 29.074 13.797 QT
29.16 13.945 29.16 14.132 QT
29.16 14.382 28.996 14.57 QT
28.832 14.757 28.582 14.789 QT
cp
f
GR
GS
[0.75 0 0 0.75 217.50016 298.24999] CT
0.149 GC
N
40.665 12.32 M
40.665 11.789 L
42.009 11.789 42.306 10.914 QT
45.462 1.742 L
45.509 1.586 45.696 1.586 QT
45.899 1.586 L
46.087 1.586 46.134 1.742 QT
49.431 11.32 L
49.556 11.632 49.954 11.711 QT
50.353 11.789 50.931 11.789 QT
50.931 12.32 L
46.743 12.32 L
46.743 11.789 L
47.993 11.789 47.993 11.382 QT
47.993 11.32 L
47.181 8.976 L
43.54 8.976 L
42.868 10.914 L
42.853 10.961 42.853 11.054 QT
42.853 11.429 43.212 11.609 QT
43.571 11.789 43.978 11.789 QT
43.978 12.32 L
40.665 12.32 L
cp
43.712 8.445 M
47.009 8.445 L
45.353 3.664 L
43.712 8.445 L
cp
f
GR
GS
[0.75 0 0 0.75 217.50016 298.24999] CT
0.149 GC
N
51.603 13.492 M
51.603 12.961 51.985 12.562 QT
52.368 12.164 52.915 11.992 QT
52.603 11.757 52.446 11.414 QT
52.29 11.07 52.29 10.679 QT
52.29 9.976 52.743 9.445 QT
52.056 8.773 52.056 7.898 QT
52.056 7.429 52.259 7.015 QT
52.462 6.601 52.821 6.304 QT
53.181 6.007 53.618 5.851 QT
54.056 5.695 54.509 5.695 QT
55.399 5.695 56.118 6.211 QT
56.431 5.882 56.853 5.703 QT
57.274 5.523 57.728 5.523 QT
58.04 5.523 58.243 5.757 QT
58.446 5.992 58.446 6.304 QT
58.446 6.492 58.313 6.632 QT
58.181 6.773 57.993 6.773 QT
57.806 6.773 57.665 6.632 QT
57.524 6.492 57.524 6.304 QT
57.524 6.023 57.712 5.914 QT
56.931 5.914 56.368 6.461 QT
56.649 6.726 56.813 7.117 QT
56.978 7.507 56.978 7.898 QT
56.978 8.539 56.626 9.047 QT
56.274 9.554 55.696 9.836 QT
55.118 10.117 54.509 10.117 QT
53.696 10.117 53.009 9.664 QT
52.806 9.961 52.806 10.32 QT
52.806 10.726 53.063 11.023 QT
53.321 11.32 53.712 11.32 QT
54.946 11.32 L
55.837 11.32 56.556 11.476 QT
57.274 11.632 57.759 12.117 QT
58.243 12.601 58.243 13.492 QT
58.243 14.148 57.688 14.586 QT
57.134 15.023 56.36 15.218 QT
55.587 15.414 54.931 15.414 QT
54.259 15.414 53.485 15.218 QT
52.712 15.023 52.157 14.586 QT
51.603 14.148 51.603 13.492 QT
cp
52.446 13.492 M
52.446 13.992 52.853 14.336 QT
53.259 14.679 53.837 14.843 QT
54.415 15.007 54.931 15.007 QT
55.431 15.007 56.009 14.843 QT
56.587 14.679 56.993 14.336 QT
57.399 13.992 57.399 13.492 QT
57.399 12.711 56.688 12.476 QT
55.978 12.242 54.946 12.242 QT
53.712 12.242 L
53.368 12.242 53.079 12.406 QT
52.79 12.57 52.618 12.867 QT
52.446 13.164 52.446 13.492 QT
cp
54.509 9.711 M
55.79 9.711 55.79 7.898 QT
55.79 7.117 55.517 6.609 QT
55.243 6.101 54.509 6.101 QT
53.774 6.101 53.509 6.609 QT
53.243 7.117 53.243 7.898 QT
53.243 8.398 53.345 8.797 QT
53.446 9.195 53.72 9.453 QT
53.993 9.711 54.509 9.711 QT
cp
f
GR
GS
[0.75 0 0 0.75 217.50016 298.24999] CT
0.149 GC
N
62.248 12.492 M
61.327 12.492 60.569 12.007 QT
59.811 11.523 59.373 10.726 QT
58.936 9.929 58.936 9.039 QT
58.936 8.148 59.334 7.359 QT
59.733 6.57 60.444 6.086 QT
61.155 5.601 62.03 5.601 QT
62.733 5.601 63.241 5.828 QT
63.748 6.054 64.077 6.468 QT
64.405 6.882 64.569 7.437 QT
64.733 7.992 64.733 8.664 QT
64.733 8.851 64.592 8.851 QT
60.248 8.851 L
60.248 9.023 L
60.248 10.257 60.748 11.156 QT
61.248 12.054 62.389 12.054 QT
62.842 12.054 63.233 11.843 QT
63.623 11.632 63.912 11.273 QT
64.202 10.914 64.311 10.492 QT
64.327 10.445 64.366 10.398 QT
64.405 10.351 64.452 10.351 QT
64.592 10.351 L
64.733 10.351 64.733 10.554 QT
64.53 11.398 63.827 11.945 QT
63.123 12.492 62.248 12.492 QT
cp
60.264 8.476 M
63.67 8.476 L
63.67 7.914 63.514 7.336 QT
63.358 6.757 62.991 6.375 QT
62.623 5.992 62.03 5.992 QT
61.186 5.992 60.725 6.789 QT
60.264 7.586 60.264 8.476 QT
cp
f
GR
GS
[0.75 0 0 0.75 217.50016 298.24999] CT
0.149 GC
N
65.486 12.32 M
65.486 11.789 L
65.986 11.789 66.322 11.711 QT
66.658 11.632 66.658 11.32 QT
66.658 7.226 L
66.658 6.82 66.533 6.64 QT
66.408 6.461 66.181 6.422 QT
65.954 6.382 65.486 6.382 QT
65.486 5.851 L
67.658 5.695 L
67.658 7.164 L
67.954 6.507 68.548 6.101 QT
69.142 5.695 69.829 5.695 QT
70.876 5.695 71.4 6.195 QT
71.923 6.695 71.923 7.711 QT
71.923 11.32 L
71.923 11.632 72.251 11.711 QT
72.579 11.789 73.095 11.789 QT
73.095 12.32 L
69.658 12.32 L
69.658 11.789 L
70.173 11.789 70.501 11.711 QT
70.829 11.632 70.829 11.32 QT
70.829 7.757 L
70.829 7.023 70.618 6.554 QT
70.408 6.086 69.736 6.086 QT
68.876 6.086 68.314 6.781 QT
67.751 7.476 67.751 8.351 QT
67.751 11.32 L
67.751 11.632 68.079 11.711 QT
68.408 11.789 68.908 11.789 QT
68.908 12.32 L
65.486 12.32 L
cp
f
GR
GS
[0.75 0 0 0.75 217.50016 298.24999] CT
0.149 GC
N
74.305 10.523 M
74.305 6.382 L
73.055 6.382 L
73.055 5.992 L
74.039 5.992 74.5 5.078 QT
74.961 4.164 74.961 3.086 QT
75.398 3.086 L
75.398 5.851 L
77.508 5.851 L
77.508 6.382 L
75.398 6.382 L
75.398 10.492 L
75.398 11.117 75.609 11.586 QT
75.82 12.054 76.351 12.054 QT
76.867 12.054 77.094 11.554 QT
77.32 11.054 77.32 10.492 QT
77.32 9.601 L
77.758 9.601 L
77.758 10.523 L
77.758 10.992 77.586 11.445 QT
77.414 11.898 77.078 12.195 QT
76.742 12.492 76.258 12.492 QT
75.351 12.492 74.828 11.953 QT
74.305 11.414 74.305 10.523 QT
cp
f
GR
GS
[0.75 0 0 0.75 217.50016 298.24999] CT
0.149 GC
N
78.977 12.367 M
78.977 9.914 L
78.977 9.804 79.102 9.804 QT
79.29 9.804 L
79.383 9.804 79.415 9.914 QT
79.821 12.086 81.43 12.086 QT
82.133 12.086 82.618 11.765 QT
83.102 11.445 83.102 10.773 QT
83.102 10.289 82.727 9.953 QT
82.352 9.617 81.836 9.492 QT
80.836 9.289 L
80.336 9.179 79.922 8.953 QT
79.508 8.726 79.243 8.351 QT
78.977 7.976 78.977 7.476 QT
78.977 6.804 79.321 6.39 QT
79.665 5.976 80.227 5.789 QT
80.79 5.601 81.43 5.601 QT
82.196 5.601 82.774 6.007 QT
83.196 5.632 L
83.196 5.601 83.274 5.601 QT
83.383 5.601 L
83.43 5.601 83.469 5.64 QT
83.508 5.679 83.508 5.726 QT
83.508 7.679 L
83.508 7.82 83.383 7.82 QT
83.196 7.82 L
83.071 7.82 83.071 7.679 QT
83.071 6.898 82.633 6.422 QT
82.196 5.945 81.415 5.945 QT
80.743 5.945 80.25 6.195 QT
79.758 6.445 79.758 7.054 QT
79.758 7.476 80.11 7.742 QT
80.461 8.007 80.946 8.117 QT
81.961 8.32 L
82.461 8.429 82.907 8.711 QT
83.352 8.992 83.61 9.414 QT
83.868 9.836 83.868 10.367 QT
83.868 10.914 83.688 11.312 QT
83.508 11.711 83.172 11.976 QT
82.836 12.242 82.383 12.367 QT
81.93 12.492 81.43 12.492 QT
80.493 12.492 79.821 11.851 QT
79.274 12.445 L
79.274 12.492 79.196 12.492 QT
79.102 12.492 L
78.977 12.492 78.977 12.367 QT
cp
f
GR
GS
[0.75 0 0 0.75 0 0] CT
0 0.447 0.741 RC
2 setlinecap
1 LJ
0.667 LW
N
73 374 M
73 31 L
S
GR
GS
[0.75 0 0 0.75 0 0] CT
0 0.447 0.741 RC
2 setlinecap
1 LJ
0.667 LW
N
73 374 M
77.34 374 L
S
GR
GS
[0.75 0 0 0.75 0 0] CT
0 0.447 0.741 RC
2 setlinecap
1 LJ
0.667 LW
N
73 335.889 M
77.34 335.889 L
S
GR
GS
[0.75 0 0 0.75 0 0] CT
0 0.447 0.741 RC
2 setlinecap
1 LJ
0.667 LW
N
73 297.778 M
77.34 297.778 L
S
GR
GS
[0.75 0 0 0.75 0 0] CT
0 0.447 0.741 RC
2 setlinecap
1 LJ
0.667 LW
N
73 259.667 M
77.34 259.667 L
S
GR
GS
[0.75 0 0 0.75 0 0] CT
0 0.447 0.741 RC
2 setlinecap
1 LJ
0.667 LW
N
73 221.556 M
77.34 221.556 L
S
GR
GS
[0.75 0 0 0.75 0 0] CT
0 0.447 0.741 RC
2 setlinecap
1 LJ
0.667 LW
N
73 183.444 M
77.34 183.444 L
S
GR
GS
[0.75 0 0 0.75 0 0] CT
0 0.447 0.741 RC
2 setlinecap
1 LJ
0.667 LW
N
73 145.333 M
77.34 145.333 L
S
GR
GS
[0.75 0 0 0.75 0 0] CT
0 0.447 0.741 RC
2 setlinecap
1 LJ
0.667 LW
N
73 107.222 M
77.34 107.222 L
S
GR
GS
[0.75 0 0 0.75 0 0] CT
0 0.447 0.741 RC
2 setlinecap
1 LJ
0.667 LW
N
73 69.111 M
77.34 69.111 L
S
GR
GS
[0.75 0 0 0.75 0 0] CT
0 0.447 0.741 RC
2 setlinecap
1 LJ
0.667 LW
N
73 31 M
77.34 31 L
S
GR
GS
[0.75 0 0 0.75 50.75 280.5] CT
0 0.447 0.741 RC
/Helvetica 13.333 F
GS
[1 0 0 1 0 0] CT
-29 4.5 moveto 
1 -1 scale
(0.05) t 
GR
GR
GS
[0.75 0 0 0.75 50.75 251.91666] CT
0 0.447 0.741 RC
/Helvetica 13.333 F
GS
[1 0 0 1 0 0] CT
-21 4.5 moveto 
1 -1 scale
(0.1) t 
GR
GR
GS
[0.75 0 0 0.75 50.75 223.33333] CT
0 0.447 0.741 RC
/Helvetica 13.333 F
GS
[1 0 0 1 0 0] CT
-29 4.5 moveto 
1 -1 scale
(0.15) t 
GR
GR
GS
[0.75 0 0 0.75 50.75 194.74999] CT
0 0.447 0.741 RC
/Helvetica 13.333 F
GS
[1 0 0 1 0 0] CT
-21 4.5 moveto 
1 -1 scale
(0.2) t 
GR
GR
GS
[0.75 0 0 0.75 50.75 166.16667] CT
0 0.447 0.741 RC
/Helvetica 13.333 F
GS
[1 0 0 1 0 0] CT
-29 4.5 moveto 
1 -1 scale
(0.25) t 
GR
GR
GS
[0.75 0 0 0.75 50.75 137.58333] CT
0 0.447 0.741 RC
/Helvetica 13.333 F
GS
[1 0 0 1 0 0] CT
-21 4.5 moveto 
1 -1 scale
(0.3) t 
GR
GR
GS
[0.75 0 0 0.75 50.75 109.00001] CT
0 0.447 0.741 RC
/Helvetica 13.333 F
GS
[1 0 0 1 0 0] CT
-29 4.5 moveto 
1 -1 scale
(0.35) t 
GR
GR
GS
[0.75 0 0 0.75 50.75 80.41667] CT
0 0.447 0.741 RC
/Helvetica 13.333 F
GS
[1 0 0 1 0 0] CT
-21 4.5 moveto 
1 -1 scale
(0.4) t 
GR
GR
GS
[0.75 0 0 0.75 50.75 51.83334] CT
0 0.447 0.741 RC
/Helvetica 13.333 F
GS
[1 0 0 1 0 0] CT
-29 4.5 moveto 
1 -1 scale
(0.45) t 
GR
GR
GS
[0.75 0 0 0.75 50.75 23.25] CT
0 0.447 0.741 RC
/Helvetica 13.333 F
GS
[1 0 0 1 0 0] CT
-21 4.5 moveto 
1 -1 scale
(0.5) t 
GR
GR
GS
[0 -0.75 0.75 0 26 151.87487] CT
0 0.447 0.741 RC
N
-46.709 -6.889 M
-46.178 -6.218 -45.396 -5.85 QT
-44.615 -5.483 -43.756 -5.483 QT
-42.928 -5.483 -42.248 -5.905 QT
-41.568 -6.327 -41.568 -7.108 QT
-41.568 -8.374 L
-41.568 -8.843 -43.443 -8.843 QT
-43.443 -9.374 L
-39.146 -9.374 L
-39.146 -8.843 L
-39.615 -8.843 -39.896 -8.764 QT
-40.178 -8.686 -40.178 -8.374 QT
-40.178 -5.405 L
-40.178 -5.358 -40.217 -5.319 QT
-40.256 -5.28 -40.303 -5.28 QT
-40.443 -5.28 -40.771 -5.608 QT
-41.1 -5.936 -41.287 -6.202 QT
-41.646 -5.561 -42.436 -5.257 QT
-43.225 -4.952 -44.068 -4.952 QT
-45.537 -4.952 -46.732 -5.702 QT
-47.928 -6.452 -48.623 -7.71 QT
-49.318 -8.968 -49.318 -10.405 QT
-49.318 -11.468 -48.92 -12.475 QT
-48.521 -13.483 -47.795 -14.241 QT
-47.068 -14.999 -46.107 -15.428 QT
-45.146 -15.858 -44.068 -15.858 QT
-43.303 -15.858 -42.607 -15.522 QT
-41.912 -15.186 -41.365 -14.577 QT
-40.506 -15.811 L
-40.412 -15.858 -40.396 -15.858 QT
-40.287 -15.858 L
-40.24 -15.858 -40.209 -15.819 QT
-40.178 -15.78 -40.178 -15.733 QT
-40.178 -11.686 L
-40.178 -11.546 -40.287 -11.546 QT
-40.553 -11.546 L
-40.693 -11.546 -40.693 -11.686 QT
-40.693 -12.108 -40.865 -12.647 QT
-41.037 -13.186 -41.311 -13.663 QT
-41.584 -14.139 -41.928 -14.514 QT
-42.771 -15.327 -43.865 -15.327 QT
-44.693 -15.327 -45.459 -14.952 QT
-46.225 -14.577 -46.74 -13.921 QT
-47.287 -13.218 -47.498 -12.319 QT
-47.709 -11.421 -47.709 -10.405 QT
-47.709 -8.108 -46.709 -6.889 QT
cp
f
GR
GS
[0 -0.75 0.75 0 26 151.87487] CT
0 0.447 0.741 RC
N
-38.184 -5.28 M
-38.184 -5.811 L
-37.684 -5.811 -37.348 -5.889 QT
-37.012 -5.968 -37.012 -6.28 QT
-37.012 -10.374 L
-37.012 -10.952 -37.239 -11.085 QT
-37.465 -11.218 -38.122 -11.218 QT
-38.122 -11.749 L
-35.965 -11.905 L
-35.965 -6.28 L
-35.965 -5.968 -35.676 -5.889 QT
-35.387 -5.811 -34.918 -5.811 QT
-34.918 -5.28 L
-38.184 -5.28 L
cp
-37.559 -14.483 M
-37.559 -14.811 -37.309 -15.061 QT
-37.059 -15.311 -36.731 -15.311 QT
-36.528 -15.311 -36.325 -15.202 QT
-36.122 -15.093 -36.012 -14.897 QT
-35.903 -14.702 -35.903 -14.483 QT
-35.903 -14.171 -36.153 -13.921 QT
-36.403 -13.671 -36.731 -13.671 QT
-37.059 -13.671 -37.309 -13.921 QT
-37.559 -14.171 -37.559 -14.483 QT
cp
f
GR
GS
[0 -0.75 0.75 0 26 151.87487] CT
0 0.447 0.741 RC
N
-34.126 -5.28 M
-34.126 -5.811 L
-33.626 -5.811 -33.29 -5.889 QT
-32.954 -5.968 -32.954 -6.28 QT
-32.954 -10.374 L
-32.954 -10.78 -33.079 -10.96 QT
-33.204 -11.139 -33.43 -11.178 QT
-33.657 -11.218 -34.126 -11.218 QT
-34.126 -11.749 L
-31.954 -11.905 L
-31.954 -10.436 L
-31.657 -11.093 -31.063 -11.499 QT
-30.469 -11.905 -29.782 -11.905 QT
-28.735 -11.905 -28.212 -11.405 QT
-27.688 -10.905 -27.688 -9.889 QT
-27.688 -6.28 L
-27.688 -5.968 -27.36 -5.889 QT
-27.032 -5.811 -26.516 -5.811 QT
-26.516 -5.28 L
-29.954 -5.28 L
-29.954 -5.811 L
-29.438 -5.811 -29.11 -5.889 QT
-28.782 -5.968 -28.782 -6.28 QT
-28.782 -9.843 L
-28.782 -10.577 -28.993 -11.046 QT
-29.204 -11.514 -29.876 -11.514 QT
-30.735 -11.514 -31.298 -10.819 QT
-31.86 -10.124 -31.86 -9.249 QT
-31.86 -6.28 L
-31.86 -5.968 -31.532 -5.889 QT
-31.204 -5.811 -30.704 -5.811 QT
-30.704 -5.28 L
-34.126 -5.28 L
cp
f
GR
GS
[0 -0.75 0.75 0 26 151.87487] CT
0 0.447 0.741 RC
N
-25.962 -5.28 M
-25.962 -5.811 L
-25.462 -5.811 -25.126 -5.889 QT
-24.79 -5.968 -24.79 -6.28 QT
-24.79 -10.374 L
-24.79 -10.952 -25.017 -11.085 QT
-25.243 -11.218 -25.899 -11.218 QT
-25.899 -11.749 L
-23.743 -11.905 L
-23.743 -6.28 L
-23.743 -5.968 -23.454 -5.889 QT
-23.165 -5.811 -22.696 -5.811 QT
-22.696 -5.28 L
-25.962 -5.28 L
cp
-25.337 -14.483 M
-25.337 -14.811 -25.087 -15.061 QT
-24.837 -15.311 -24.509 -15.311 QT
-24.306 -15.311 -24.102 -15.202 QT
-23.899 -15.093 -23.79 -14.897 QT
-23.681 -14.702 -23.681 -14.483 QT
-23.681 -14.171 -23.931 -13.921 QT
-24.181 -13.671 -24.509 -13.671 QT
-24.837 -13.671 -25.087 -13.921 QT
-25.337 -14.171 -25.337 -14.483 QT
cp
f
GR
GS
[0 -0.75 0.75 0 26 151.87487] CT
0 0.447 0.741 RC
N
-14.046 -6.889 M
-13.53 -6.233 -12.764 -5.858 QT
-11.999 -5.483 -11.171 -5.483 QT
-10.468 -5.483 -9.874 -5.757 QT
-9.28 -6.03 -8.843 -6.522 QT
-8.405 -7.014 -8.163 -7.632 QT
-7.921 -8.249 -7.921 -8.936 QT
-7.921 -9.061 -7.796 -9.061 QT
-7.608 -9.061 L
-7.499 -9.061 -7.499 -8.921 QT
-7.499 -8.124 -7.796 -7.397 QT
-8.093 -6.671 -8.639 -6.116 QT
-9.186 -5.561 -9.905 -5.257 QT
-10.624 -4.952 -11.389 -4.952 QT
-12.468 -4.952 -13.436 -5.389 QT
-14.405 -5.827 -15.116 -6.585 QT
-15.827 -7.343 -16.225 -8.335 QT
-16.624 -9.327 -16.624 -10.405 QT
-16.624 -11.483 -16.225 -12.483 QT
-15.827 -13.483 -15.116 -14.241 QT
-14.405 -14.999 -13.436 -15.428 QT
-12.468 -15.858 -11.389 -15.858 QT
-10.624 -15.858 -9.921 -15.522 QT
-9.218 -15.186 -8.686 -14.577 QT
-7.827 -15.811 L
-7.733 -15.858 -7.718 -15.858 QT
-7.608 -15.858 L
-7.561 -15.858 -7.53 -15.819 QT
-7.499 -15.78 -7.499 -15.733 QT
-7.499 -11.686 L
-7.499 -11.546 -7.608 -11.546 QT
-7.874 -11.546 L
-8.014 -11.546 -8.014 -11.686 QT
-8.014 -12.108 -8.186 -12.647 QT
-8.358 -13.186 -8.632 -13.663 QT
-8.905 -14.139 -9.249 -14.514 QT
-10.093 -15.327 -11.186 -15.327 QT
-12.014 -15.327 -12.772 -14.952 QT
-13.53 -14.577 -14.046 -13.921 QT
-14.593 -13.218 -14.804 -12.319 QT
-15.014 -11.421 -15.014 -10.405 QT
-15.014 -9.389 -14.804 -8.491 QT
-14.593 -7.593 -14.046 -6.889 QT
cp
f
GR
GS
[0 -0.75 0.75 0 26 151.87487] CT
0 0.447 0.741 RC
N
-3.125 -5.108 M
-4.031 -5.108 -4.797 -5.569 QT
-5.563 -6.03 -6.008 -6.796 QT
-6.453 -7.561 -6.453 -8.468 QT
-6.453 -9.155 -6.211 -9.796 QT
-5.969 -10.436 -5.508 -10.936 QT
-5.047 -11.436 -4.438 -11.718 QT
-3.828 -11.999 -3.125 -11.999 QT
-2.203 -11.999 -1.445 -11.514 QT
-0.688 -11.03 -0.25 -10.21 QT
0.187 -9.389 0.187 -8.468 QT
0.187 -7.577 -0.258 -6.803 QT
-0.703 -6.03 -1.469 -5.569 QT
-2.234 -5.108 -3.125 -5.108 QT
cp
-3.125 -5.546 M
-1.922 -5.546 -1.523 -6.421 QT
-1.125 -7.296 -1.125 -8.639 QT
-1.125 -9.389 -1.203 -9.889 QT
-1.281 -10.389 -1.547 -10.796 QT
-1.719 -11.03 -1.977 -11.218 QT
-2.234 -11.405 -2.523 -11.507 QT
-2.813 -11.608 -3.125 -11.608 QT
-3.594 -11.608 -4.016 -11.397 QT
-4.438 -11.186 -4.719 -10.796 QT
-5 -10.358 -5.07 -9.85 QT
-5.141 -9.343 -5.141 -8.639 QT
-5.141 -7.796 -5 -7.124 QT
-4.859 -6.452 -4.414 -5.999 QT
-3.969 -5.546 -3.125 -5.546 QT
cp
f
GR
GS
[0 -0.75 0.75 0 26 151.87487] CT
0 0.447 0.741 RC
N
4.6 -5.108 M
3.678 -5.108 2.92 -5.593 QT
2.163 -6.077 1.725 -6.874 QT
1.288 -7.671 1.288 -8.561 QT
1.288 -9.452 1.686 -10.241 QT
2.085 -11.03 2.795 -11.514 QT
3.506 -11.999 4.381 -11.999 QT
5.085 -11.999 5.592 -11.772 QT
6.1 -11.546 6.428 -11.132 QT
6.756 -10.718 6.92 -10.163 QT
7.085 -9.608 7.085 -8.936 QT
7.085 -8.749 6.944 -8.749 QT
2.6 -8.749 L
2.6 -8.577 L
2.6 -7.343 3.1 -6.444 QT
3.6 -5.546 4.741 -5.546 QT
5.194 -5.546 5.585 -5.757 QT
5.975 -5.968 6.264 -6.327 QT
6.553 -6.686 6.663 -7.108 QT
6.678 -7.155 6.717 -7.202 QT
6.756 -7.249 6.803 -7.249 QT
6.944 -7.249 L
7.085 -7.249 7.085 -7.046 QT
6.881 -6.202 6.178 -5.655 QT
5.475 -5.108 4.6 -5.108 QT
cp
2.616 -9.124 M
6.022 -9.124 L
6.022 -9.686 5.866 -10.264 QT
5.71 -10.843 5.342 -11.225 QT
4.975 -11.608 4.381 -11.608 QT
3.538 -11.608 3.077 -10.811 QT
2.616 -10.014 2.616 -9.124 QT
cp
f
GR
GS
[0 -0.75 0.75 0 26 151.87487] CT
0 0.447 0.741 RC
N
7.775 -5.28 M
7.775 -5.811 L
8.291 -5.811 8.619 -5.889 QT
8.947 -5.968 8.947 -6.28 QT
8.947 -11.218 L
7.791 -11.218 L
7.791 -11.749 L
8.947 -11.749 L
8.947 -13.546 L
8.947 -14.108 9.267 -14.553 QT
9.587 -14.999 10.08 -15.28 QT
10.572 -15.561 11.15 -15.71 QT
11.728 -15.858 12.259 -15.858 QT
12.775 -15.858 13.22 -15.639 QT
13.666 -15.421 13.884 -15.03 QT
14.884 -15.858 16.447 -15.858 QT
16.884 -15.858 17.314 -15.671 QT
17.744 -15.483 18.017 -15.132 QT
18.291 -14.78 18.291 -14.311 QT
18.291 -14.014 18.08 -13.803 QT
17.869 -13.593 17.572 -13.593 QT
17.259 -13.593 17.056 -13.796 QT
16.853 -13.999 16.853 -14.311 QT
16.853 -14.593 17.048 -14.811 QT
17.244 -15.03 17.525 -15.03 QT
17.056 -15.468 16.322 -15.468 QT
15.791 -15.468 15.267 -15.218 QT
14.744 -14.968 14.423 -14.522 QT
14.103 -14.077 14.103 -13.514 QT
14.103 -11.749 L
16.087 -11.749 L
18.306 -11.936 L
18.306 -6.28 L
18.306 -5.968 18.634 -5.889 QT
18.962 -5.811 19.478 -5.811 QT
19.478 -5.28 L
16.087 -5.28 L
16.087 -5.811 L
16.603 -5.811 16.931 -5.889 QT
17.259 -5.968 17.259 -6.28 QT
17.259 -10.405 L
17.259 -10.827 17.158 -10.999 QT
17.056 -11.171 16.666 -11.218 QT
14.15 -11.218 L
14.15 -6.28 L
14.15 -5.968 14.478 -5.889 QT
14.806 -5.811 15.322 -5.811 QT
15.322 -5.28 L
11.931 -5.28 L
11.931 -5.811 L
12.431 -5.811 12.767 -5.889 QT
13.103 -5.968 13.103 -6.28 QT
13.103 -11.218 L
9.994 -11.218 L
9.994 -6.28 L
9.994 -5.968 10.33 -5.889 QT
10.666 -5.811 11.166 -5.811 QT
11.166 -5.28 L
7.775 -5.28 L
cp
9.947 -11.749 M
13.103 -11.749 L
13.103 -13.546 L
13.103 -13.639 L
12.884 -13.718 12.767 -13.905 QT
12.65 -14.093 12.65 -14.311 QT
12.65 -14.608 12.845 -14.819 QT
13.041 -15.03 13.322 -15.03 QT
12.869 -15.468 12.134 -15.468 QT
11.587 -15.468 11.08 -15.218 QT
10.572 -14.968 10.259 -14.514 QT
9.947 -14.061 9.947 -13.514 QT
9.947 -11.749 L
cp
f
GR
GS
[0 -0.75 0.75 0 26 151.87487] CT
0 0.447 0.741 RC
N
23.341 -5.108 M
22.435 -5.108 21.692 -5.585 QT
20.95 -6.061 20.528 -6.843 QT
20.107 -7.624 20.107 -8.514 QT
20.107 -9.405 20.528 -10.218 QT
20.95 -11.03 21.692 -11.514 QT
22.435 -11.999 23.341 -11.999 QT
24.216 -11.999 24.942 -11.655 QT
25.669 -11.311 25.669 -10.53 QT
25.669 -10.233 25.458 -10.022 QT
25.247 -9.811 24.95 -9.811 QT
24.653 -9.811 24.442 -10.022 QT
24.232 -10.233 24.232 -10.53 QT
24.232 -10.796 24.396 -10.991 QT
24.56 -11.186 24.81 -11.233 QT
24.294 -11.561 23.357 -11.561 QT
22.638 -11.561 22.2 -11.085 QT
21.763 -10.608 21.583 -9.905 QT
21.403 -9.202 21.403 -8.514 QT
21.403 -7.796 21.622 -7.116 QT
21.841 -6.436 22.317 -5.991 QT
22.794 -5.546 23.528 -5.546 QT
24.232 -5.546 24.732 -5.983 QT
25.232 -6.421 25.419 -7.124 QT
25.419 -7.218 25.528 -7.218 QT
25.716 -7.218 L
25.763 -7.218 25.794 -7.178 QT
25.825 -7.139 25.825 -7.077 QT
25.825 -7.046 L
25.607 -6.155 24.935 -5.632 QT
24.263 -5.108 23.341 -5.108 QT
cp
f
GR
GS
[0 -0.75 0.75 0 26 151.87487] CT
0 0.447 0.741 RC
N
26.594 -5.28 M
26.594 -5.811 L
27.094 -5.811 27.43 -5.889 QT
27.766 -5.968 27.766 -6.28 QT
27.766 -10.374 L
27.766 -10.952 27.539 -11.085 QT
27.313 -11.218 26.656 -11.218 QT
26.656 -11.749 L
28.813 -11.905 L
28.813 -6.28 L
28.813 -5.968 29.102 -5.889 QT
29.391 -5.811 29.859 -5.811 QT
29.859 -5.28 L
26.594 -5.28 L
cp
27.219 -14.483 M
27.219 -14.811 27.469 -15.061 QT
27.719 -15.311 28.047 -15.311 QT
28.25 -15.311 28.453 -15.202 QT
28.656 -15.093 28.766 -14.897 QT
28.875 -14.702 28.875 -14.483 QT
28.875 -14.171 28.625 -13.921 QT
28.375 -13.671 28.047 -13.671 QT
27.719 -13.671 27.469 -13.921 QT
27.219 -14.171 27.219 -14.483 QT
cp
f
GR
GS
[0 -0.75 0.75 0 26 151.87487] CT
0 0.447 0.741 RC
N
33.934 -5.108 M
33.012 -5.108 32.254 -5.593 QT
31.496 -6.077 31.059 -6.874 QT
30.621 -7.671 30.621 -8.561 QT
30.621 -9.452 31.019 -10.241 QT
31.418 -11.03 32.129 -11.514 QT
32.84 -11.999 33.715 -11.999 QT
34.418 -11.999 34.926 -11.772 QT
35.434 -11.546 35.762 -11.132 QT
36.09 -10.718 36.254 -10.163 QT
36.418 -9.608 36.418 -8.936 QT
36.418 -8.749 36.277 -8.749 QT
31.934 -8.749 L
31.934 -8.577 L
31.934 -7.343 32.434 -6.444 QT
32.934 -5.546 34.074 -5.546 QT
34.527 -5.546 34.918 -5.757 QT
35.309 -5.968 35.598 -6.327 QT
35.887 -6.686 35.996 -7.108 QT
36.012 -7.155 36.051 -7.202 QT
36.09 -7.249 36.137 -7.249 QT
36.277 -7.249 L
36.418 -7.249 36.418 -7.046 QT
36.215 -6.202 35.512 -5.655 QT
34.809 -5.108 33.934 -5.108 QT
cp
31.949 -9.124 M
35.355 -9.124 L
35.355 -9.686 35.199 -10.264 QT
35.043 -10.843 34.676 -11.225 QT
34.309 -11.608 33.715 -11.608 QT
32.871 -11.608 32.41 -10.811 QT
31.949 -10.014 31.949 -9.124 QT
cp
f
GR
GS
[0 -0.75 0.75 0 26 151.87487] CT
0 0.447 0.741 RC
N
37.171 -5.28 M
37.171 -5.811 L
37.671 -5.811 38.007 -5.889 QT
38.343 -5.968 38.343 -6.28 QT
38.343 -10.374 L
38.343 -10.78 38.218 -10.96 QT
38.093 -11.139 37.866 -11.178 QT
37.64 -11.218 37.171 -11.218 QT
37.171 -11.749 L
39.343 -11.905 L
39.343 -10.436 L
39.64 -11.093 40.233 -11.499 QT
40.827 -11.905 41.515 -11.905 QT
42.561 -11.905 43.085 -11.405 QT
43.608 -10.905 43.608 -9.889 QT
43.608 -6.28 L
43.608 -5.968 43.936 -5.889 QT
44.265 -5.811 44.78 -5.811 QT
44.78 -5.28 L
41.343 -5.28 L
41.343 -5.811 L
41.858 -5.811 42.186 -5.889 QT
42.515 -5.968 42.515 -6.28 QT
42.515 -9.843 L
42.515 -10.577 42.304 -11.046 QT
42.093 -11.514 41.421 -11.514 QT
40.561 -11.514 39.999 -10.819 QT
39.436 -10.124 39.436 -9.249 QT
39.436 -6.28 L
39.436 -5.968 39.765 -5.889 QT
40.093 -5.811 40.593 -5.811 QT
40.593 -5.28 L
37.171 -5.28 L
cp
f
GR
GS
[0 -0.75 0.75 0 26 151.87487] CT
0 0.447 0.741 RC
N
45.99 -7.077 M
45.99 -11.218 L
44.74 -11.218 L
44.74 -11.608 L
45.724 -11.608 46.185 -12.522 QT
46.646 -13.436 46.646 -14.514 QT
47.083 -14.514 L
47.083 -11.749 L
49.193 -11.749 L
49.193 -11.218 L
47.083 -11.218 L
47.083 -7.108 L
47.083 -6.483 47.294 -6.014 QT
47.505 -5.546 48.037 -5.546 QT
48.552 -5.546 48.779 -6.046 QT
49.005 -6.546 49.005 -7.108 QT
49.005 -7.999 L
49.443 -7.999 L
49.443 -7.077 L
49.443 -6.608 49.271 -6.155 QT
49.099 -5.702 48.763 -5.405 QT
48.427 -5.108 47.943 -5.108 QT
47.037 -5.108 46.513 -5.647 QT
45.99 -6.186 45.99 -7.077 QT
cp
f
GR
GS
[0.75 0 0 0.75 0 0] CT
0.851 0.325 0.098 RC
2 setlinecap
1 LJ
0.667 LW
N
507 374 M
507 31 L
S
GR
GS
[0.75 0 0 0.75 0 0] CT
0.851 0.325 0.098 RC
2 setlinecap
1 LJ
0.667 LW
N
507 374 M
502.66 374 L
S
GR
GS
[0.75 0 0 0.75 0 0] CT
0.851 0.325 0.098 RC
2 setlinecap
1 LJ
0.667 LW
N
507 316.833 M
502.66 316.833 L
S
GR
GS
[0.75 0 0 0.75 0 0] CT
0.851 0.325 0.098 RC
2 setlinecap
1 LJ
0.667 LW
N
507 259.667 M
502.66 259.667 L
S
GR
GS
[0.75 0 0 0.75 0 0] CT
0.851 0.325 0.098 RC
2 setlinecap
1 LJ
0.667 LW
N
507 202.5 M
502.66 202.5 L
S
GR
GS
[0.75 0 0 0.75 0 0] CT
0.851 0.325 0.098 RC
2 setlinecap
1 LJ
0.667 LW
N
507 145.333 M
502.66 145.333 L
S
GR
GS
[0.75 0 0 0.75 0 0] CT
0.851 0.325 0.098 RC
2 setlinecap
1 LJ
0.667 LW
N
507 88.167 M
502.66 88.167 L
S
GR
GS
[0.75 0 0 0.75 0 0] CT
0.851 0.325 0.098 RC
2 setlinecap
1 LJ
0.667 LW
N
507 31 M
502.66 31 L
S
GR
GS
[0.75 0 0 0.75 384.25003 280.5] CT
0.851 0.325 0.098 RC
/Helvetica 13.333 F
GS
[1 0 0 1 0 0] CT
0 4.5 moveto 
1 -1 scale
(0) t 
GR
GR
GS
[0.75 0 0 0.75 384.25003 237.62501] CT
0.851 0.325 0.098 RC
/Helvetica 13.333 F
GS
[1 0 0 1 0 0] CT
0 4.5 moveto 
1 -1 scale
(50) t 
GR
GR
GS
[0.75 0 0 0.75 384.25003 194.74999] CT
0.851 0.325 0.098 RC
/Helvetica 13.333 F
GS
[1 0 0 1 0 0] CT
0 4.5 moveto 
1 -1 scale
(100) t 
GR
GR
GS
[0.75 0 0 0.75 384.25003 151.875] CT
0.851 0.325 0.098 RC
/Helvetica 13.333 F
GS
[1 0 0 1 0 0] CT
0 4.5 moveto 
1 -1 scale
(150) t 
GR
GR
GS
[0.75 0 0 0.75 384.25003 109] CT
0.851 0.325 0.098 RC
/Helvetica 13.333 F
GS
[1 0 0 1 0 0] CT
0 4.5 moveto 
1 -1 scale
(200) t 
GR
GR
GS
[0.75 0 0 0.75 384.25003 66.125] CT
0.851 0.325 0.098 RC
/Helvetica 13.333 F
GS
[1 0 0 1 0 0] CT
0 4.5 moveto 
1 -1 scale
(250) t 
GR
GR
GS
[0.75 0 0 0.75 384.25003 23.25] CT
0.851 0.325 0.098 RC
/Helvetica 13.333 F
GS
[1 0 0 1 0 0] CT
0 4.5 moveto 
1 -1 scale
(300) t 
GR
GR
GS
[0 -0.75 0.75 0 405.99998 151.87489] CT
0.851 0.325 0.098 RC
N
-69.082 12.32 M
-69.082 11.789 L
-67.738 11.789 -67.441 10.914 QT
-64.285 1.742 L
-64.238 1.586 -64.051 1.586 QT
-63.847 1.586 L
-63.66 1.586 -63.613 1.742 QT
-60.316 11.32 L
-60.191 11.632 -59.793 11.711 QT
-59.394 11.789 -58.816 11.789 QT
-58.816 12.32 L
-63.004 12.32 L
-63.004 11.789 L
-61.754 11.789 -61.754 11.382 QT
-61.754 11.32 L
-62.566 8.976 L
-66.207 8.976 L
-66.879 10.914 L
-66.894 10.961 -66.894 11.054 QT
-66.894 11.429 -66.535 11.609 QT
-66.176 11.789 -65.769 11.789 QT
-65.769 12.32 L
-69.082 12.32 L
cp
-66.035 8.445 M
-62.738 8.445 L
-64.394 3.664 L
-66.035 8.445 L
cp
f
GR
GS
[0 -0.75 0.75 0 405.99998 151.87489] CT
0.851 0.325 0.098 RC
N
-54.91 12.32 M
-57.097 6.804 L
-57.238 6.539 -57.527 6.461 QT
-57.816 6.382 -58.285 6.382 QT
-58.285 5.851 L
-55.129 5.851 L
-55.129 6.382 L
-55.972 6.382 -55.972 6.742 QT
-55.972 6.804 -55.957 6.82 QT
-54.269 11.054 L
-52.754 7.242 L
-52.707 7.117 -52.707 6.992 QT
-52.707 6.711 -52.926 6.547 QT
-53.144 6.382 -53.441 6.382 QT
-53.441 5.851 L
-50.941 5.851 L
-50.941 6.382 L
-51.41 6.382 -51.761 6.593 QT
-52.113 6.804 -52.301 7.226 QT
-54.316 12.32 L
-54.379 12.492 -54.566 12.492 QT
-54.676 12.492 L
-54.847 12.492 -54.91 12.32 QT
cp
f
GR
GS
[0 -0.75 0.75 0 405.99998 151.87489] CT
0.851 0.325 0.098 RC
N
-47.498 12.492 M
-48.42 12.492 -49.178 12.007 QT
-49.936 11.523 -50.373 10.726 QT
-50.811 9.929 -50.811 9.039 QT
-50.811 8.148 -50.412 7.359 QT
-50.014 6.57 -49.303 6.086 QT
-48.592 5.601 -47.717 5.601 QT
-47.014 5.601 -46.506 5.828 QT
-45.998 6.054 -45.67 6.468 QT
-45.342 6.882 -45.178 7.437 QT
-45.014 7.992 -45.014 8.664 QT
-45.014 8.851 -45.155 8.851 QT
-49.498 8.851 L
-49.498 9.023 L
-49.498 10.257 -48.998 11.156 QT
-48.498 12.054 -47.358 12.054 QT
-46.905 12.054 -46.514 11.843 QT
-46.123 11.632 -45.834 11.273 QT
-45.545 10.914 -45.436 10.492 QT
-45.42 10.445 -45.381 10.398 QT
-45.342 10.351 -45.295 10.351 QT
-45.155 10.351 L
-45.014 10.351 -45.014 10.554 QT
-45.217 11.398 -45.92 11.945 QT
-46.623 12.492 -47.498 12.492 QT
cp
-49.483 8.476 M
-46.077 8.476 L
-46.077 7.914 -46.233 7.336 QT
-46.389 6.757 -46.756 6.375 QT
-47.123 5.992 -47.717 5.992 QT
-48.561 5.992 -49.022 6.789 QT
-49.483 7.586 -49.483 8.476 QT
cp
f
GR
GS
[0 -0.75 0.75 0 405.99998 151.87489] CT
0.851 0.325 0.098 RC
N
-44.324 12.32 M
-44.324 11.789 L
-43.808 11.789 -43.48 11.711 QT
-43.152 11.632 -43.152 11.32 QT
-43.152 7.226 L
-43.152 6.82 -43.277 6.64 QT
-43.402 6.461 -43.628 6.422 QT
-43.855 6.382 -44.324 6.382 QT
-44.324 5.851 L
-42.183 5.695 L
-42.183 7.164 L
-41.933 6.507 -41.488 6.101 QT
-41.042 5.695 -40.402 5.695 QT
-39.964 5.695 -39.613 5.961 QT
-39.261 6.226 -39.261 6.648 QT
-39.261 6.929 -39.456 7.125 QT
-39.652 7.32 -39.933 7.32 QT
-40.214 7.32 -40.41 7.125 QT
-40.605 6.929 -40.605 6.648 QT
-40.605 6.242 -40.324 6.086 QT
-40.402 6.086 L
-41.011 6.086 -41.394 6.523 QT
-41.777 6.961 -41.941 7.609 QT
-42.105 8.257 -42.105 8.851 QT
-42.105 11.32 L
-42.105 11.789 -40.652 11.789 QT
-40.652 12.32 L
-44.324 12.32 L
cp
f
GR
GS
[0 -0.75 0.75 0 405.99998 151.87489] CT
0.851 0.325 0.098 RC
N
-38.376 10.851 M
-38.376 9.961 -37.673 9.398 QT
-36.97 8.836 -35.978 8.601 QT
-34.985 8.367 -34.11 8.367 QT
-34.11 7.757 L
-34.11 7.32 -34.298 6.914 QT
-34.485 6.507 -34.845 6.25 QT
-35.204 5.992 -35.642 5.992 QT
-36.626 5.992 -37.157 6.445 QT
-36.86 6.445 -36.681 6.656 QT
-36.501 6.867 -36.501 7.164 QT
-36.501 7.461 -36.712 7.672 QT
-36.923 7.882 -37.204 7.882 QT
-37.517 7.882 -37.728 7.672 QT
-37.939 7.461 -37.939 7.164 QT
-37.939 6.367 -37.22 5.984 QT
-36.501 5.601 -35.642 5.601 QT
-35.032 5.601 -34.415 5.859 QT
-33.798 6.117 -33.407 6.601 QT
-33.017 7.086 -33.017 7.726 QT
-33.017 11.101 L
-33.017 11.398 -32.892 11.64 QT
-32.767 11.882 -32.501 11.882 QT
-32.251 11.882 -32.134 11.632 QT
-32.017 11.382 -32.017 11.101 QT
-32.017 10.148 L
-31.579 10.148 L
-31.579 11.101 L
-31.579 11.445 -31.751 11.75 QT
-31.923 12.054 -32.22 12.234 QT
-32.517 12.414 -32.86 12.414 QT
-33.298 12.414 -33.618 12.07 QT
-33.939 11.726 -33.97 11.257 QT
-34.251 11.82 -34.79 12.156 QT
-35.329 12.492 -35.954 12.492 QT
-36.517 12.492 -37.071 12.32 QT
-37.626 12.148 -38.001 11.789 QT
-38.376 11.429 -38.376 10.851 QT
cp
-37.157 10.851 M
-37.157 11.382 -36.767 11.734 QT
-36.376 12.086 -35.845 12.086 QT
-35.36 12.086 -34.97 11.851 QT
-34.579 11.617 -34.345 11.195 QT
-34.11 10.773 -34.11 10.32 QT
-34.11 8.757 L
-34.782 8.757 -35.501 8.976 QT
-36.22 9.195 -36.689 9.672 QT
-37.157 10.148 -37.157 10.851 QT
cp
f
GR
GS
[0 -0.75 0.75 0 405.99998 151.87489] CT
0.851 0.325 0.098 RC
N
-31.215 13.492 M
-31.215 12.961 -30.832 12.562 QT
-30.449 12.164 -29.902 11.992 QT
-30.215 11.757 -30.371 11.414 QT
-30.527 11.07 -30.527 10.679 QT
-30.527 9.976 -30.074 9.445 QT
-30.761 8.773 -30.761 7.898 QT
-30.761 7.429 -30.558 7.015 QT
-30.355 6.601 -29.996 6.304 QT
-29.636 6.007 -29.199 5.851 QT
-28.761 5.695 -28.308 5.695 QT
-27.418 5.695 -26.699 6.211 QT
-26.386 5.882 -25.965 5.703 QT
-25.543 5.523 -25.09 5.523 QT
-24.777 5.523 -24.574 5.757 QT
-24.371 5.992 -24.371 6.304 QT
-24.371 6.492 -24.504 6.632 QT
-24.636 6.773 -24.824 6.773 QT
-25.011 6.773 -25.152 6.632 QT
-25.293 6.492 -25.293 6.304 QT
-25.293 6.023 -25.105 5.914 QT
-25.886 5.914 -26.449 6.461 QT
-26.168 6.726 -26.004 7.117 QT
-25.84 7.507 -25.84 7.898 QT
-25.84 8.539 -26.191 9.047 QT
-26.543 9.554 -27.121 9.836 QT
-27.699 10.117 -28.308 10.117 QT
-29.121 10.117 -29.808 9.664 QT
-30.011 9.961 -30.011 10.32 QT
-30.011 10.726 -29.754 11.023 QT
-29.496 11.32 -29.105 11.32 QT
-27.871 11.32 L
-26.98 11.32 -26.261 11.476 QT
-25.543 11.632 -25.058 12.117 QT
-24.574 12.601 -24.574 13.492 QT
-24.574 14.148 -25.129 14.586 QT
-25.683 15.023 -26.457 15.218 QT
-27.23 15.414 -27.886 15.414 QT
-28.558 15.414 -29.332 15.218 QT
-30.105 15.023 -30.66 14.586 QT
-31.215 14.148 -31.215 13.492 QT
cp
-30.371 13.492 M
-30.371 13.992 -29.965 14.336 QT
-29.558 14.679 -28.98 14.843 QT
-28.402 15.007 -27.886 15.007 QT
-27.386 15.007 -26.808 14.843 QT
-26.23 14.679 -25.824 14.336 QT
-25.418 13.992 -25.418 13.492 QT
-25.418 12.711 -26.129 12.476 QT
-26.84 12.242 -27.871 12.242 QT
-29.105 12.242 L
-29.449 12.242 -29.738 12.406 QT
-30.027 12.57 -30.199 12.867 QT
-30.371 13.164 -30.371 13.492 QT
cp
-28.308 9.711 M
-27.027 9.711 -27.027 7.898 QT
-27.027 7.117 -27.301 6.609 QT
-27.574 6.101 -28.308 6.101 QT
-29.043 6.101 -29.308 6.609 QT
-29.574 7.117 -29.574 7.898 QT
-29.574 8.398 -29.472 8.797 QT
-29.371 9.195 -29.097 9.453 QT
-28.824 9.711 -28.308 9.711 QT
cp
f
GR
GS
[0 -0.75 0.75 0 405.99998 151.87489] CT
0.851 0.325 0.098 RC
N
-20.569 12.492 M
-21.491 12.492 -22.248 12.007 QT
-23.006 11.523 -23.444 10.726 QT
-23.881 9.929 -23.881 9.039 QT
-23.881 8.148 -23.483 7.359 QT
-23.084 6.57 -22.373 6.086 QT
-21.663 5.601 -20.788 5.601 QT
-20.084 5.601 -19.577 5.828 QT
-19.069 6.054 -18.741 6.468 QT
-18.413 6.882 -18.248 7.437 QT
-18.084 7.992 -18.084 8.664 QT
-18.084 8.851 -18.225 8.851 QT
-22.569 8.851 L
-22.569 9.023 L
-22.569 10.257 -22.069 11.156 QT
-21.569 12.054 -20.428 12.054 QT
-19.975 12.054 -19.584 11.843 QT
-19.194 11.632 -18.905 11.273 QT
-18.616 10.914 -18.506 10.492 QT
-18.491 10.445 -18.452 10.398 QT
-18.413 10.351 -18.366 10.351 QT
-18.225 10.351 L
-18.084 10.351 -18.084 10.554 QT
-18.288 11.398 -18.991 11.945 QT
-19.694 12.492 -20.569 12.492 QT
cp
-22.553 8.476 M
-19.147 8.476 L
-19.147 7.914 -19.303 7.336 QT
-19.459 6.757 -19.827 6.375 QT
-20.194 5.992 -20.788 5.992 QT
-21.631 5.992 -22.092 6.789 QT
-22.553 7.586 -22.553 8.476 QT
cp
f
GR
GS
[0 -0.75 0.75 0 405.99998 151.87489] CT
0.851 0.325 0.098 RC
N
-12.38 12.32 M
-12.38 11.789 L
-10.833 11.789 -10.833 11.32 QT
-10.833 3.07 L
-10.833 2.601 -12.38 2.601 QT
-12.38 2.07 L
-6.864 2.07 L
-6.099 2.07 -5.325 2.367 QT
-4.552 2.664 -4.044 3.25 QT
-3.536 3.836 -3.536 4.617 QT
-3.536 5.539 -4.286 6.156 QT
-5.036 6.773 -6.036 6.961 QT
-5.396 6.961 -4.7 7.32 QT
-4.005 7.679 -3.568 8.281 QT
-3.13 8.882 -3.13 9.554 QT
-3.13 10.382 -3.614 11.007 QT
-4.099 11.632 -4.88 11.976 QT
-5.661 12.32 -6.443 12.32 QT
-12.38 12.32 L
cp
-9.536 11.32 M
-9.536 11.632 -9.349 11.711 QT
-9.161 11.789 -8.771 11.789 QT
-6.864 11.789 L
-6.286 11.789 -5.779 11.484 QT
-5.271 11.179 -4.982 10.664 QT
-4.693 10.148 -4.693 9.554 QT
-4.693 8.992 -4.935 8.445 QT
-5.177 7.898 -5.63 7.547 QT
-6.083 7.195 -6.661 7.195 QT
-9.536 7.195 L
-9.536 11.32 L
cp
-9.536 6.804 M
-7.286 6.804 L
-6.833 6.804 -6.435 6.632 QT
-6.036 6.461 -5.716 6.156 QT
-5.396 5.851 -5.224 5.453 QT
-5.052 5.054 -5.052 4.617 QT
-5.052 4.226 -5.177 3.875 QT
-5.302 3.523 -5.552 3.226 QT
-5.802 2.929 -6.138 2.765 QT
-6.474 2.601 -6.864 2.601 QT
-8.771 2.601 L
-9.036 2.601 -9.193 2.625 QT
-9.349 2.648 -9.443 2.75 QT
-9.536 2.851 -9.536 3.07 QT
-9.536 6.804 L
cp
f
GR
GS
[0 -0.75 0.75 0 405.99998 151.87489] CT
0.851 0.325 0.098 RC
N
-1.913 10.851 M
-1.913 9.961 -1.21 9.398 QT
-0.507 8.836 0.485 8.601 QT
1.478 8.367 2.353 8.367 QT
2.353 7.757 L
2.353 7.32 2.165 6.914 QT
1.978 6.507 1.618 6.25 QT
1.259 5.992 0.821 5.992 QT
-0.163 5.992 -0.694 6.445 QT
-0.397 6.445 -0.218 6.656 QT
-0.038 6.867 -0.038 7.164 QT
-0.038 7.461 -0.249 7.672 QT
-0.46 7.882 -0.741 7.882 QT
-1.054 7.882 -1.265 7.672 QT
-1.476 7.461 -1.476 7.164 QT
-1.476 6.367 -0.757 5.984 QT
-0.038 5.601 0.821 5.601 QT
1.431 5.601 2.048 5.859 QT
2.665 6.117 3.056 6.601 QT
3.446 7.086 3.446 7.726 QT
3.446 11.101 L
3.446 11.398 3.571 11.64 QT
3.696 11.882 3.962 11.882 QT
4.212 11.882 4.329 11.632 QT
4.446 11.382 4.446 11.101 QT
4.446 10.148 L
4.884 10.148 L
4.884 11.101 L
4.884 11.445 4.712 11.75 QT
4.54 12.054 4.243 12.234 QT
3.946 12.414 3.603 12.414 QT
3.165 12.414 2.845 12.07 QT
2.524 11.726 2.493 11.257 QT
2.212 11.82 1.673 12.156 QT
1.134 12.492 0.509 12.492 QT
-0.054 12.492 -0.608 12.32 QT
-1.163 12.148 -1.538 11.789 QT
-1.913 11.429 -1.913 10.851 QT
cp
-0.694 10.851 M
-0.694 11.382 -0.304 11.734 QT
0.087 12.086 0.618 12.086 QT
1.103 12.086 1.493 11.851 QT
1.884 11.617 2.118 11.195 QT
2.353 10.773 2.353 10.32 QT
2.353 8.757 L
1.681 8.757 0.962 8.976 QT
0.243 9.195 -0.226 9.672 QT
-0.694 10.148 -0.694 10.851 QT
cp
f
GR
GS
[0 -0.75 0.75 0 405.99998 151.87489] CT
0.851 0.325 0.098 RC
N
5.295 12.32 M
5.295 11.789 L
5.795 11.789 6.131 11.711 QT
6.467 11.632 6.467 11.32 QT
6.467 3.445 L
6.467 3.039 6.342 2.859 QT
6.217 2.679 5.991 2.64 QT
5.764 2.601 5.295 2.601 QT
5.295 2.07 L
7.514 1.914 L
7.514 11.32 L
7.514 11.632 7.842 11.711 QT
8.17 11.789 8.686 11.789 QT
8.686 12.32 L
5.295 12.32 L
cp
f
GR
GS
[0 -0.75 0.75 0 405.99998 151.87489] CT
0.851 0.325 0.098 RC
N
9.494 10.851 M
9.494 9.961 10.198 9.398 QT
10.901 8.836 11.893 8.601 QT
12.885 8.367 13.76 8.367 QT
13.76 7.757 L
13.76 7.32 13.573 6.914 QT
13.385 6.507 13.026 6.25 QT
12.666 5.992 12.229 5.992 QT
11.244 5.992 10.713 6.445 QT
11.01 6.445 11.19 6.656 QT
11.369 6.867 11.369 7.164 QT
11.369 7.461 11.158 7.672 QT
10.948 7.882 10.666 7.882 QT
10.354 7.882 10.143 7.672 QT
9.932 7.461 9.932 7.164 QT
9.932 6.367 10.651 5.984 QT
11.369 5.601 12.229 5.601 QT
12.838 5.601 13.455 5.859 QT
14.073 6.117 14.463 6.601 QT
14.854 7.086 14.854 7.726 QT
14.854 11.101 L
14.854 11.398 14.979 11.64 QT
15.104 11.882 15.369 11.882 QT
15.619 11.882 15.737 11.632 QT
15.854 11.382 15.854 11.101 QT
15.854 10.148 L
16.291 10.148 L
16.291 11.101 L
16.291 11.445 16.119 11.75 QT
15.948 12.054 15.651 12.234 QT
15.354 12.414 15.01 12.414 QT
14.573 12.414 14.252 12.07 QT
13.932 11.726 13.901 11.257 QT
13.619 11.82 13.08 12.156 QT
12.541 12.492 11.916 12.492 QT
11.354 12.492 10.799 12.32 QT
10.244 12.148 9.869 11.789 QT
9.494 11.429 9.494 10.851 QT
cp
10.713 10.851 M
10.713 11.382 11.104 11.734 QT
11.494 12.086 12.026 12.086 QT
12.51 12.086 12.901 11.851 QT
13.291 11.617 13.526 11.195 QT
13.76 10.773 13.76 10.32 QT
13.76 8.757 L
13.088 8.757 12.369 8.976 QT
11.651 9.195 11.182 9.672 QT
10.713 10.148 10.713 10.851 QT
cp
f
GR
GS
[0 -0.75 0.75 0 405.99998 151.87489] CT
0.851 0.325 0.098 RC
N
16.687 12.32 M
16.687 11.789 L
17.187 11.789 17.523 11.711 QT
17.859 11.632 17.859 11.32 QT
17.859 7.226 L
17.859 6.82 17.734 6.64 QT
17.609 6.461 17.382 6.422 QT
17.156 6.382 16.687 6.382 QT
16.687 5.851 L
18.859 5.695 L
18.859 7.164 L
19.156 6.507 19.75 6.101 QT
20.343 5.695 21.031 5.695 QT
22.078 5.695 22.601 6.195 QT
23.125 6.695 23.125 7.711 QT
23.125 11.32 L
23.125 11.632 23.453 11.711 QT
23.781 11.789 24.296 11.789 QT
24.296 12.32 L
20.859 12.32 L
20.859 11.789 L
21.375 11.789 21.703 11.711 QT
22.031 11.632 22.031 11.32 QT
22.031 7.757 L
22.031 7.023 21.82 6.554 QT
21.609 6.086 20.937 6.086 QT
20.078 6.086 19.515 6.781 QT
18.953 7.476 18.953 8.351 QT
18.953 11.32 L
18.953 11.632 19.281 11.711 QT
19.609 11.789 20.109 11.789 QT
20.109 12.32 L
16.687 12.32 L
cp
f
GR
GS
[0 -0.75 0.75 0 405.99998 151.87489] CT
0.851 0.325 0.098 RC
N
28.117 12.492 M
27.21 12.492 26.468 12.015 QT
25.726 11.539 25.304 10.757 QT
24.882 9.976 24.882 9.086 QT
24.882 8.195 25.304 7.382 QT
25.726 6.57 26.468 6.086 QT
27.21 5.601 28.117 5.601 QT
28.992 5.601 29.718 5.945 QT
30.445 6.289 30.445 7.07 QT
30.445 7.367 30.234 7.578 QT
30.023 7.789 29.726 7.789 QT
29.429 7.789 29.218 7.578 QT
29.007 7.367 29.007 7.07 QT
29.007 6.804 29.171 6.609 QT
29.335 6.414 29.585 6.367 QT
29.07 6.039 28.132 6.039 QT
27.413 6.039 26.976 6.515 QT
26.538 6.992 26.359 7.695 QT
26.179 8.398 26.179 9.086 QT
26.179 9.804 26.398 10.484 QT
26.617 11.164 27.093 11.609 QT
27.57 12.054 28.304 12.054 QT
29.007 12.054 29.507 11.617 QT
30.007 11.179 30.195 10.476 QT
30.195 10.382 30.304 10.382 QT
30.492 10.382 L
30.538 10.382 30.57 10.422 QT
30.601 10.461 30.601 10.523 QT
30.601 10.554 L
30.382 11.445 29.71 11.968 QT
29.038 12.492 28.117 12.492 QT
cp
f
GR
GS
[0 -0.75 0.75 0 405.99998 151.87489] CT
0.851 0.325 0.098 RC
N
34.635 12.492 M
33.713 12.492 32.955 12.007 QT
32.198 11.523 31.76 10.726 QT
31.323 9.929 31.323 9.039 QT
31.323 8.148 31.721 7.359 QT
32.119 6.57 32.83 6.086 QT
33.541 5.601 34.416 5.601 QT
35.119 5.601 35.627 5.828 QT
36.135 6.054 36.463 6.468 QT
36.791 6.882 36.955 7.437 QT
37.119 7.992 37.119 8.664 QT
37.119 8.851 36.979 8.851 QT
32.635 8.851 L
32.635 9.023 L
32.635 10.257 33.135 11.156 QT
33.635 12.054 34.776 12.054 QT
35.229 12.054 35.619 11.843 QT
36.01 11.632 36.299 11.273 QT
36.588 10.914 36.698 10.492 QT
36.713 10.445 36.752 10.398 QT
36.791 10.351 36.838 10.351 QT
36.979 10.351 L
37.119 10.351 37.119 10.554 QT
36.916 11.398 36.213 11.945 QT
35.51 12.492 34.635 12.492 QT
cp
32.651 8.476 M
36.057 8.476 L
36.057 7.914 35.901 7.336 QT
35.744 6.757 35.377 6.375 QT
35.01 5.992 34.416 5.992 QT
33.573 5.992 33.112 6.789 QT
32.651 7.586 32.651 8.476 QT
cp
f
GR
GS
[0 -0.75 0.75 0 405.99998 151.87489] CT
0.851 0.325 0.098 RC
N
46.825 0.284 M
46.825 -0.231 L
52.247 -0.231 L
52.247 0.284 L
46.825 0.284 L
cp
f
GR
GS
[0 -0.75 0.75 0 405.99998 151.87489] CT
0.851 0.325 0.098 RC
N
43.058 12.32 M
42.902 12.32 42.902 12.117 QT
42.917 12.086 42.941 12 QT
42.964 11.914 42.996 11.851 QT
43.027 11.789 43.105 11.789 QT
43.527 11.789 43.847 11.765 QT
44.167 11.742 44.386 11.695 QT
44.558 11.617 44.667 11.289 QT
46.714 3.054 L
46.746 2.898 46.746 2.836 QT
46.746 2.679 46.574 2.664 QT
46.292 2.601 45.48 2.601 QT
45.339 2.601 45.339 2.398 QT
45.355 2.367 45.371 2.273 QT
45.386 2.179 45.433 2.125 QT
45.48 2.07 45.527 2.07 QT
50.902 2.07 L
51.402 2.07 51.878 2.195 QT
52.355 2.32 52.761 2.578 QT
53.167 2.836 53.41 3.234 QT
53.652 3.632 53.652 4.148 QT
53.652 4.711 53.363 5.195 QT
53.074 5.679 52.613 6.039 QT
52.152 6.398 51.621 6.625 QT
51.089 6.851 50.511 6.961 QT
50.917 6.961 51.339 7.125 QT
51.761 7.289 52.089 7.57 QT
52.417 7.851 52.621 8.234 QT
52.824 8.617 52.824 9.07 QT
52.824 9.976 52.199 10.718 QT
51.574 11.461 50.613 11.89 QT
49.652 12.32 48.761 12.32 QT
43.058 12.32 L
cp
45.824 11.679 M
45.824 11.789 46.324 11.789 QT
48.48 11.789 L
49.214 11.789 49.886 11.382 QT
50.558 10.976 50.964 10.304 QT
51.371 9.632 51.371 8.898 QT
51.371 8.445 51.183 8.047 QT
50.996 7.648 50.644 7.422 QT
50.292 7.195 49.839 7.195 QT
46.917 7.195 L
45.871 11.351 L
45.824 11.554 45.824 11.679 QT
cp
47.011 6.804 M
49.292 6.804 L
50.011 6.804 50.691 6.437 QT
51.371 6.07 51.8 5.437 QT
52.23 4.804 52.23 4.101 QT
52.23 3.445 51.824 3.023 QT
51.417 2.601 50.761 2.601 QT
48.714 2.601 L
48.308 2.601 48.167 2.672 QT
48.027 2.742 47.933 3.117 QT
47.011 6.804 L
cp
f
GR
GS
[0 -0.75 0.75 0 405.99998 151.87489] CT
0.851 0.325 0.098 RC
N
54.355 14.52 M
54.355 14.161 L
55.605 14.161 55.605 13.848 QT
55.605 8.598 L
55.089 8.848 54.308 8.848 QT
54.308 8.504 L
55.527 8.504 56.152 7.864 QT
56.292 7.864 L
56.323 7.864 56.355 7.887 QT
56.386 7.911 56.386 7.942 QT
56.386 13.848 L
56.386 14.161 57.636 14.161 QT
57.636 14.52 L
54.355 14.52 L
cp
f
GR
GS
[0 -0.75 0.75 0 405.99998 151.87489] CT
0.851 0.325 0.098 RC
N
61.066 14.739 M
59.847 14.739 59.402 13.731 QT
58.957 12.723 58.957 11.332 QT
58.957 10.457 59.113 9.692 QT
59.269 8.926 59.746 8.395 QT
60.222 7.864 61.066 7.864 QT
61.722 7.864 62.144 8.184 QT
62.566 8.504 62.785 9.012 QT
63.004 9.52 63.082 10.106 QT
63.16 10.692 63.16 11.332 QT
63.16 12.192 63.004 12.942 QT
62.847 13.692 62.387 14.215 QT
61.926 14.739 61.066 14.739 QT
cp
61.066 14.473 M
61.629 14.473 61.902 13.903 QT
62.176 13.332 62.238 12.645 QT
62.301 11.957 62.301 11.176 QT
62.301 10.411 62.238 9.778 QT
62.176 9.145 61.902 8.629 QT
61.629 8.114 61.066 8.114 QT
60.504 8.114 60.23 8.637 QT
59.957 9.161 59.894 9.786 QT
59.832 10.411 59.832 11.176 QT
59.832 11.723 59.855 12.215 QT
59.879 12.707 59.996 13.239 QT
60.113 13.77 60.379 14.121 QT
60.644 14.473 61.066 14.473 QT
cp
f
GR
GS
[0 -0.75 0.75 0 405.99998 151.87489] CT
0.851 0.325 0.098 RC
N
66.2 14.739 M
64.981 14.739 64.535 13.731 QT
64.09 12.723 64.09 11.332 QT
64.09 10.457 64.246 9.692 QT
64.403 8.926 64.879 8.395 QT
65.356 7.864 66.2 7.864 QT
66.856 7.864 67.278 8.184 QT
67.7 8.504 67.918 9.012 QT
68.137 9.52 68.215 10.106 QT
68.293 10.692 68.293 11.332 QT
68.293 12.192 68.137 12.942 QT
67.981 13.692 67.52 14.215 QT
67.059 14.739 66.2 14.739 QT
cp
66.2 14.473 M
66.762 14.473 67.035 13.903 QT
67.309 13.332 67.371 12.645 QT
67.434 11.957 67.434 11.176 QT
67.434 10.411 67.371 9.778 QT
67.309 9.145 67.035 8.629 QT
66.762 8.114 66.2 8.114 QT
65.637 8.114 65.364 8.637 QT
65.09 9.161 65.028 9.786 QT
64.965 10.411 64.965 11.176 QT
64.965 11.723 64.989 12.215 QT
65.012 12.707 65.129 13.239 QT
65.246 13.77 65.512 14.121 QT
65.778 14.473 66.2 14.473 QT
cp
f
GR
GS
[0.75 0 0 0.75 0 0] CT
0 0.447 0.741 RC
1 LJ
0.667 LW
N
73 302.104 M
81.68 277.014 L
90.36 272.2 L
99.04 274.921 L
116.4 290.946 L
159.8 309.149 L
203.2 252.207 L
246.6 183.94 L
290 118.466 L
333.4 103.605 L
376.8 70.143 L
420.2 33.601 L
463.6 98.711 L
507 366.957 L
S
GR
GS
[0.75 0 0 0.75 54.75 226.57777] CT
N
0 -271.104 M
435 -271.104 L
435 72.896 L
0 72.896 L
0 -271.104 L
cp
clip
0 0.447 0.741 RC
10.0 ML
0.667 LW
N
-2.828 -2.828 M
2.828 2.828 L
-2.828 2.828 M
2.828 -2.828 L
S
GR
GS
[0.75 0 0 0.75 61.26 207.76064] CT
0 0.447 0.741 RC
10.0 ML
0.667 LW
N
-2.828 -2.828 M
2.828 2.828 L
-2.828 2.828 M
2.828 -2.828 L
S
GR
GS
[0.75 0 0 0.75 67.77 204.14976] CT
0 0.447 0.741 RC
10.0 ML
0.667 LW
N
-2.828 -2.828 M
2.828 2.828 L
-2.828 2.828 M
2.828 -2.828 L
S
GR
GS
[0.75 0 0 0.75 74.28 206.19083] CT
0 0.447 0.741 RC
10.0 ML
0.667 LW
N
-2.828 -2.828 M
2.828 2.828 L
-2.828 2.828 M
2.828 -2.828 L
S
GR
GS
[0.75 0 0 0.75 87.3 218.20965] CT
0 0.447 0.741 RC
10.0 ML
0.667 LW
N
-2.828 -2.828 M
2.828 2.828 L
-2.828 2.828 M
2.828 -2.828 L
S
GR
GS
[0.75 0 0 0.75 119.85 231.86153] CT
0 0.447 0.741 RC
10.0 ML
0.667 LW
N
-2.828 -2.828 M
2.828 2.828 L
-2.828 2.828 M
2.828 -2.828 L
S
GR
GS
[0.75 0 0 0.75 152.4 189.15528] CT
0 0.447 0.741 RC
10.0 ML
0.667 LW
N
-2.828 -2.828 M
2.828 2.828 L
-2.828 2.828 M
2.828 -2.828 L
S
GR
GS
[0.75 0 0 0.75 184.95 137.95482] CT
0 0.447 0.741 RC
10.0 ML
0.667 LW
N
-2.828 -2.828 M
2.828 2.828 L
-2.828 2.828 M
2.828 -2.828 L
S
GR
GS
[0.75 0 0 0.75 217.5 88.84946] CT
0 0.447 0.741 RC
10.0 ML
0.667 LW
N
-2.828 -2.828 M
2.828 2.828 L
-2.828 2.828 M
2.828 -2.828 L
S
GR
GS
[0.75 0 0 0.75 250.05 77.70345] CT
0 0.447 0.741 RC
10.0 ML
0.667 LW
N
-2.828 -2.828 M
2.828 2.828 L
-2.828 2.828 M
2.828 -2.828 L
S
GR
GS
[0.75 0 0 0.75 282.59999 52.60755] CT
0 0.447 0.741 RC
10.0 ML
0.667 LW
N
-2.828 -2.828 M
2.828 2.828 L
-2.828 2.828 M
2.828 -2.828 L
S
GR
GS
[0.75 0 0 0.75 315.15001 25.2008] CT
N
-347.2 -2.601 M
87.8 -2.601 L
87.8 341.399 L
-347.2 341.399 L
-347.2 -2.601 L
cp
clip
0 0.447 0.741 RC
10.0 ML
0.667 LW
N
-2.828 -2.828 M
2.828 2.828 L
-2.828 2.828 M
2.828 -2.828 L
S
GR
GS
[0.75 0 0 0.75 347.7 74.03305] CT
0 0.447 0.741 RC
10.0 ML
0.667 LW
N
-2.828 -2.828 M
2.828 2.828 L
-2.828 2.828 M
2.828 -2.828 L
S
GR
GS
[0.75 0 0 0.75 380.25 275.21738] CT
N
-434 -335.957 M
1 -335.957 L
1 8.043 L
-434 8.043 L
-434 -335.957 L
cp
clip
0 0.447 0.741 RC
10.0 ML
0.667 LW
N
-2.828 -2.828 M
2.828 2.828 L
-2.828 2.828 M
2.828 -2.828 L
S
GR
GS
[0.75 0 0 0.75 0 0] CT
N
73 31 M
508 31 L
508 375 L
73 375 L
73 31 L
cp
clip
0 0.447 0.741 RC
[10 6] 0 setdash
2 LJ
0.667 LW
N
73 302.351 M
81.68 302.351 L
90.36 302.351 L
99.04 302.351 L
116.4 302.351 L
159.8 302.351 L
203.2 302.351 L
246.6 302.351 L
290 302.351 L
333.4 302.351 L
376.8 302.351 L
420.2 302.351 L
463.6 302.351 L
507 302.351 L
S
GR
GS
[0.75 0 0 0.75 0 0] CT
0.851 0.325 0.098 RC
1 LJ
0.667 LW
N
73 197.41 M
81.68 199.241 L
90.36 201.108 L
99.04 203.764 L
116.4 211.266 L
159.8 226.32 L
203.2 242.756 L
246.6 257.483 L
290 273.263 L
333.4 289.031 L
376.8 306.575 L
420.2 322.403 L
463.6 344.145 L
507 364.333 L
S
GR
GS
[0.75 0 0 0.75 54.75 148.05727] CT
N
0 -166.41 M
435 -166.41 L
435 177.59 L
0 177.59 L
0 -166.41 L
cp
clip
0.851 0.325 0.098 RC
10.0 ML
0.667 LW
N
-2.828 -2.828 M
2.828 2.828 L
-2.828 2.828 M
2.828 -2.828 L
S
GR
GS
[0.75 0 0 0.75 61.26 149.43082] CT
0.851 0.325 0.098 RC
10.0 ML
0.667 LW
N
-2.828 -2.828 M
2.828 2.828 L
-2.828 2.828 M
2.828 -2.828 L
S
GR
GS
[0.75 0 0 0.75 67.77 150.83105] CT
0.851 0.325 0.098 RC
10.0 ML
0.667 LW
N
-2.828 -2.828 M
2.828 2.828 L
-2.828 2.828 M
2.828 -2.828 L
S
GR
GS
[0.75 0 0 0.75 74.28 152.82306] CT
0.851 0.325 0.098 RC
10.0 ML
0.667 LW
N
-2.828 -2.828 M
2.828 2.828 L
-2.828 2.828 M
2.828 -2.828 L
S
GR
GS
[0.75 0 0 0.75 87.3 158.44954] CT
0.851 0.325 0.098 RC
10.0 ML
0.667 LW
N
-2.828 -2.828 M
2.828 2.828 L
-2.828 2.828 M
2.828 -2.828 L
S
GR
GS
[0.75 0 0 0.75 119.85 169.73972] CT
0.851 0.325 0.098 RC
10.0 ML
0.667 LW
N
-2.828 -2.828 M
2.828 2.828 L
-2.828 2.828 M
2.828 -2.828 L
S
GR
GS
[0.75 0 0 0.75 152.4 182.06694] CT
0.851 0.325 0.098 RC
10.0 ML
0.667 LW
N
-2.828 -2.828 M
2.828 2.828 L
-2.828 2.828 M
2.828 -2.828 L
S
GR
GS
[0.75 0 0 0.75 184.95 193.11246] CT
0.851 0.325 0.098 RC
10.0 ML
0.667 LW
N
-2.828 -2.828 M
2.828 2.828 L
-2.828 2.828 M
2.828 -2.828 L
S
GR
GS
[0.75 0 0 0.75 217.5 204.94714] CT
0.851 0.325 0.098 RC
10.0 ML
0.667 LW
N
-2.828 -2.828 M
2.828 2.828 L
-2.828 2.828 M
2.828 -2.828 L
S
GR
GS
[0.75 0 0 0.75 250.05 216.7733] CT
0.851 0.325 0.098 RC
10.0 ML
0.667 LW
N
-2.828 -2.828 M
2.828 2.828 L
-2.828 2.828 M
2.828 -2.828 L
S
GR
GS
[0.75 0 0 0.75 282.59999 229.93151] CT
0.851 0.325 0.098 RC
10.0 ML
0.667 LW
N
-2.828 -2.828 M
2.828 2.828 L
-2.828 2.828 M
2.828 -2.828 L
S
GR
GS
[0.75 0 0 0.75 315.15001 241.80247] CT
0.851 0.325 0.098 RC
10.0 ML
0.667 LW
N
-2.828 -2.828 M
2.828 2.828 L
-2.828 2.828 M
2.828 -2.828 L
S
GR
GS
[0.75 0 0 0.75 347.7 258.1086] CT
0.851 0.325 0.098 RC
10.0 ML
0.667 LW
N
-2.828 -2.828 M
2.828 2.828 L
-2.828 2.828 M
2.828 -2.828 L
S
GR
GS
[0.75 0 0 0.75 380.25 273.24971] CT
N
-434 -333.333 M
1 -333.333 L
1 10.667 L
-434 10.667 L
-434 -333.333 L
cp
clip
0.851 0.325 0.098 RC
10.0 ML
0.667 LW
N
-2.828 -2.828 M
2.828 2.828 L
-2.828 2.828 M
2.828 -2.828 L
S
GR
GS
[0.75 0 0 0.75 0 0] CT
N
73 31 M
508 31 L
508 375 L
73 375 L
73 31 L
cp
clip
0.851 0.325 0.098 RC
[10 6] 0 setdash
2 LJ
0.667 LW
N
100.945 0 M
116.4 112.559 L
159.8 240.16 L
203.2 295.141 L
246.6 317.809 L
290 333.052 L
333.4 344.214 L
376.8 351.945 L
420.2 355.118 L
463.6 362.451 L
507 364.333 L
S
GR
GS
[0.75 0 0 0.75 87.3 84.41897] CT
0.851 0.325 0.098 RC
10.0 ML
0.667 LW
N
-2.828 -2.828 M
2.828 2.828 L
-2.828 2.828 M
2.828 -2.828 L
S
GR
GS
[0.75 0 0 0.75 119.85 180.11995] CT
0.851 0.325 0.098 RC
10.0 ML
0.667 LW
N
-2.828 -2.828 M
2.828 2.828 L
-2.828 2.828 M
2.828 -2.828 L
S
GR
GS
[0.75 0 0 0.75 152.4 221.35595] CT
0.851 0.325 0.098 RC
10.0 ML
0.667 LW
N
-2.828 -2.828 M
2.828 2.828 L
-2.828 2.828 M
2.828 -2.828 L
S
GR
GS
[0.75 0 0 0.75 184.95 238.35663] CT
0.851 0.325 0.098 RC
10.0 ML
0.667 LW
N
-2.828 -2.828 M
2.828 2.828 L
-2.828 2.828 M
2.828 -2.828 L
S
GR
GS
[0.75 0 0 0.75 217.5 249.78873] CT
0.851 0.325 0.098 RC
10.0 ML
0.667 LW
N
-2.828 -2.828 M
2.828 2.828 L
-2.828 2.828 M
2.828 -2.828 L
S
GR
GS
[0.75 0 0 0.75 250.05 258.16056] CT
0.851 0.325 0.098 RC
10.0 ML
0.667 LW
N
-2.828 -2.828 M
2.828 2.828 L
-2.828 2.828 M
2.828 -2.828 L
S
GR
GS
[0.75 0 0 0.75 282.59999 263.95846] CT
0.851 0.325 0.098 RC
10.0 ML
0.667 LW
N
-2.828 -2.828 M
2.828 2.828 L
-2.828 2.828 M
2.828 -2.828 L
S
GR
GS
[0.75 0 0 0.75 315.15001 266.33876] CT
0.851 0.325 0.098 RC
10.0 ML
0.667 LW
N
-2.828 -2.828 M
2.828 2.828 L
-2.828 2.828 M
2.828 -2.828 L
S
GR
GS
[0.75 0 0 0.75 347.7 271.83852] CT
0.851 0.325 0.098 RC
10.0 ML
0.667 LW
N
-2.828 -2.828 M
2.828 2.828 L
-2.828 2.828 M
2.828 -2.828 L
S
GR
GS
[0.75 0 0 0.75 380.25 273.24971] CT
N
-434 -333.333 M
1 -333.333 L
1 10.667 L
-434 10.667 L
-434 -333.333 L
cp
clip
0.851 0.325 0.098 RC
10.0 ML
0.667 LW
N
-2.828 -2.828 M
2.828 2.828 L
-2.828 2.828 M
2.828 -2.828 L
S
GR
GS
[0.75 0 0 0.75 0 0] CT
0.851 0.325 0.098 RC
[1 3] 0 setdash
2 LJ
0.667 LW
N
73 197.41 M
81.68 209.927 L
90.36 214.711 L
99.04 217.656 L
116.4 222.234 L
159.8 222.86 L
203.2 220.305 L
246.6 217.266 L
290 213.474 L
333.4 206.257 L
376.8 200.714 L
420.2 191.543 L
463.6 179.386 L
S
GR
GS
[0.75 0 0 0.75 54.75 148.05727] CT
N
0 -166.41 M
435 -166.41 L
435 177.59 L
0 177.59 L
0 -166.41 L
cp
clip
0.851 0.325 0.098 RC
10.0 ML
0.667 LW
N
-2.828 -2.828 M
2.828 2.828 L
-2.828 2.828 M
2.828 -2.828 L
S
GR
GS
[0.75 0 0 0.75 61.26 157.44525] CT
0.851 0.325 0.098 RC
10.0 ML
0.667 LW
N
-2.828 -2.828 M
2.828 2.828 L
-2.828 2.828 M
2.828 -2.828 L
S
GR
GS
[0.75 0 0 0.75 67.77 161.03345] CT
0.851 0.325 0.098 RC
10.0 ML
0.667 LW
N
-2.828 -2.828 M
2.828 2.828 L
-2.828 2.828 M
2.828 -2.828 L
S
GR
GS
[0.75 0 0 0.75 74.28 163.24173] CT
0.851 0.325 0.098 RC
10.0 ML
0.667 LW
N
-2.828 -2.828 M
2.828 2.828 L
-2.828 2.828 M
2.828 -2.828 L
S
GR
GS
[0.75 0 0 0.75 87.3 166.67515] CT
0.851 0.325 0.098 RC
10.0 ML
0.667 LW
N
-2.828 -2.828 M
2.828 2.828 L
-2.828 2.828 M
2.828 -2.828 L
S
GR
GS
[0.75 0 0 0.75 119.85 167.14468] CT
0.851 0.325 0.098 RC
10.0 ML
0.667 LW
N
-2.828 -2.828 M
2.828 2.828 L
-2.828 2.828 M
2.828 -2.828 L
S
GR
GS
[0.75 0 0 0.75 152.4 165.22879] CT
0.851 0.325 0.098 RC
10.0 ML
0.667 LW
N
-2.828 -2.828 M
2.828 2.828 L
-2.828 2.828 M
2.828 -2.828 L
S
GR
GS
[0.75 0 0 0.75 184.95 162.94968] CT
0.851 0.325 0.098 RC
10.0 ML
0.667 LW
N
-2.828 -2.828 M
2.828 2.828 L
-2.828 2.828 M
2.828 -2.828 L
S
GR
GS
[0.75 0 0 0.75 217.5 160.10552] CT
0.851 0.325 0.098 RC
10.0 ML
0.667 LW
N
-2.828 -2.828 M
2.828 2.828 L
-2.828 2.828 M
2.828 -2.828 L
S
GR
GS
[0.75 0 0 0.75 250.05 154.69246] CT
0.851 0.325 0.098 RC
10.0 ML
0.667 LW
N
-2.828 -2.828 M
2.828 2.828 L
-2.828 2.828 M
2.828 -2.828 L
S
GR
GS
[0.75 0 0 0.75 282.59999 150.53527] CT
0.851 0.325 0.098 RC
10.0 ML
0.667 LW
N
-2.828 -2.828 M
2.828 2.828 L
-2.828 2.828 M
2.828 -2.828 L
S
GR
GS
[0.75 0 0 0.75 315.15001 143.65727] CT
0.851 0.325 0.098 RC
10.0 ML
0.667 LW
N
-2.828 -2.828 M
2.828 2.828 L
-2.828 2.828 M
2.828 -2.828 L
S
GR
GS
[0.75 0 0 0.75 347.7 134.53939] CT
0.851 0.325 0.098 RC
10.0 ML
0.667 LW
N
-2.828 -2.828 M
2.828 2.828 L
-2.828 2.828 M
2.828 -2.828 L
S
GR
GS
[0.75 0 0 0.75 0 0] CT
N
73 31 M
508 31 L
508 375 L
73 375 L
73 31 L
cp
clip
0.851 0.325 0.098 RC
[10 6] 0 setdash
2 LJ
0.667 LW
N
73 198.418 M
81.68 198.418 L
90.36 198.418 L
99.04 198.418 L
116.4 198.418 L
159.8 198.418 L
203.2 198.418 L
246.6 198.418 L
290 198.418 L
333.4 198.418 L
376.8 198.418 L
420.2 198.418 L
463.6 198.418 L
507 198.418 L
S
GR
GS
[0.75 0 0 0.75 0 0] CT
1 GC
N
403 94 M
403 44 L
494 44 L
494 94 L
cp
f
GR
GS
[0.75 0 0 0.75 330 40.125] CT
/Helvetica 12 F
GS
[1 0 0 1 0 0] CT
0 4.5 moveto 
1 -1 scale
(Global) t 
GR
GR
GS
[0.75 0 0 0.75 0 0] CT
0.851 0.325 0.098 RC
1 LJ
0.667 LW
N
407 53.5 M
437 53.5 L
S
GR
GS
[0.75 0 0 0.75 316.5 40.125] CT
0.851 0.325 0.098 RC
10.0 ML
0.667 LW
N
-2.828 -2.828 M
2.828 2.828 L
-2.828 2.828 M
2.828 -2.828 L
S
GR
GS
[0.75 0 0 0.75 330 51.75] CT
/Helvetica 12 F
GS
[1 0 0 1 0 0] CT
0 4.5 moveto 
1 -1 scale
(Greedy) t 
GR
GR
GS
[0.75 0 0 0.75 0 0] CT
0.851 0.325 0.098 RC
[10 6] 0 setdash
2 LJ
0.667 LW
N
407 69 M
437 69 L
S
GR
GS
[0.75 0 0 0.75 316.5 51.75] CT
0.851 0.325 0.098 RC
10.0 ML
0.667 LW
N
-2.828 -2.828 M
2.828 2.828 L
-2.828 2.828 M
2.828 -2.828 L
S
GR
GS
[0.75 0 0 0.75 330 63.375] CT
/Helvetica 12 F
GS
[1 0 0 1 0 0] CT
0 4.5 moveto 
1 -1 scale
(Random) t 
GR
GR
GS
[0.75 0 0 0.75 0 0] CT
0.851 0.325 0.098 RC
[1 3] 0 setdash
2 LJ
0.667 LW
N
407 84.5 M
437 84.5 L
S
GR
GS
[0.75 0 0 0.75 316.5 63.375] CT
0.851 0.325 0.098 RC
10.0 ML
0.667 LW
N
-2.828 -2.828 M
2.828 2.828 L
-2.828 2.828 M
2.828 -2.828 L
S
GR
GS
[0.75 0 0 0.75 0 0] CT
0.149 GC
10.0 ML
0.667 LW
N
403 94 M
403 44 L
494 44 L
494 94 L
cp
S
GR
%%Trailer
%%Pages: 1
%%EOF
