%!PS-Adobe-3.0 EPSF-3.0
%%Creator: (MATLAB, The Mathworks, Inc. Version 9.1.0.441655 \(R2016b\). Operating System: Linux)
%%Title: /srv/bgeiger/GIT/complexitychallenge/Report/GI_MaxAgg.eps
%%CreationDate: 2018-05-15T11:55:25
%%Pages: (atend)
%%BoundingBox: 0 0 428 310
%%LanguageLevel: 3
%%EndComments
%%BeginProlog
%%BeginResource: procset (Apache XML Graphics Std ProcSet) 1.2 0
%%Version: 1.2 0
%%Copyright: (Copyright 2001-2003,2010 The Apache Software Foundation. License terms: http://www.apache.org/licenses/LICENSE-2.0)
/bd{bind def}bind def
/ld{load def}bd
/GR/grestore ld
/M/moveto ld
/LJ/setlinejoin ld
/C/curveto ld
/f/fill ld
/LW/setlinewidth ld
/GC/setgray ld
/t/show ld
/N/newpath ld
/CT/concat ld
/cp/closepath ld
/S/stroke ld
/L/lineto ld
/CC/setcmykcolor ld
/A/ashow ld
/GS/gsave ld
/RC/setrgbcolor ld
/RM/rmoveto ld
/ML/setmiterlimit ld
/re {4 2 roll M
1 index 0 rlineto
0 exch rlineto
neg 0 rlineto
cp } bd
/_ctm matrix def
/_tm matrix def
/BT { _ctm currentmatrix pop matrix _tm copy pop 0 0 moveto } bd
/ET { _ctm setmatrix } bd
/iTm { _ctm setmatrix _tm concat } bd
/Tm { _tm astore pop iTm 0 0 moveto } bd
/ux 0.0 def
/uy 0.0 def
/F {
  /Tp exch def
  /Tf exch def
  Tf findfont Tp scalefont setfont
  /cf Tf def  /cs Tp def
} bd
/ULS {currentpoint /uy exch def /ux exch def} bd
/ULE {
  /Tcx currentpoint pop def
  gsave
  newpath
  cf findfont cs scalefont dup
  /FontMatrix get 0 get /Ts exch def /FontInfo get dup
  /UnderlinePosition get Ts mul /To exch def
  /UnderlineThickness get Ts mul /Tt exch def
  ux uy To add moveto  Tcx uy To add lineto
  Tt setlinewidth stroke
  grestore
} bd
/OLE {
  /Tcx currentpoint pop def
  gsave
  newpath
  cf findfont cs scalefont dup
  /FontMatrix get 0 get /Ts exch def /FontInfo get dup
  /UnderlinePosition get Ts mul /To exch def
  /UnderlineThickness get Ts mul /Tt exch def
  ux uy To add cs add moveto Tcx uy To add cs add lineto
  Tt setlinewidth stroke
  grestore
} bd
/SOE {
  /Tcx currentpoint pop def
  gsave
  newpath
  cf findfont cs scalefont dup
  /FontMatrix get 0 get /Ts exch def /FontInfo get dup
  /UnderlinePosition get Ts mul /To exch def
  /UnderlineThickness get Ts mul /Tt exch def
  ux uy To add cs 10 mul 26 idiv add moveto Tcx uy To add cs 10 mul 26 idiv add lineto
  Tt setlinewidth stroke
  grestore
} bd
/QT {
/Y22 exch store
/X22 exch store
/Y21 exch store
/X21 exch store
currentpoint
/Y21 load 2 mul add 3 div exch
/X21 load 2 mul add 3 div exch
/X21 load 2 mul /X22 load add 3 div
/Y21 load 2 mul /Y22 load add 3 div
/X22 load /Y22 load curveto
} bd
/SSPD {
dup length /d exch dict def
{
/v exch def
/k exch def
currentpagedevice k known {
/cpdv currentpagedevice k get def
v cpdv ne {
/upd false def
/nullv v type /nulltype eq def
/nullcpdv cpdv type /nulltype eq def
nullv nullcpdv or
{
/upd true def
} {
/sametype v type cpdv type eq def
sametype {
v type /arraytype eq {
/vlen v length def
/cpdvlen cpdv length def
vlen cpdvlen eq {
0 1 vlen 1 sub {
/i exch def
/obj v i get def
/cpdobj cpdv i get def
obj cpdobj ne {
/upd true def
exit
} if
} for
} {
/upd true def
} ifelse
} {
v type /dicttype eq {
v {
/dv exch def
/dk exch def
/cpddv cpdv dk get def
dv cpddv ne {
/upd true def
exit
} if
} forall
} {
/upd true def
} ifelse
} ifelse
} if
} ifelse
upd true eq {
d k v put
} if
} if
} if
} forall
d length 0 gt {
d setpagedevice
} if
} bd
/RE { % /NewFontName [NewEncodingArray] /FontName RE -
  findfont dup length dict begin
  {
    1 index /FID ne
    {def} {pop pop} ifelse
  } forall
  /Encoding exch def
  /FontName 1 index def
  currentdict definefont pop
  end
} bind def
%%EndResource
%%BeginResource: procset (Apache XML Graphics EPS ProcSet) 1.0 0
%%Version: 1.0 0
%%Copyright: (Copyright 2002-2003 The Apache Software Foundation. License terms: http://www.apache.org/licenses/LICENSE-2.0)
/BeginEPSF { %def
/b4_Inc_state save def         % Save state for cleanup
/dict_count countdictstack def % Count objects on dict stack
/op_count count 1 sub def      % Count objects on operand stack
userdict begin                 % Push userdict on dict stack
/showpage { } def              % Redefine showpage, { } = null proc
0 setgray 0 setlinecap         % Prepare graphics state
1 setlinewidth 0 setlinejoin
10 setmiterlimit [ ] 0 setdash newpath
/languagelevel where           % If level not equal to 1 then
{pop languagelevel             % set strokeadjust and
1 ne                           % overprint to their defaults.
{false setstrokeadjust false setoverprint
} if
} if
} bd
/EndEPSF { %def
count op_count sub {pop} repeat            % Clean up stacks
countdictstack dict_count sub {end} repeat
b4_Inc_state restore
} bd
%%EndResource
%FOPBeginFontDict
%%IncludeResource: font Courier-Bold
%%IncludeResource: font Helvetica
%%IncludeResource: font Courier-BoldOblique
%%IncludeResource: font Courier-Oblique
%%IncludeResource: font Times-Roman
%%IncludeResource: font Helvetica-BoldOblique
%%IncludeResource: font Helvetica-Bold
%%IncludeResource: font Helvetica-Oblique
%%IncludeResource: font Times-BoldItalic
%%IncludeResource: font Courier
%%IncludeResource: font Times-Italic
%%IncludeResource: font Times-Bold
%%IncludeResource: font Symbol
%%IncludeResource: font ZapfDingbats
%FOPEndFontDict
%%BeginResource: encoding WinAnsiEncoding
/WinAnsiEncoding [
/.notdef /.notdef /.notdef /.notdef /.notdef
/.notdef /.notdef /.notdef /.notdef /.notdef
/.notdef /.notdef /.notdef /.notdef /.notdef
/.notdef /.notdef /.notdef /.notdef /.notdef
/.notdef /.notdef /.notdef /.notdef /.notdef
/.notdef /.notdef /.notdef /.notdef /.notdef
/.notdef /.notdef /space /exclam /quotedbl
/numbersign /dollar /percent /ampersand /quotesingle
/parenleft /parenright /asterisk /plus /comma
/hyphen /period /slash /zero /one
/two /three /four /five /six
/seven /eight /nine /colon /semicolon
/less /equal /greater /question /at
/A /B /C /D /E
/F /G /H /I /J
/K /L /M /N /O
/P /Q /R /S /T
/U /V /W /X /Y
/Z /bracketleft /backslash /bracketright /asciicircum
/underscore /quoteleft /a /b /c
/d /e /f /g /h
/i /j /k /l /m
/n /o /p /q /r
/s /t /u /v /w
/x /y /z /braceleft /bar
/braceright /asciitilde /bullet /Euro /bullet
/quotesinglbase /florin /quotedblbase /ellipsis /dagger
/daggerdbl /circumflex /perthousand /Scaron /guilsinglleft
/OE /bullet /Zcaron /bullet /bullet
/quoteleft /quoteright /quotedblleft /quotedblright /bullet
/endash /emdash /asciitilde /trademark /scaron
/guilsinglright /oe /bullet /zcaron /Ydieresis
/space /exclamdown /cent /sterling /currency
/yen /brokenbar /section /dieresis /copyright
/ordfeminine /guillemotleft /logicalnot /sfthyphen /registered
/macron /degree /plusminus /twosuperior /threesuperior
/acute /mu /paragraph /middot /cedilla
/onesuperior /ordmasculine /guillemotright /onequarter /onehalf
/threequarters /questiondown /Agrave /Aacute /Acircumflex
/Atilde /Adieresis /Aring /AE /Ccedilla
/Egrave /Eacute /Ecircumflex /Edieresis /Igrave
/Iacute /Icircumflex /Idieresis /Eth /Ntilde
/Ograve /Oacute /Ocircumflex /Otilde /Odieresis
/multiply /Oslash /Ugrave /Uacute /Ucircumflex
/Udieresis /Yacute /Thorn /germandbls /agrave
/aacute /acircumflex /atilde /adieresis /aring
/ae /ccedilla /egrave /eacute /ecircumflex
/edieresis /igrave /iacute /icircumflex /idieresis
/eth /ntilde /ograve /oacute /ocircumflex
/otilde /odieresis /divide /oslash /ugrave
/uacute /ucircumflex /udieresis /yacute /thorn
/ydieresis
] def
%%EndResource
%FOPBeginFontReencode
/Courier-Bold findfont
dup length dict begin
  {1 index /FID ne {def} {pop pop} ifelse} forall
  /Encoding WinAnsiEncoding def
  currentdict
end
/Courier-Bold exch definefont pop
/Helvetica findfont
dup length dict begin
  {1 index /FID ne {def} {pop pop} ifelse} forall
  /Encoding WinAnsiEncoding def
  currentdict
end
/Helvetica exch definefont pop
/Courier-BoldOblique findfont
dup length dict begin
  {1 index /FID ne {def} {pop pop} ifelse} forall
  /Encoding WinAnsiEncoding def
  currentdict
end
/Courier-BoldOblique exch definefont pop
/Courier-Oblique findfont
dup length dict begin
  {1 index /FID ne {def} {pop pop} ifelse} forall
  /Encoding WinAnsiEncoding def
  currentdict
end
/Courier-Oblique exch definefont pop
/Times-Roman findfont
dup length dict begin
  {1 index /FID ne {def} {pop pop} ifelse} forall
  /Encoding WinAnsiEncoding def
  currentdict
end
/Times-Roman exch definefont pop
/Helvetica-BoldOblique findfont
dup length dict begin
  {1 index /FID ne {def} {pop pop} ifelse} forall
  /Encoding WinAnsiEncoding def
  currentdict
end
/Helvetica-BoldOblique exch definefont pop
/Helvetica-Bold findfont
dup length dict begin
  {1 index /FID ne {def} {pop pop} ifelse} forall
  /Encoding WinAnsiEncoding def
  currentdict
end
/Helvetica-Bold exch definefont pop
/Helvetica-Oblique findfont
dup length dict begin
  {1 index /FID ne {def} {pop pop} ifelse} forall
  /Encoding WinAnsiEncoding def
  currentdict
end
/Helvetica-Oblique exch definefont pop
/Times-BoldItalic findfont
dup length dict begin
  {1 index /FID ne {def} {pop pop} ifelse} forall
  /Encoding WinAnsiEncoding def
  currentdict
end
/Times-BoldItalic exch definefont pop
/Courier findfont
dup length dict begin
  {1 index /FID ne {def} {pop pop} ifelse} forall
  /Encoding WinAnsiEncoding def
  currentdict
end
/Courier exch definefont pop
/Times-Italic findfont
dup length dict begin
  {1 index /FID ne {def} {pop pop} ifelse} forall
  /Encoding WinAnsiEncoding def
  currentdict
end
/Times-Italic exch definefont pop
/Times-Bold findfont
dup length dict begin
  {1 index /FID ne {def} {pop pop} ifelse} forall
  /Encoding WinAnsiEncoding def
  currentdict
end
/Times-Bold exch definefont pop
%FOPEndFontReencode
%%EndProlog
%%Page: 1 1
%%PageBoundingBox: 0 0 428 310
%%BeginPageSetup
[1 0 0 -1 0 310] CT
%%EndPageSetup
GS
[0.75 0 0 0.75 0 0.25] CT
1 GC
N
0 0 570 413 re
f
GR
GS
[0.75 0 0 0.75 0 0.25] CT
1 GC
N
0 0 570 413 re
f
GR
GS
[0.75 0 0 0.75 0 0.25] CT
1 GC
N
74 368 M
516 368 L
516 31 L
74 31 L
cp
f
GR
GS
[0.75 0 0 0.75 0 0.25] CT
0.149 GC
2 setlinecap
1 LJ
0.667 LW
N
74 368 M
516 368 L
S
GR
GS
[0.75 0 0 0.75 0 0.25] CT
0.149 GC
2 setlinecap
1 LJ
0.667 LW
N
74 31 M
516 31 L
S
GR
GS
[0.75 0 0 0.75 0 0.25] CT
0.149 GC
2 setlinecap
1 LJ
0.667 LW
N
74 368 M
74 363.58 L
S
GR
GS
[0.75 0 0 0.75 0 0.25] CT
0.149 GC
2 setlinecap
1 LJ
0.667 LW
N
162.4 368 M
162.4 363.58 L
S
GR
GS
[0.75 0 0 0.75 0 0.25] CT
0.149 GC
2 setlinecap
1 LJ
0.667 LW
N
250.8 368 M
250.8 363.58 L
S
GR
GS
[0.75 0 0 0.75 0 0.25] CT
0.149 GC
2 setlinecap
1 LJ
0.667 LW
N
339.2 368 M
339.2 363.58 L
S
GR
GS
[0.75 0 0 0.75 0 0.25] CT
0.149 GC
2 setlinecap
1 LJ
0.667 LW
N
427.6 368 M
427.6 363.58 L
S
GR
GS
[0.75 0 0 0.75 0 0.25] CT
0.149 GC
2 setlinecap
1 LJ
0.667 LW
N
516 368 M
516 363.58 L
S
GR
GS
[0.75 0 0 0.75 0 0.25] CT
0.149 GC
2 setlinecap
1 LJ
0.667 LW
N
74 31 M
74 35.42 L
S
GR
GS
[0.75 0 0 0.75 0 0.25] CT
0.149 GC
2 setlinecap
1 LJ
0.667 LW
N
162.4 31 M
162.4 35.42 L
S
GR
GS
[0.75 0 0 0.75 0 0.25] CT
0.149 GC
2 setlinecap
1 LJ
0.667 LW
N
250.8 31 M
250.8 35.42 L
S
GR
GS
[0.75 0 0 0.75 0 0.25] CT
0.149 GC
2 setlinecap
1 LJ
0.667 LW
N
339.2 31 M
339.2 35.42 L
S
GR
GS
[0.75 0 0 0.75 0 0.25] CT
0.149 GC
2 setlinecap
1 LJ
0.667 LW
N
427.6 31 M
427.6 35.42 L
S
GR
GS
[0.75 0 0 0.75 0 0.25] CT
0.149 GC
2 setlinecap
1 LJ
0.667 LW
N
516 31 M
516 35.42 L
S
GR
GS
[0.75 0 0 0.75 55.5 280.25001] CT
0.149 GC
/Helvetica 13.333 F
GS
[1 0 0 1 0 0] CT
-4.5 13 moveto 
1 -1 scale
(1) t 
GR
GR
GS
[0.75 0 0 0.75 121.8 280.25001] CT
0.149 GC
/Helvetica 13.333 F
GS
[1 0 0 1 0 0] CT
-4.5 13 moveto 
1 -1 scale
(2) t 
GR
GR
GS
[0.75 0 0 0.75 188.1 280.25001] CT
0.149 GC
/Helvetica 13.333 F
GS
[1 0 0 1 0 0] CT
-4.5 13 moveto 
1 -1 scale
(5) t 
GR
GR
GS
[0.75 0 0 0.75 254.40001 280.25001] CT
0.149 GC
/Helvetica 13.333 F
GS
[1 0 0 1 0 0] CT
-8.5 13 moveto 
1 -1 scale
(10) t 
GR
GR
GS
[0.75 0 0 0.75 320.7 280.25001] CT
0.149 GC
/Helvetica 13.333 F
GS
[1 0 0 1 0 0] CT
-8.5 13 moveto 
1 -1 scale
(20) t 
GR
GR
GS
[0.75 0 0 0.75 381.75 289.75] CT
0.149 GC
N
3.203 0.141 M
2.469 0.141 1.898 -0.289 QT
1.328 -0.719 1.031 -1.406 QT
0.734 -2.094 0.734 -2.813 QT
0.734 -3.359 0.906 -3.883 QT
1.078 -4.406 1.406 -4.828 QT
1.734 -5.25 2.203 -5.5 QT
2.672 -5.75 3.234 -5.75 QT
3.828 -5.75 4.367 -5.523 QT
4.906 -5.297 5.367 -4.93 QT
5.828 -4.563 6.219 -4.078 QT
6.609 -3.563 L
6.984 -4.172 7.453 -4.656 QT
7.922 -5.141 8.516 -5.445 QT
9.109 -5.75 9.781 -5.75 QT
10.359 -5.75 10.82 -5.5 QT
11.281 -5.25 11.602 -4.813 QT
11.922 -4.375 12.086 -3.852 QT
12.25 -3.328 12.25 -2.813 QT
12.25 -2.063 11.945 -1.383 QT
11.641 -0.703 11.07 -0.281 QT
10.5 0.141 9.75 0.141 QT
8.906 0.141 8.141 -0.313 QT
7.375 -0.766 6.766 -1.531 QT
6.391 -2.047 L
5.797 -1.078 4.984 -0.469 QT
4.172 0.141 3.203 0.141 QT
cp
3.063 -0.313 M
4.719 -0.313 6.016 -2.516 QT
5.328 -3.391 L
4.734 -4.188 4.219 -4.633 QT
3.703 -5.078 3.031 -5.078 QT
2.453 -5.078 2.008 -4.75 QT
1.563 -4.422 1.313 -3.891 QT
1.063 -3.359 1.063 -2.797 QT
1.063 -2.359 1.203 -1.914 QT
1.344 -1.469 1.602 -1.109 QT
1.859 -0.75 2.234 -0.531 QT
2.609 -0.313 3.063 -0.313 QT
cp
7.656 -2.203 M
8.25 -1.422 8.766 -0.977 QT
9.281 -0.531 9.953 -0.531 QT
10.391 -0.531 10.75 -0.727 QT
11.109 -0.922 11.375 -1.242 QT
11.641 -1.563 11.781 -1.969 QT
11.922 -2.375 11.922 -2.813 QT
11.922 -3.406 11.68 -3.984 QT
11.438 -4.563 10.984 -4.93 QT
10.531 -5.297 9.922 -5.297 QT
8.266 -5.297 6.969 -3.078 QT
7.656 -2.203 L
cp
f
GR
GS
[0.75 0 0 0.75 221.25016 293.99999] CT
0.149 GC
N
-3.428 12.07 M
-3.428 11.976 -3.413 11.929 QT
-1.975 6.164 L
-1.913 5.961 -1.741 5.828 QT
-1.569 5.695 -1.35 5.695 QT
-1.163 5.695 -1.03 5.804 QT
-0.897 5.914 -0.897 6.101 QT
-0.897 6.148 -0.897 6.179 QT
-0.897 6.211 -0.913 6.226 QT
-1.444 8.398 L
-0.85 8.211 0.15 7.375 QT
1.15 6.539 1.658 6.195 QT
2.165 5.851 2.9 5.851 QT
3.15 5.851 3.314 6 QT
3.478 6.148 3.478 6.414 QT
3.478 6.757 3.22 7.007 QT
2.962 7.257 2.619 7.257 QT
2.369 7.257 2.205 7.093 QT
2.04 6.929 2.04 6.695 QT
2.04 6.523 2.103 6.414 QT
1.744 6.554 1.369 6.82 QT
0.994 7.086 0.681 7.351 QT
0.369 7.617 -0.061 7.976 QT
-0.491 8.336 -0.835 8.523 QT
-0.225 8.523 0.423 8.656 QT
1.072 8.789 1.54 9.14 QT
2.009 9.492 2.009 10.101 QT
2.009 10.336 1.962 10.523 QT
1.822 11.117 1.822 11.414 QT
1.822 12.086 2.29 12.086 QT
2.822 12.086 3.111 11.5 QT
3.4 10.914 3.572 10.117 QT
3.603 10.023 3.697 10.023 QT
3.869 10.023 L
3.931 10.023 3.97 10.062 QT
4.009 10.101 4.009 10.164 QT
4.009 10.179 3.994 10.211 QT
3.447 12.492 2.259 12.492 QT
1.837 12.492 1.509 12.289 QT
1.181 12.086 1.001 11.75 QT
0.822 11.414 0.822 10.992 QT
0.822 10.711 0.884 10.492 QT
0.931 10.289 0.931 10.148 QT
0.931 9.664 0.509 9.382 QT
0.087 9.101 -0.499 9 QT
-1.085 8.898 -1.585 8.898 QT
-2.35 11.992 L
-2.397 12.195 -2.577 12.343 QT
-2.756 12.492 -2.975 12.492 QT
-3.163 12.492 -3.295 12.375 QT
-3.428 12.257 -3.428 12.07 QT
cp
f
GR
GS
[0.75 0 0 0.75 0 0.25] CT
0 0.447 0.741 RC
2 setlinecap
1 LJ
0.667 LW
N
74 368 M
74 31 L
S
GR
GS
[0.75 0 0 0.75 0 0.25] CT
0 0.447 0.741 RC
2 setlinecap
1 LJ
0.667 LW
N
74 368 M
78.42 368 L
S
GR
GS
[0.75 0 0 0.75 0 0.25] CT
0 0.447 0.741 RC
2 setlinecap
1 LJ
0.667 LW
N
74 319.857 M
78.42 319.857 L
S
GR
GS
[0.75 0 0 0.75 0 0.25] CT
0 0.447 0.741 RC
2 setlinecap
1 LJ
0.667 LW
N
74 271.714 M
78.42 271.714 L
S
GR
GS
[0.75 0 0 0.75 0 0.25] CT
0 0.447 0.741 RC
2 setlinecap
1 LJ
0.667 LW
N
74 223.571 M
78.42 223.571 L
S
GR
GS
[0.75 0 0 0.75 0 0.25] CT
0 0.447 0.741 RC
2 setlinecap
1 LJ
0.667 LW
N
74 175.429 M
78.42 175.429 L
S
GR
GS
[0.75 0 0 0.75 0 0.25] CT
0 0.447 0.741 RC
2 setlinecap
1 LJ
0.667 LW
N
74 127.286 M
78.42 127.286 L
S
GR
GS
[0.75 0 0 0.75 0 0.25] CT
0 0.447 0.741 RC
2 setlinecap
1 LJ
0.667 LW
N
74 79.143 M
78.42 79.143 L
S
GR
GS
[0.75 0 0 0.75 0 0.25] CT
0 0.447 0.741 RC
2 setlinecap
1 LJ
0.667 LW
N
74 31 M
78.42 31 L
S
GR
GS
[0.75 0 0 0.75 51.5 276.25] CT
0 0.447 0.741 RC
/Helvetica 13.333 F
GS
[1 0 0 1 0 0] CT
-21 4.5 moveto 
1 -1 scale
(0.1) t 
GR
GR
GS
[0.75 0 0 0.75 51.5 240.14286] CT
0 0.447 0.741 RC
/Helvetica 13.333 F
GS
[1 0 0 1 0 0] CT
-29 4.5 moveto 
1 -1 scale
(0.15) t 
GR
GR
GS
[0.75 0 0 0.75 51.5 204.03572] CT
0 0.447 0.741 RC
/Helvetica 13.333 F
GS
[1 0 0 1 0 0] CT
-21 4.5 moveto 
1 -1 scale
(0.2) t 
GR
GR
GS
[0.75 0 0 0.75 51.5 167.92857] CT
0 0.447 0.741 RC
/Helvetica 13.333 F
GS
[1 0 0 1 0 0] CT
-29 4.5 moveto 
1 -1 scale
(0.25) t 
GR
GR
GS
[0.75 0 0 0.75 51.5 131.82142] CT
0 0.447 0.741 RC
/Helvetica 13.333 F
GS
[1 0 0 1 0 0] CT
-21 4.5 moveto 
1 -1 scale
(0.3) t 
GR
GR
GS
[0.75 0 0 0.75 51.5 95.71429] CT
0 0.447 0.741 RC
/Helvetica 13.333 F
GS
[1 0 0 1 0 0] CT
-29 4.5 moveto 
1 -1 scale
(0.35) t 
GR
GR
GS
[0.75 0 0 0.75 51.5 59.60714] CT
0 0.447 0.741 RC
/Helvetica 13.333 F
GS
[1 0 0 1 0 0] CT
-21 4.5 moveto 
1 -1 scale
(0.4) t 
GR
GR
GS
[0.75 0 0 0.75 51.5 23.50001] CT
0 0.447 0.741 RC
/Helvetica 13.333 F
GS
[1 0 0 1 0 0] CT
-29 4.5 moveto 
1 -1 scale
(0.45) t 
GR
GR
GS
[0 -0.75 0.75 0 26.75 149.87489] CT
0 0.447 0.741 RC
N
-46.709 -6.889 M
-46.178 -6.218 -45.396 -5.85 QT
-44.615 -5.483 -43.756 -5.483 QT
-42.928 -5.483 -42.248 -5.905 QT
-41.568 -6.327 -41.568 -7.108 QT
-41.568 -8.374 L
-41.568 -8.843 -43.443 -8.843 QT
-43.443 -9.374 L
-39.146 -9.374 L
-39.146 -8.843 L
-39.615 -8.843 -39.896 -8.764 QT
-40.178 -8.686 -40.178 -8.374 QT
-40.178 -5.405 L
-40.178 -5.358 -40.217 -5.319 QT
-40.256 -5.28 -40.303 -5.28 QT
-40.443 -5.28 -40.771 -5.608 QT
-41.1 -5.936 -41.287 -6.202 QT
-41.646 -5.561 -42.436 -5.257 QT
-43.225 -4.952 -44.068 -4.952 QT
-45.537 -4.952 -46.732 -5.702 QT
-47.928 -6.452 -48.623 -7.71 QT
-49.318 -8.968 -49.318 -10.405 QT
-49.318 -11.468 -48.92 -12.475 QT
-48.521 -13.483 -47.795 -14.241 QT
-47.068 -14.999 -46.107 -15.428 QT
-45.146 -15.858 -44.068 -15.858 QT
-43.303 -15.858 -42.607 -15.522 QT
-41.912 -15.186 -41.365 -14.577 QT
-40.506 -15.811 L
-40.412 -15.858 -40.396 -15.858 QT
-40.287 -15.858 L
-40.24 -15.858 -40.209 -15.819 QT
-40.178 -15.78 -40.178 -15.733 QT
-40.178 -11.686 L
-40.178 -11.546 -40.287 -11.546 QT
-40.553 -11.546 L
-40.693 -11.546 -40.693 -11.686 QT
-40.693 -12.108 -40.865 -12.647 QT
-41.037 -13.186 -41.311 -13.663 QT
-41.584 -14.139 -41.928 -14.514 QT
-42.771 -15.327 -43.865 -15.327 QT
-44.693 -15.327 -45.459 -14.952 QT
-46.225 -14.577 -46.74 -13.921 QT
-47.287 -13.218 -47.498 -12.319 QT
-47.709 -11.421 -47.709 -10.405 QT
-47.709 -8.108 -46.709 -6.889 QT
cp
f
GR
GS
[0 -0.75 0.75 0 26.75 149.87489] CT
0 0.447 0.741 RC
N
-38.184 -5.28 M
-38.184 -5.811 L
-37.684 -5.811 -37.348 -5.889 QT
-37.012 -5.968 -37.012 -6.28 QT
-37.012 -10.374 L
-37.012 -10.952 -37.239 -11.085 QT
-37.465 -11.218 -38.122 -11.218 QT
-38.122 -11.749 L
-35.965 -11.905 L
-35.965 -6.28 L
-35.965 -5.968 -35.676 -5.889 QT
-35.387 -5.811 -34.918 -5.811 QT
-34.918 -5.28 L
-38.184 -5.28 L
cp
-37.559 -14.483 M
-37.559 -14.811 -37.309 -15.061 QT
-37.059 -15.311 -36.731 -15.311 QT
-36.528 -15.311 -36.325 -15.202 QT
-36.122 -15.093 -36.012 -14.897 QT
-35.903 -14.702 -35.903 -14.483 QT
-35.903 -14.171 -36.153 -13.921 QT
-36.403 -13.671 -36.731 -13.671 QT
-37.059 -13.671 -37.309 -13.921 QT
-37.559 -14.171 -37.559 -14.483 QT
cp
f
GR
GS
[0 -0.75 0.75 0 26.75 149.87489] CT
0 0.447 0.741 RC
N
-34.126 -5.28 M
-34.126 -5.811 L
-33.626 -5.811 -33.29 -5.889 QT
-32.954 -5.968 -32.954 -6.28 QT
-32.954 -10.374 L
-32.954 -10.78 -33.079 -10.96 QT
-33.204 -11.139 -33.43 -11.178 QT
-33.657 -11.218 -34.126 -11.218 QT
-34.126 -11.749 L
-31.954 -11.905 L
-31.954 -10.436 L
-31.657 -11.093 -31.063 -11.499 QT
-30.469 -11.905 -29.782 -11.905 QT
-28.735 -11.905 -28.212 -11.405 QT
-27.688 -10.905 -27.688 -9.889 QT
-27.688 -6.28 L
-27.688 -5.968 -27.36 -5.889 QT
-27.032 -5.811 -26.516 -5.811 QT
-26.516 -5.28 L
-29.954 -5.28 L
-29.954 -5.811 L
-29.438 -5.811 -29.11 -5.889 QT
-28.782 -5.968 -28.782 -6.28 QT
-28.782 -9.843 L
-28.782 -10.577 -28.993 -11.046 QT
-29.204 -11.514 -29.876 -11.514 QT
-30.735 -11.514 -31.298 -10.819 QT
-31.86 -10.124 -31.86 -9.249 QT
-31.86 -6.28 L
-31.86 -5.968 -31.532 -5.889 QT
-31.204 -5.811 -30.704 -5.811 QT
-30.704 -5.28 L
-34.126 -5.28 L
cp
f
GR
GS
[0 -0.75 0.75 0 26.75 149.87489] CT
0 0.447 0.741 RC
N
-25.962 -5.28 M
-25.962 -5.811 L
-25.462 -5.811 -25.126 -5.889 QT
-24.79 -5.968 -24.79 -6.28 QT
-24.79 -10.374 L
-24.79 -10.952 -25.017 -11.085 QT
-25.243 -11.218 -25.899 -11.218 QT
-25.899 -11.749 L
-23.743 -11.905 L
-23.743 -6.28 L
-23.743 -5.968 -23.454 -5.889 QT
-23.165 -5.811 -22.696 -5.811 QT
-22.696 -5.28 L
-25.962 -5.28 L
cp
-25.337 -14.483 M
-25.337 -14.811 -25.087 -15.061 QT
-24.837 -15.311 -24.509 -15.311 QT
-24.306 -15.311 -24.102 -15.202 QT
-23.899 -15.093 -23.79 -14.897 QT
-23.681 -14.702 -23.681 -14.483 QT
-23.681 -14.171 -23.931 -13.921 QT
-24.181 -13.671 -24.509 -13.671 QT
-24.837 -13.671 -25.087 -13.921 QT
-25.337 -14.171 -25.337 -14.483 QT
cp
f
GR
GS
[0 -0.75 0.75 0 26.75 149.87489] CT
0 0.447 0.741 RC
N
-14.046 -6.889 M
-13.53 -6.233 -12.764 -5.858 QT
-11.999 -5.483 -11.171 -5.483 QT
-10.468 -5.483 -9.874 -5.757 QT
-9.28 -6.03 -8.843 -6.522 QT
-8.405 -7.014 -8.163 -7.632 QT
-7.921 -8.249 -7.921 -8.936 QT
-7.921 -9.061 -7.796 -9.061 QT
-7.608 -9.061 L
-7.499 -9.061 -7.499 -8.921 QT
-7.499 -8.124 -7.796 -7.397 QT
-8.093 -6.671 -8.639 -6.116 QT
-9.186 -5.561 -9.905 -5.257 QT
-10.624 -4.952 -11.389 -4.952 QT
-12.468 -4.952 -13.436 -5.389 QT
-14.405 -5.827 -15.116 -6.585 QT
-15.827 -7.343 -16.225 -8.335 QT
-16.624 -9.327 -16.624 -10.405 QT
-16.624 -11.483 -16.225 -12.483 QT
-15.827 -13.483 -15.116 -14.241 QT
-14.405 -14.999 -13.436 -15.428 QT
-12.468 -15.858 -11.389 -15.858 QT
-10.624 -15.858 -9.921 -15.522 QT
-9.218 -15.186 -8.686 -14.577 QT
-7.827 -15.811 L
-7.733 -15.858 -7.718 -15.858 QT
-7.608 -15.858 L
-7.561 -15.858 -7.53 -15.819 QT
-7.499 -15.78 -7.499 -15.733 QT
-7.499 -11.686 L
-7.499 -11.546 -7.608 -11.546 QT
-7.874 -11.546 L
-8.014 -11.546 -8.014 -11.686 QT
-8.014 -12.108 -8.186 -12.647 QT
-8.358 -13.186 -8.632 -13.663 QT
-8.905 -14.139 -9.249 -14.514 QT
-10.093 -15.327 -11.186 -15.327 QT
-12.014 -15.327 -12.772 -14.952 QT
-13.53 -14.577 -14.046 -13.921 QT
-14.593 -13.218 -14.804 -12.319 QT
-15.014 -11.421 -15.014 -10.405 QT
-15.014 -9.389 -14.804 -8.491 QT
-14.593 -7.593 -14.046 -6.889 QT
cp
f
GR
GS
[0 -0.75 0.75 0 26.75 149.87489] CT
0 0.447 0.741 RC
N
-3.125 -5.108 M
-4.031 -5.108 -4.797 -5.569 QT
-5.563 -6.03 -6.008 -6.796 QT
-6.453 -7.561 -6.453 -8.468 QT
-6.453 -9.155 -6.211 -9.796 QT
-5.969 -10.436 -5.508 -10.936 QT
-5.047 -11.436 -4.438 -11.718 QT
-3.828 -11.999 -3.125 -11.999 QT
-2.203 -11.999 -1.445 -11.514 QT
-0.688 -11.03 -0.25 -10.21 QT
0.187 -9.389 0.187 -8.468 QT
0.187 -7.577 -0.258 -6.803 QT
-0.703 -6.03 -1.469 -5.569 QT
-2.234 -5.108 -3.125 -5.108 QT
cp
-3.125 -5.546 M
-1.922 -5.546 -1.523 -6.421 QT
-1.125 -7.296 -1.125 -8.639 QT
-1.125 -9.389 -1.203 -9.889 QT
-1.281 -10.389 -1.547 -10.796 QT
-1.719 -11.03 -1.977 -11.218 QT
-2.234 -11.405 -2.523 -11.507 QT
-2.813 -11.608 -3.125 -11.608 QT
-3.594 -11.608 -4.016 -11.397 QT
-4.438 -11.186 -4.719 -10.796 QT
-5 -10.358 -5.07 -9.85 QT
-5.141 -9.343 -5.141 -8.639 QT
-5.141 -7.796 -5 -7.124 QT
-4.859 -6.452 -4.414 -5.999 QT
-3.969 -5.546 -3.125 -5.546 QT
cp
f
GR
GS
[0 -0.75 0.75 0 26.75 149.87489] CT
0 0.447 0.741 RC
N
4.6 -5.108 M
3.678 -5.108 2.92 -5.593 QT
2.163 -6.077 1.725 -6.874 QT
1.288 -7.671 1.288 -8.561 QT
1.288 -9.452 1.686 -10.241 QT
2.085 -11.03 2.795 -11.514 QT
3.506 -11.999 4.381 -11.999 QT
5.085 -11.999 5.592 -11.772 QT
6.1 -11.546 6.428 -11.132 QT
6.756 -10.718 6.92 -10.163 QT
7.085 -9.608 7.085 -8.936 QT
7.085 -8.749 6.944 -8.749 QT
2.6 -8.749 L
2.6 -8.577 L
2.6 -7.343 3.1 -6.444 QT
3.6 -5.546 4.741 -5.546 QT
5.194 -5.546 5.585 -5.757 QT
5.975 -5.968 6.264 -6.327 QT
6.553 -6.686 6.663 -7.108 QT
6.678 -7.155 6.717 -7.202 QT
6.756 -7.249 6.803 -7.249 QT
6.944 -7.249 L
7.085 -7.249 7.085 -7.046 QT
6.881 -6.202 6.178 -5.655 QT
5.475 -5.108 4.6 -5.108 QT
cp
2.616 -9.124 M
6.022 -9.124 L
6.022 -9.686 5.866 -10.264 QT
5.71 -10.843 5.342 -11.225 QT
4.975 -11.608 4.381 -11.608 QT
3.538 -11.608 3.077 -10.811 QT
2.616 -10.014 2.616 -9.124 QT
cp
f
GR
GS
[0 -0.75 0.75 0 26.75 149.87489] CT
0 0.447 0.741 RC
N
7.775 -5.28 M
7.775 -5.811 L
8.291 -5.811 8.619 -5.889 QT
8.947 -5.968 8.947 -6.28 QT
8.947 -11.218 L
7.791 -11.218 L
7.791 -11.749 L
8.947 -11.749 L
8.947 -13.546 L
8.947 -14.108 9.267 -14.553 QT
9.587 -14.999 10.08 -15.28 QT
10.572 -15.561 11.15 -15.71 QT
11.728 -15.858 12.259 -15.858 QT
12.775 -15.858 13.22 -15.639 QT
13.666 -15.421 13.884 -15.03 QT
14.884 -15.858 16.447 -15.858 QT
16.884 -15.858 17.314 -15.671 QT
17.744 -15.483 18.017 -15.132 QT
18.291 -14.78 18.291 -14.311 QT
18.291 -14.014 18.08 -13.803 QT
17.869 -13.593 17.572 -13.593 QT
17.259 -13.593 17.056 -13.796 QT
16.853 -13.999 16.853 -14.311 QT
16.853 -14.593 17.048 -14.811 QT
17.244 -15.03 17.525 -15.03 QT
17.056 -15.468 16.322 -15.468 QT
15.791 -15.468 15.267 -15.218 QT
14.744 -14.968 14.423 -14.522 QT
14.103 -14.077 14.103 -13.514 QT
14.103 -11.749 L
16.087 -11.749 L
18.306 -11.936 L
18.306 -6.28 L
18.306 -5.968 18.634 -5.889 QT
18.962 -5.811 19.478 -5.811 QT
19.478 -5.28 L
16.087 -5.28 L
16.087 -5.811 L
16.603 -5.811 16.931 -5.889 QT
17.259 -5.968 17.259 -6.28 QT
17.259 -10.405 L
17.259 -10.827 17.158 -10.999 QT
17.056 -11.171 16.666 -11.218 QT
14.15 -11.218 L
14.15 -6.28 L
14.15 -5.968 14.478 -5.889 QT
14.806 -5.811 15.322 -5.811 QT
15.322 -5.28 L
11.931 -5.28 L
11.931 -5.811 L
12.431 -5.811 12.767 -5.889 QT
13.103 -5.968 13.103 -6.28 QT
13.103 -11.218 L
9.994 -11.218 L
9.994 -6.28 L
9.994 -5.968 10.33 -5.889 QT
10.666 -5.811 11.166 -5.811 QT
11.166 -5.28 L
7.775 -5.28 L
cp
9.947 -11.749 M
13.103 -11.749 L
13.103 -13.546 L
13.103 -13.639 L
12.884 -13.718 12.767 -13.905 QT
12.65 -14.093 12.65 -14.311 QT
12.65 -14.608 12.845 -14.819 QT
13.041 -15.03 13.322 -15.03 QT
12.869 -15.468 12.134 -15.468 QT
11.587 -15.468 11.08 -15.218 QT
10.572 -14.968 10.259 -14.514 QT
9.947 -14.061 9.947 -13.514 QT
9.947 -11.749 L
cp
f
GR
GS
[0 -0.75 0.75 0 26.75 149.87489] CT
0 0.447 0.741 RC
N
23.341 -5.108 M
22.435 -5.108 21.692 -5.585 QT
20.95 -6.061 20.528 -6.843 QT
20.107 -7.624 20.107 -8.514 QT
20.107 -9.405 20.528 -10.218 QT
20.95 -11.03 21.692 -11.514 QT
22.435 -11.999 23.341 -11.999 QT
24.216 -11.999 24.942 -11.655 QT
25.669 -11.311 25.669 -10.53 QT
25.669 -10.233 25.458 -10.022 QT
25.247 -9.811 24.95 -9.811 QT
24.653 -9.811 24.442 -10.022 QT
24.232 -10.233 24.232 -10.53 QT
24.232 -10.796 24.396 -10.991 QT
24.56 -11.186 24.81 -11.233 QT
24.294 -11.561 23.357 -11.561 QT
22.638 -11.561 22.2 -11.085 QT
21.763 -10.608 21.583 -9.905 QT
21.403 -9.202 21.403 -8.514 QT
21.403 -7.796 21.622 -7.116 QT
21.841 -6.436 22.317 -5.991 QT
22.794 -5.546 23.528 -5.546 QT
24.232 -5.546 24.732 -5.983 QT
25.232 -6.421 25.419 -7.124 QT
25.419 -7.218 25.528 -7.218 QT
25.716 -7.218 L
25.763 -7.218 25.794 -7.178 QT
25.825 -7.139 25.825 -7.077 QT
25.825 -7.046 L
25.607 -6.155 24.935 -5.632 QT
24.263 -5.108 23.341 -5.108 QT
cp
f
GR
GS
[0 -0.75 0.75 0 26.75 149.87489] CT
0 0.447 0.741 RC
N
26.594 -5.28 M
26.594 -5.811 L
27.094 -5.811 27.43 -5.889 QT
27.766 -5.968 27.766 -6.28 QT
27.766 -10.374 L
27.766 -10.952 27.539 -11.085 QT
27.313 -11.218 26.656 -11.218 QT
26.656 -11.749 L
28.813 -11.905 L
28.813 -6.28 L
28.813 -5.968 29.102 -5.889 QT
29.391 -5.811 29.859 -5.811 QT
29.859 -5.28 L
26.594 -5.28 L
cp
27.219 -14.483 M
27.219 -14.811 27.469 -15.061 QT
27.719 -15.311 28.047 -15.311 QT
28.25 -15.311 28.453 -15.202 QT
28.656 -15.093 28.766 -14.897 QT
28.875 -14.702 28.875 -14.483 QT
28.875 -14.171 28.625 -13.921 QT
28.375 -13.671 28.047 -13.671 QT
27.719 -13.671 27.469 -13.921 QT
27.219 -14.171 27.219 -14.483 QT
cp
f
GR
GS
[0 -0.75 0.75 0 26.75 149.87489] CT
0 0.447 0.741 RC
N
33.934 -5.108 M
33.012 -5.108 32.254 -5.593 QT
31.496 -6.077 31.059 -6.874 QT
30.621 -7.671 30.621 -8.561 QT
30.621 -9.452 31.019 -10.241 QT
31.418 -11.03 32.129 -11.514 QT
32.84 -11.999 33.715 -11.999 QT
34.418 -11.999 34.926 -11.772 QT
35.434 -11.546 35.762 -11.132 QT
36.09 -10.718 36.254 -10.163 QT
36.418 -9.608 36.418 -8.936 QT
36.418 -8.749 36.277 -8.749 QT
31.934 -8.749 L
31.934 -8.577 L
31.934 -7.343 32.434 -6.444 QT
32.934 -5.546 34.074 -5.546 QT
34.527 -5.546 34.918 -5.757 QT
35.309 -5.968 35.598 -6.327 QT
35.887 -6.686 35.996 -7.108 QT
36.012 -7.155 36.051 -7.202 QT
36.09 -7.249 36.137 -7.249 QT
36.277 -7.249 L
36.418 -7.249 36.418 -7.046 QT
36.215 -6.202 35.512 -5.655 QT
34.809 -5.108 33.934 -5.108 QT
cp
31.949 -9.124 M
35.355 -9.124 L
35.355 -9.686 35.199 -10.264 QT
35.043 -10.843 34.676 -11.225 QT
34.309 -11.608 33.715 -11.608 QT
32.871 -11.608 32.41 -10.811 QT
31.949 -10.014 31.949 -9.124 QT
cp
f
GR
GS
[0 -0.75 0.75 0 26.75 149.87489] CT
0 0.447 0.741 RC
N
37.171 -5.28 M
37.171 -5.811 L
37.671 -5.811 38.007 -5.889 QT
38.343 -5.968 38.343 -6.28 QT
38.343 -10.374 L
38.343 -10.78 38.218 -10.96 QT
38.093 -11.139 37.866 -11.178 QT
37.64 -11.218 37.171 -11.218 QT
37.171 -11.749 L
39.343 -11.905 L
39.343 -10.436 L
39.64 -11.093 40.233 -11.499 QT
40.827 -11.905 41.515 -11.905 QT
42.561 -11.905 43.085 -11.405 QT
43.608 -10.905 43.608 -9.889 QT
43.608 -6.28 L
43.608 -5.968 43.936 -5.889 QT
44.265 -5.811 44.78 -5.811 QT
44.78 -5.28 L
41.343 -5.28 L
41.343 -5.811 L
41.858 -5.811 42.186 -5.889 QT
42.515 -5.968 42.515 -6.28 QT
42.515 -9.843 L
42.515 -10.577 42.304 -11.046 QT
42.093 -11.514 41.421 -11.514 QT
40.561 -11.514 39.999 -10.819 QT
39.436 -10.124 39.436 -9.249 QT
39.436 -6.28 L
39.436 -5.968 39.765 -5.889 QT
40.093 -5.811 40.593 -5.811 QT
40.593 -5.28 L
37.171 -5.28 L
cp
f
GR
GS
[0 -0.75 0.75 0 26.75 149.87489] CT
0 0.447 0.741 RC
N
45.99 -7.077 M
45.99 -11.218 L
44.74 -11.218 L
44.74 -11.608 L
45.724 -11.608 46.185 -12.522 QT
46.646 -13.436 46.646 -14.514 QT
47.083 -14.514 L
47.083 -11.749 L
49.193 -11.749 L
49.193 -11.218 L
47.083 -11.218 L
47.083 -7.108 L
47.083 -6.483 47.294 -6.014 QT
47.505 -5.546 48.037 -5.546 QT
48.552 -5.546 48.779 -6.046 QT
49.005 -6.546 49.005 -7.108 QT
49.005 -7.999 L
49.443 -7.999 L
49.443 -7.077 L
49.443 -6.608 49.271 -6.155 QT
49.099 -5.702 48.763 -5.405 QT
48.427 -5.108 47.943 -5.108 QT
47.037 -5.108 46.513 -5.647 QT
45.99 -6.186 45.99 -7.077 QT
cp
f
GR
GS
[0.75 0 0 0.75 0 0.25] CT
0.851 0.325 0.098 RC
2 setlinecap
1 LJ
0.667 LW
N
516 368 M
516 31 L
S
GR
GS
[0.75 0 0 0.75 0 0.25] CT
0.851 0.325 0.098 RC
2 setlinecap
1 LJ
0.667 LW
N
516 368 M
511.58 368 L
S
GR
GS
[0.75 0 0 0.75 0 0.25] CT
0.851 0.325 0.098 RC
2 setlinecap
1 LJ
0.667 LW
N
516 300.6 M
511.58 300.6 L
S
GR
GS
[0.75 0 0 0.75 0 0.25] CT
0.851 0.325 0.098 RC
2 setlinecap
1 LJ
0.667 LW
N
516 233.2 M
511.58 233.2 L
S
GR
GS
[0.75 0 0 0.75 0 0.25] CT
0.851 0.325 0.098 RC
2 setlinecap
1 LJ
0.667 LW
N
516 165.8 M
511.58 165.8 L
S
GR
GS
[0.75 0 0 0.75 0 0.25] CT
0.851 0.325 0.098 RC
2 setlinecap
1 LJ
0.667 LW
N
516 98.4 M
511.58 98.4 L
S
GR
GS
[0.75 0 0 0.75 0 0.25] CT
0.851 0.325 0.098 RC
2 setlinecap
1 LJ
0.667 LW
N
516 31 M
511.58 31 L
S
GR
GS
[0.75 0 0 0.75 390.99998 276.25] CT
0.851 0.325 0.098 RC
/Helvetica 13.333 F
GS
[1 0 0 1 0 0] CT
0 4.5 moveto 
1 -1 scale
(150) t 
GR
GR
GS
[0.75 0 0 0.75 390.99998 225.7] CT
0.851 0.325 0.098 RC
/Helvetica 13.333 F
GS
[1 0 0 1 0 0] CT
0 4.5 moveto 
1 -1 scale
(155) t 
GR
GR
GS
[0.75 0 0 0.75 390.99998 175.15] CT
0.851 0.325 0.098 RC
/Helvetica 13.333 F
GS
[1 0 0 1 0 0] CT
0 4.5 moveto 
1 -1 scale
(160) t 
GR
GR
GS
[0.75 0 0 0.75 390.99998 124.6] CT
0.851 0.325 0.098 RC
/Helvetica 13.333 F
GS
[1 0 0 1 0 0] CT
0 4.5 moveto 
1 -1 scale
(165) t 
GR
GR
GS
[0.75 0 0 0.75 390.99998 74.05] CT
0.851 0.325 0.098 RC
/Helvetica 13.333 F
GS
[1 0 0 1 0 0] CT
0 4.5 moveto 
1 -1 scale
(170) t 
GR
GR
GS
[0.75 0 0 0.75 390.99998 23.5] CT
0.851 0.325 0.098 RC
/Helvetica 13.333 F
GS
[1 0 0 1 0 0] CT
0 4.5 moveto 
1 -1 scale
(175) t 
GR
GR
GS
[0 -0.75 0.75 0 412.75003 149.87485] CT
0.851 0.325 0.098 RC
N
-69.082 12.32 M
-69.082 11.789 L
-67.738 11.789 -67.441 10.914 QT
-64.285 1.742 L
-64.238 1.586 -64.051 1.586 QT
-63.847 1.586 L
-63.66 1.586 -63.613 1.742 QT
-60.316 11.32 L
-60.191 11.632 -59.793 11.711 QT
-59.394 11.789 -58.816 11.789 QT
-58.816 12.32 L
-63.004 12.32 L
-63.004 11.789 L
-61.754 11.789 -61.754 11.382 QT
-61.754 11.32 L
-62.566 8.976 L
-66.207 8.976 L
-66.879 10.914 L
-66.894 10.961 -66.894 11.054 QT
-66.894 11.429 -66.535 11.609 QT
-66.176 11.789 -65.769 11.789 QT
-65.769 12.32 L
-69.082 12.32 L
cp
-66.035 8.445 M
-62.738 8.445 L
-64.394 3.664 L
-66.035 8.445 L
cp
f
GR
GS
[0 -0.75 0.75 0 412.75003 149.87485] CT
0.851 0.325 0.098 RC
N
-54.91 12.32 M
-57.097 6.804 L
-57.238 6.539 -57.527 6.461 QT
-57.816 6.382 -58.285 6.382 QT
-58.285 5.851 L
-55.129 5.851 L
-55.129 6.382 L
-55.972 6.382 -55.972 6.742 QT
-55.972 6.804 -55.957 6.82 QT
-54.269 11.054 L
-52.754 7.242 L
-52.707 7.117 -52.707 6.992 QT
-52.707 6.711 -52.926 6.547 QT
-53.144 6.382 -53.441 6.382 QT
-53.441 5.851 L
-50.941 5.851 L
-50.941 6.382 L
-51.41 6.382 -51.761 6.593 QT
-52.113 6.804 -52.301 7.226 QT
-54.316 12.32 L
-54.379 12.492 -54.566 12.492 QT
-54.676 12.492 L
-54.847 12.492 -54.91 12.32 QT
cp
f
GR
GS
[0 -0.75 0.75 0 412.75003 149.87485] CT
0.851 0.325 0.098 RC
N
-47.498 12.492 M
-48.42 12.492 -49.178 12.007 QT
-49.936 11.523 -50.373 10.726 QT
-50.811 9.929 -50.811 9.039 QT
-50.811 8.148 -50.412 7.359 QT
-50.014 6.57 -49.303 6.086 QT
-48.592 5.601 -47.717 5.601 QT
-47.014 5.601 -46.506 5.828 QT
-45.998 6.054 -45.67 6.468 QT
-45.342 6.882 -45.178 7.437 QT
-45.014 7.992 -45.014 8.664 QT
-45.014 8.851 -45.155 8.851 QT
-49.498 8.851 L
-49.498 9.023 L
-49.498 10.257 -48.998 11.156 QT
-48.498 12.054 -47.358 12.054 QT
-46.905 12.054 -46.514 11.843 QT
-46.123 11.632 -45.834 11.273 QT
-45.545 10.914 -45.436 10.492 QT
-45.42 10.445 -45.381 10.398 QT
-45.342 10.351 -45.295 10.351 QT
-45.155 10.351 L
-45.014 10.351 -45.014 10.554 QT
-45.217 11.398 -45.92 11.945 QT
-46.623 12.492 -47.498 12.492 QT
cp
-49.483 8.476 M
-46.077 8.476 L
-46.077 7.914 -46.233 7.336 QT
-46.389 6.757 -46.756 6.375 QT
-47.123 5.992 -47.717 5.992 QT
-48.561 5.992 -49.022 6.789 QT
-49.483 7.586 -49.483 8.476 QT
cp
f
GR
GS
[0 -0.75 0.75 0 412.75003 149.87485] CT
0.851 0.325 0.098 RC
N
-44.324 12.32 M
-44.324 11.789 L
-43.808 11.789 -43.48 11.711 QT
-43.152 11.632 -43.152 11.32 QT
-43.152 7.226 L
-43.152 6.82 -43.277 6.64 QT
-43.402 6.461 -43.628 6.422 QT
-43.855 6.382 -44.324 6.382 QT
-44.324 5.851 L
-42.183 5.695 L
-42.183 7.164 L
-41.933 6.507 -41.488 6.101 QT
-41.042 5.695 -40.402 5.695 QT
-39.964 5.695 -39.613 5.961 QT
-39.261 6.226 -39.261 6.648 QT
-39.261 6.929 -39.456 7.125 QT
-39.652 7.32 -39.933 7.32 QT
-40.214 7.32 -40.41 7.125 QT
-40.605 6.929 -40.605 6.648 QT
-40.605 6.242 -40.324 6.086 QT
-40.402 6.086 L
-41.011 6.086 -41.394 6.523 QT
-41.777 6.961 -41.941 7.609 QT
-42.105 8.257 -42.105 8.851 QT
-42.105 11.32 L
-42.105 11.789 -40.652 11.789 QT
-40.652 12.32 L
-44.324 12.32 L
cp
f
GR
GS
[0 -0.75 0.75 0 412.75003 149.87485] CT
0.851 0.325 0.098 RC
N
-38.376 10.851 M
-38.376 9.961 -37.673 9.398 QT
-36.97 8.836 -35.978 8.601 QT
-34.985 8.367 -34.11 8.367 QT
-34.11 7.757 L
-34.11 7.32 -34.298 6.914 QT
-34.485 6.507 -34.845 6.25 QT
-35.204 5.992 -35.642 5.992 QT
-36.626 5.992 -37.157 6.445 QT
-36.86 6.445 -36.681 6.656 QT
-36.501 6.867 -36.501 7.164 QT
-36.501 7.461 -36.712 7.672 QT
-36.923 7.882 -37.204 7.882 QT
-37.517 7.882 -37.728 7.672 QT
-37.939 7.461 -37.939 7.164 QT
-37.939 6.367 -37.22 5.984 QT
-36.501 5.601 -35.642 5.601 QT
-35.032 5.601 -34.415 5.859 QT
-33.798 6.117 -33.407 6.601 QT
-33.017 7.086 -33.017 7.726 QT
-33.017 11.101 L
-33.017 11.398 -32.892 11.64 QT
-32.767 11.882 -32.501 11.882 QT
-32.251 11.882 -32.134 11.632 QT
-32.017 11.382 -32.017 11.101 QT
-32.017 10.148 L
-31.579 10.148 L
-31.579 11.101 L
-31.579 11.445 -31.751 11.75 QT
-31.923 12.054 -32.22 12.234 QT
-32.517 12.414 -32.86 12.414 QT
-33.298 12.414 -33.618 12.07 QT
-33.939 11.726 -33.97 11.257 QT
-34.251 11.82 -34.79 12.156 QT
-35.329 12.492 -35.954 12.492 QT
-36.517 12.492 -37.071 12.32 QT
-37.626 12.148 -38.001 11.789 QT
-38.376 11.429 -38.376 10.851 QT
cp
-37.157 10.851 M
-37.157 11.382 -36.767 11.734 QT
-36.376 12.086 -35.845 12.086 QT
-35.36 12.086 -34.97 11.851 QT
-34.579 11.617 -34.345 11.195 QT
-34.11 10.773 -34.11 10.32 QT
-34.11 8.757 L
-34.782 8.757 -35.501 8.976 QT
-36.22 9.195 -36.689 9.672 QT
-37.157 10.148 -37.157 10.851 QT
cp
f
GR
GS
[0 -0.75 0.75 0 412.75003 149.87485] CT
0.851 0.325 0.098 RC
N
-31.215 13.492 M
-31.215 12.961 -30.832 12.562 QT
-30.449 12.164 -29.902 11.992 QT
-30.215 11.757 -30.371 11.414 QT
-30.527 11.07 -30.527 10.679 QT
-30.527 9.976 -30.074 9.445 QT
-30.761 8.773 -30.761 7.898 QT
-30.761 7.429 -30.558 7.015 QT
-30.355 6.601 -29.996 6.304 QT
-29.636 6.007 -29.199 5.851 QT
-28.761 5.695 -28.308 5.695 QT
-27.418 5.695 -26.699 6.211 QT
-26.386 5.882 -25.965 5.703 QT
-25.543 5.523 -25.09 5.523 QT
-24.777 5.523 -24.574 5.757 QT
-24.371 5.992 -24.371 6.304 QT
-24.371 6.492 -24.504 6.632 QT
-24.636 6.773 -24.824 6.773 QT
-25.011 6.773 -25.152 6.632 QT
-25.293 6.492 -25.293 6.304 QT
-25.293 6.023 -25.105 5.914 QT
-25.886 5.914 -26.449 6.461 QT
-26.168 6.726 -26.004 7.117 QT
-25.84 7.507 -25.84 7.898 QT
-25.84 8.539 -26.191 9.047 QT
-26.543 9.554 -27.121 9.836 QT
-27.699 10.117 -28.308 10.117 QT
-29.121 10.117 -29.808 9.664 QT
-30.011 9.961 -30.011 10.32 QT
-30.011 10.726 -29.754 11.023 QT
-29.496 11.32 -29.105 11.32 QT
-27.871 11.32 L
-26.98 11.32 -26.261 11.476 QT
-25.543 11.632 -25.058 12.117 QT
-24.574 12.601 -24.574 13.492 QT
-24.574 14.148 -25.129 14.586 QT
-25.683 15.023 -26.457 15.218 QT
-27.23 15.414 -27.886 15.414 QT
-28.558 15.414 -29.332 15.218 QT
-30.105 15.023 -30.66 14.586 QT
-31.215 14.148 -31.215 13.492 QT
cp
-30.371 13.492 M
-30.371 13.992 -29.965 14.336 QT
-29.558 14.679 -28.98 14.843 QT
-28.402 15.007 -27.886 15.007 QT
-27.386 15.007 -26.808 14.843 QT
-26.23 14.679 -25.824 14.336 QT
-25.418 13.992 -25.418 13.492 QT
-25.418 12.711 -26.129 12.476 QT
-26.84 12.242 -27.871 12.242 QT
-29.105 12.242 L
-29.449 12.242 -29.738 12.406 QT
-30.027 12.57 -30.199 12.867 QT
-30.371 13.164 -30.371 13.492 QT
cp
-28.308 9.711 M
-27.027 9.711 -27.027 7.898 QT
-27.027 7.117 -27.301 6.609 QT
-27.574 6.101 -28.308 6.101 QT
-29.043 6.101 -29.308 6.609 QT
-29.574 7.117 -29.574 7.898 QT
-29.574 8.398 -29.472 8.797 QT
-29.371 9.195 -29.097 9.453 QT
-28.824 9.711 -28.308 9.711 QT
cp
f
GR
GS
[0 -0.75 0.75 0 412.75003 149.87485] CT
0.851 0.325 0.098 RC
N
-20.569 12.492 M
-21.491 12.492 -22.248 12.007 QT
-23.006 11.523 -23.444 10.726 QT
-23.881 9.929 -23.881 9.039 QT
-23.881 8.148 -23.483 7.359 QT
-23.084 6.57 -22.373 6.086 QT
-21.663 5.601 -20.788 5.601 QT
-20.084 5.601 -19.577 5.828 QT
-19.069 6.054 -18.741 6.468 QT
-18.413 6.882 -18.248 7.437 QT
-18.084 7.992 -18.084 8.664 QT
-18.084 8.851 -18.225 8.851 QT
-22.569 8.851 L
-22.569 9.023 L
-22.569 10.257 -22.069 11.156 QT
-21.569 12.054 -20.428 12.054 QT
-19.975 12.054 -19.584 11.843 QT
-19.194 11.632 -18.905 11.273 QT
-18.616 10.914 -18.506 10.492 QT
-18.491 10.445 -18.452 10.398 QT
-18.413 10.351 -18.366 10.351 QT
-18.225 10.351 L
-18.084 10.351 -18.084 10.554 QT
-18.288 11.398 -18.991 11.945 QT
-19.694 12.492 -20.569 12.492 QT
cp
-22.553 8.476 M
-19.147 8.476 L
-19.147 7.914 -19.303 7.336 QT
-19.459 6.757 -19.827 6.375 QT
-20.194 5.992 -20.788 5.992 QT
-21.631 5.992 -22.092 6.789 QT
-22.553 7.586 -22.553 8.476 QT
cp
f
GR
GS
[0 -0.75 0.75 0 412.75003 149.87485] CT
0.851 0.325 0.098 RC
N
-12.38 12.32 M
-12.38 11.789 L
-10.833 11.789 -10.833 11.32 QT
-10.833 3.07 L
-10.833 2.601 -12.38 2.601 QT
-12.38 2.07 L
-6.864 2.07 L
-6.099 2.07 -5.325 2.367 QT
-4.552 2.664 -4.044 3.25 QT
-3.536 3.836 -3.536 4.617 QT
-3.536 5.539 -4.286 6.156 QT
-5.036 6.773 -6.036 6.961 QT
-5.396 6.961 -4.7 7.32 QT
-4.005 7.679 -3.568 8.281 QT
-3.13 8.882 -3.13 9.554 QT
-3.13 10.382 -3.614 11.007 QT
-4.099 11.632 -4.88 11.976 QT
-5.661 12.32 -6.443 12.32 QT
-12.38 12.32 L
cp
-9.536 11.32 M
-9.536 11.632 -9.349 11.711 QT
-9.161 11.789 -8.771 11.789 QT
-6.864 11.789 L
-6.286 11.789 -5.779 11.484 QT
-5.271 11.179 -4.982 10.664 QT
-4.693 10.148 -4.693 9.554 QT
-4.693 8.992 -4.935 8.445 QT
-5.177 7.898 -5.63 7.547 QT
-6.083 7.195 -6.661 7.195 QT
-9.536 7.195 L
-9.536 11.32 L
cp
-9.536 6.804 M
-7.286 6.804 L
-6.833 6.804 -6.435 6.632 QT
-6.036 6.461 -5.716 6.156 QT
-5.396 5.851 -5.224 5.453 QT
-5.052 5.054 -5.052 4.617 QT
-5.052 4.226 -5.177 3.875 QT
-5.302 3.523 -5.552 3.226 QT
-5.802 2.929 -6.138 2.765 QT
-6.474 2.601 -6.864 2.601 QT
-8.771 2.601 L
-9.036 2.601 -9.193 2.625 QT
-9.349 2.648 -9.443 2.75 QT
-9.536 2.851 -9.536 3.07 QT
-9.536 6.804 L
cp
f
GR
GS
[0 -0.75 0.75 0 412.75003 149.87485] CT
0.851 0.325 0.098 RC
N
-1.913 10.851 M
-1.913 9.961 -1.21 9.398 QT
-0.507 8.836 0.485 8.601 QT
1.478 8.367 2.353 8.367 QT
2.353 7.757 L
2.353 7.32 2.165 6.914 QT
1.978 6.507 1.618 6.25 QT
1.259 5.992 0.821 5.992 QT
-0.163 5.992 -0.694 6.445 QT
-0.397 6.445 -0.218 6.656 QT
-0.038 6.867 -0.038 7.164 QT
-0.038 7.461 -0.249 7.672 QT
-0.46 7.882 -0.741 7.882 QT
-1.054 7.882 -1.265 7.672 QT
-1.476 7.461 -1.476 7.164 QT
-1.476 6.367 -0.757 5.984 QT
-0.038 5.601 0.821 5.601 QT
1.431 5.601 2.048 5.859 QT
2.665 6.117 3.056 6.601 QT
3.446 7.086 3.446 7.726 QT
3.446 11.101 L
3.446 11.398 3.571 11.64 QT
3.696 11.882 3.962 11.882 QT
4.212 11.882 4.329 11.632 QT
4.446 11.382 4.446 11.101 QT
4.446 10.148 L
4.884 10.148 L
4.884 11.101 L
4.884 11.445 4.712 11.75 QT
4.54 12.054 4.243 12.234 QT
3.946 12.414 3.603 12.414 QT
3.165 12.414 2.845 12.07 QT
2.524 11.726 2.493 11.257 QT
2.212 11.82 1.673 12.156 QT
1.134 12.492 0.509 12.492 QT
-0.054 12.492 -0.608 12.32 QT
-1.163 12.148 -1.538 11.789 QT
-1.913 11.429 -1.913 10.851 QT
cp
-0.694 10.851 M
-0.694 11.382 -0.304 11.734 QT
0.087 12.086 0.618 12.086 QT
1.103 12.086 1.493 11.851 QT
1.884 11.617 2.118 11.195 QT
2.353 10.773 2.353 10.32 QT
2.353 8.757 L
1.681 8.757 0.962 8.976 QT
0.243 9.195 -0.226 9.672 QT
-0.694 10.148 -0.694 10.851 QT
cp
f
GR
GS
[0 -0.75 0.75 0 412.75003 149.87485] CT
0.851 0.325 0.098 RC
N
5.295 12.32 M
5.295 11.789 L
5.795 11.789 6.131 11.711 QT
6.467 11.632 6.467 11.32 QT
6.467 3.445 L
6.467 3.039 6.342 2.859 QT
6.217 2.679 5.991 2.64 QT
5.764 2.601 5.295 2.601 QT
5.295 2.07 L
7.514 1.914 L
7.514 11.32 L
7.514 11.632 7.842 11.711 QT
8.17 11.789 8.686 11.789 QT
8.686 12.32 L
5.295 12.32 L
cp
f
GR
GS
[0 -0.75 0.75 0 412.75003 149.87485] CT
0.851 0.325 0.098 RC
N
9.494 10.851 M
9.494 9.961 10.198 9.398 QT
10.901 8.836 11.893 8.601 QT
12.885 8.367 13.76 8.367 QT
13.76 7.757 L
13.76 7.32 13.573 6.914 QT
13.385 6.507 13.026 6.25 QT
12.666 5.992 12.229 5.992 QT
11.244 5.992 10.713 6.445 QT
11.01 6.445 11.19 6.656 QT
11.369 6.867 11.369 7.164 QT
11.369 7.461 11.158 7.672 QT
10.948 7.882 10.666 7.882 QT
10.354 7.882 10.143 7.672 QT
9.932 7.461 9.932 7.164 QT
9.932 6.367 10.651 5.984 QT
11.369 5.601 12.229 5.601 QT
12.838 5.601 13.455 5.859 QT
14.073 6.117 14.463 6.601 QT
14.854 7.086 14.854 7.726 QT
14.854 11.101 L
14.854 11.398 14.979 11.64 QT
15.104 11.882 15.369 11.882 QT
15.619 11.882 15.737 11.632 QT
15.854 11.382 15.854 11.101 QT
15.854 10.148 L
16.291 10.148 L
16.291 11.101 L
16.291 11.445 16.119 11.75 QT
15.948 12.054 15.651 12.234 QT
15.354 12.414 15.01 12.414 QT
14.573 12.414 14.252 12.07 QT
13.932 11.726 13.901 11.257 QT
13.619 11.82 13.08 12.156 QT
12.541 12.492 11.916 12.492 QT
11.354 12.492 10.799 12.32 QT
10.244 12.148 9.869 11.789 QT
9.494 11.429 9.494 10.851 QT
cp
10.713 10.851 M
10.713 11.382 11.104 11.734 QT
11.494 12.086 12.026 12.086 QT
12.51 12.086 12.901 11.851 QT
13.291 11.617 13.526 11.195 QT
13.76 10.773 13.76 10.32 QT
13.76 8.757 L
13.088 8.757 12.369 8.976 QT
11.651 9.195 11.182 9.672 QT
10.713 10.148 10.713 10.851 QT
cp
f
GR
GS
[0 -0.75 0.75 0 412.75003 149.87485] CT
0.851 0.325 0.098 RC
N
16.687 12.32 M
16.687 11.789 L
17.187 11.789 17.523 11.711 QT
17.859 11.632 17.859 11.32 QT
17.859 7.226 L
17.859 6.82 17.734 6.64 QT
17.609 6.461 17.382 6.422 QT
17.156 6.382 16.687 6.382 QT
16.687 5.851 L
18.859 5.695 L
18.859 7.164 L
19.156 6.507 19.75 6.101 QT
20.343 5.695 21.031 5.695 QT
22.078 5.695 22.601 6.195 QT
23.125 6.695 23.125 7.711 QT
23.125 11.32 L
23.125 11.632 23.453 11.711 QT
23.781 11.789 24.296 11.789 QT
24.296 12.32 L
20.859 12.32 L
20.859 11.789 L
21.375 11.789 21.703 11.711 QT
22.031 11.632 22.031 11.32 QT
22.031 7.757 L
22.031 7.023 21.82 6.554 QT
21.609 6.086 20.937 6.086 QT
20.078 6.086 19.515 6.781 QT
18.953 7.476 18.953 8.351 QT
18.953 11.32 L
18.953 11.632 19.281 11.711 QT
19.609 11.789 20.109 11.789 QT
20.109 12.32 L
16.687 12.32 L
cp
f
GR
GS
[0 -0.75 0.75 0 412.75003 149.87485] CT
0.851 0.325 0.098 RC
N
28.117 12.492 M
27.21 12.492 26.468 12.015 QT
25.726 11.539 25.304 10.757 QT
24.882 9.976 24.882 9.086 QT
24.882 8.195 25.304 7.382 QT
25.726 6.57 26.468 6.086 QT
27.21 5.601 28.117 5.601 QT
28.992 5.601 29.718 5.945 QT
30.445 6.289 30.445 7.07 QT
30.445 7.367 30.234 7.578 QT
30.023 7.789 29.726 7.789 QT
29.429 7.789 29.218 7.578 QT
29.007 7.367 29.007 7.07 QT
29.007 6.804 29.171 6.609 QT
29.335 6.414 29.585 6.367 QT
29.07 6.039 28.132 6.039 QT
27.413 6.039 26.976 6.515 QT
26.538 6.992 26.359 7.695 QT
26.179 8.398 26.179 9.086 QT
26.179 9.804 26.398 10.484 QT
26.617 11.164 27.093 11.609 QT
27.57 12.054 28.304 12.054 QT
29.007 12.054 29.507 11.617 QT
30.007 11.179 30.195 10.476 QT
30.195 10.382 30.304 10.382 QT
30.492 10.382 L
30.538 10.382 30.57 10.422 QT
30.601 10.461 30.601 10.523 QT
30.601 10.554 L
30.382 11.445 29.71 11.968 QT
29.038 12.492 28.117 12.492 QT
cp
f
GR
GS
[0 -0.75 0.75 0 412.75003 149.87485] CT
0.851 0.325 0.098 RC
N
34.635 12.492 M
33.713 12.492 32.955 12.007 QT
32.198 11.523 31.76 10.726 QT
31.323 9.929 31.323 9.039 QT
31.323 8.148 31.721 7.359 QT
32.119 6.57 32.83 6.086 QT
33.541 5.601 34.416 5.601 QT
35.119 5.601 35.627 5.828 QT
36.135 6.054 36.463 6.468 QT
36.791 6.882 36.955 7.437 QT
37.119 7.992 37.119 8.664 QT
37.119 8.851 36.979 8.851 QT
32.635 8.851 L
32.635 9.023 L
32.635 10.257 33.135 11.156 QT
33.635 12.054 34.776 12.054 QT
35.229 12.054 35.619 11.843 QT
36.01 11.632 36.299 11.273 QT
36.588 10.914 36.698 10.492 QT
36.713 10.445 36.752 10.398 QT
36.791 10.351 36.838 10.351 QT
36.979 10.351 L
37.119 10.351 37.119 10.554 QT
36.916 11.398 36.213 11.945 QT
35.51 12.492 34.635 12.492 QT
cp
32.651 8.476 M
36.057 8.476 L
36.057 7.914 35.901 7.336 QT
35.744 6.757 35.377 6.375 QT
35.01 5.992 34.416 5.992 QT
33.573 5.992 33.112 6.789 QT
32.651 7.586 32.651 8.476 QT
cp
f
GR
GS
[0 -0.75 0.75 0 412.75003 149.87485] CT
0.851 0.325 0.098 RC
N
46.825 0.284 M
46.825 -0.231 L
52.247 -0.231 L
52.247 0.284 L
46.825 0.284 L
cp
f
GR
GS
[0 -0.75 0.75 0 412.75003 149.87485] CT
0.851 0.325 0.098 RC
N
43.058 12.32 M
42.902 12.32 42.902 12.117 QT
42.917 12.086 42.941 12 QT
42.964 11.914 42.996 11.851 QT
43.027 11.789 43.105 11.789 QT
43.527 11.789 43.847 11.765 QT
44.167 11.742 44.386 11.695 QT
44.558 11.617 44.667 11.289 QT
46.714 3.054 L
46.746 2.898 46.746 2.836 QT
46.746 2.679 46.574 2.664 QT
46.292 2.601 45.48 2.601 QT
45.339 2.601 45.339 2.398 QT
45.355 2.367 45.371 2.273 QT
45.386 2.179 45.433 2.125 QT
45.48 2.07 45.527 2.07 QT
50.902 2.07 L
51.402 2.07 51.878 2.195 QT
52.355 2.32 52.761 2.578 QT
53.167 2.836 53.41 3.234 QT
53.652 3.632 53.652 4.148 QT
53.652 4.711 53.363 5.195 QT
53.074 5.679 52.613 6.039 QT
52.152 6.398 51.621 6.625 QT
51.089 6.851 50.511 6.961 QT
50.917 6.961 51.339 7.125 QT
51.761 7.289 52.089 7.57 QT
52.417 7.851 52.621 8.234 QT
52.824 8.617 52.824 9.07 QT
52.824 9.976 52.199 10.718 QT
51.574 11.461 50.613 11.89 QT
49.652 12.32 48.761 12.32 QT
43.058 12.32 L
cp
45.824 11.679 M
45.824 11.789 46.324 11.789 QT
48.48 11.789 L
49.214 11.789 49.886 11.382 QT
50.558 10.976 50.964 10.304 QT
51.371 9.632 51.371 8.898 QT
51.371 8.445 51.183 8.047 QT
50.996 7.648 50.644 7.422 QT
50.292 7.195 49.839 7.195 QT
46.917 7.195 L
45.871 11.351 L
45.824 11.554 45.824 11.679 QT
cp
47.011 6.804 M
49.292 6.804 L
50.011 6.804 50.691 6.437 QT
51.371 6.07 51.8 5.437 QT
52.23 4.804 52.23 4.101 QT
52.23 3.445 51.824 3.023 QT
51.417 2.601 50.761 2.601 QT
48.714 2.601 L
48.308 2.601 48.167 2.672 QT
48.027 2.742 47.933 3.117 QT
47.011 6.804 L
cp
f
GR
GS
[0 -0.75 0.75 0 412.75003 149.87485] CT
0.851 0.325 0.098 RC
N
54.355 14.52 M
54.355 14.161 L
55.605 14.161 55.605 13.848 QT
55.605 8.598 L
55.089 8.848 54.308 8.848 QT
54.308 8.504 L
55.527 8.504 56.152 7.864 QT
56.292 7.864 L
56.323 7.864 56.355 7.887 QT
56.386 7.911 56.386 7.942 QT
56.386 13.848 L
56.386 14.161 57.636 14.161 QT
57.636 14.52 L
54.355 14.52 L
cp
f
GR
GS
[0 -0.75 0.75 0 412.75003 149.87485] CT
0.851 0.325 0.098 RC
N
61.066 14.739 M
59.847 14.739 59.402 13.731 QT
58.957 12.723 58.957 11.332 QT
58.957 10.457 59.113 9.692 QT
59.269 8.926 59.746 8.395 QT
60.222 7.864 61.066 7.864 QT
61.722 7.864 62.144 8.184 QT
62.566 8.504 62.785 9.012 QT
63.004 9.52 63.082 10.106 QT
63.16 10.692 63.16 11.332 QT
63.16 12.192 63.004 12.942 QT
62.847 13.692 62.387 14.215 QT
61.926 14.739 61.066 14.739 QT
cp
61.066 14.473 M
61.629 14.473 61.902 13.903 QT
62.176 13.332 62.238 12.645 QT
62.301 11.957 62.301 11.176 QT
62.301 10.411 62.238 9.778 QT
62.176 9.145 61.902 8.629 QT
61.629 8.114 61.066 8.114 QT
60.504 8.114 60.23 8.637 QT
59.957 9.161 59.894 9.786 QT
59.832 10.411 59.832 11.176 QT
59.832 11.723 59.855 12.215 QT
59.879 12.707 59.996 13.239 QT
60.113 13.77 60.379 14.121 QT
60.644 14.473 61.066 14.473 QT
cp
f
GR
GS
[0 -0.75 0.75 0 412.75003 149.87485] CT
0.851 0.325 0.098 RC
N
66.2 14.739 M
64.981 14.739 64.535 13.731 QT
64.09 12.723 64.09 11.332 QT
64.09 10.457 64.246 9.692 QT
64.403 8.926 64.879 8.395 QT
65.356 7.864 66.2 7.864 QT
66.856 7.864 67.278 8.184 QT
67.7 8.504 67.918 9.012 QT
68.137 9.52 68.215 10.106 QT
68.293 10.692 68.293 11.332 QT
68.293 12.192 68.137 12.942 QT
67.981 13.692 67.52 14.215 QT
67.059 14.739 66.2 14.739 QT
cp
66.2 14.473 M
66.762 14.473 67.035 13.903 QT
67.309 13.332 67.371 12.645 QT
67.434 11.957 67.434 11.176 QT
67.434 10.411 67.371 9.778 QT
67.309 9.145 67.035 8.629 QT
66.762 8.114 66.2 8.114 QT
65.637 8.114 65.364 8.637 QT
65.09 9.161 65.028 9.786 QT
64.965 10.411 64.965 11.176 QT
64.965 11.723 64.989 12.215 QT
65.012 12.707 65.129 13.239 QT
65.246 13.77 65.512 14.121 QT
65.778 14.473 66.2 14.473 QT
cp
f
GR
GS
[0.75 0 0 0.75 0 0.25] CT
0 0.447 0.741 RC
1 LJ
0.667 LW
N
74 273.428 M
162.4 225.055 L
250.8 161.73 L
339.2 122.768 L
427.6 96.709 L
516 68.702 L
S
GR
GS
[0.75 0 0 0.75 0 0.25] CT
N
74 31 M
517 31 L
517 369 L
74 369 L
74 31 L
cp
clip
0 0.447 0.741 RC
[10 6] 0 setdash
2 LJ
0.667 LW
N
74 325.634 M
162.4 325.634 L
250.8 325.634 L
339.2 325.634 L
427.6 325.634 L
516 325.634 L
S
GR
GS
[0.75 0 0 0.75 0 0.25] CT
N
74 31 M
517 31 L
517 369 L
74 369 L
74 31 L
cp
clip
0.851 0.325 0.098 RC
1 LJ
0.667 LW
N
74 220.043 M
162.4 185.376 L
250.8 130.788 L
339.2 92.122 L
427.6 68.13 L
516 34.42 L
S
GR
GS
[0.75 0 0 0.75 0 0.25] CT
N
74 31 M
517 31 L
517 369 L
74 369 L
74 31 L
cp
clip
0.851 0.325 0.098 RC
[10 6] 0 setdash
2 LJ
0.667 LW
N
74 319.876 M
162.4 319.876 L
250.8 319.876 L
339.2 319.876 L
427.6 319.876 L
516 319.876 L
S
GR
%%Trailer
%%Pages: 1
%%EOF
