%!PS-Adobe-3.0 EPSF-3.0
%%Creator: (MATLAB, The Mathworks, Inc. Version 9.1.0.441655 \(R2016b\). Operating System: Linux)
%%Title: /srv/bgeiger/GIT/complexitychallenge/Report/GI_MaxAgg_Long.eps
%%CreationDate: 2018-05-16T15:32:36
%%Pages: (atend)
%%BoundingBox: 0 0 428 310
%%LanguageLevel: 3
%%EndComments
%%BeginProlog
%%BeginResource: procset (Apache XML Graphics Std ProcSet) 1.2 0
%%Version: 1.2 0
%%Copyright: (Copyright 2001-2003,2010 The Apache Software Foundation. License terms: http://www.apache.org/licenses/LICENSE-2.0)
/bd{bind def}bind def
/ld{load def}bd
/GR/grestore ld
/M/moveto ld
/LJ/setlinejoin ld
/C/curveto ld
/f/fill ld
/LW/setlinewidth ld
/GC/setgray ld
/t/show ld
/N/newpath ld
/CT/concat ld
/cp/closepath ld
/S/stroke ld
/L/lineto ld
/CC/setcmykcolor ld
/A/ashow ld
/GS/gsave ld
/RC/setrgbcolor ld
/RM/rmoveto ld
/ML/setmiterlimit ld
/re {4 2 roll M
1 index 0 rlineto
0 exch rlineto
neg 0 rlineto
cp } bd
/_ctm matrix def
/_tm matrix def
/BT { _ctm currentmatrix pop matrix _tm copy pop 0 0 moveto } bd
/ET { _ctm setmatrix } bd
/iTm { _ctm setmatrix _tm concat } bd
/Tm { _tm astore pop iTm 0 0 moveto } bd
/ux 0.0 def
/uy 0.0 def
/F {
  /Tp exch def
  /Tf exch def
  Tf findfont Tp scalefont setfont
  /cf Tf def  /cs Tp def
} bd
/ULS {currentpoint /uy exch def /ux exch def} bd
/ULE {
  /Tcx currentpoint pop def
  gsave
  newpath
  cf findfont cs scalefont dup
  /FontMatrix get 0 get /Ts exch def /FontInfo get dup
  /UnderlinePosition get Ts mul /To exch def
  /UnderlineThickness get Ts mul /Tt exch def
  ux uy To add moveto  Tcx uy To add lineto
  Tt setlinewidth stroke
  grestore
} bd
/OLE {
  /Tcx currentpoint pop def
  gsave
  newpath
  cf findfont cs scalefont dup
  /FontMatrix get 0 get /Ts exch def /FontInfo get dup
  /UnderlinePosition get Ts mul /To exch def
  /UnderlineThickness get Ts mul /Tt exch def
  ux uy To add cs add moveto Tcx uy To add cs add lineto
  Tt setlinewidth stroke
  grestore
} bd
/SOE {
  /Tcx currentpoint pop def
  gsave
  newpath
  cf findfont cs scalefont dup
  /FontMatrix get 0 get /Ts exch def /FontInfo get dup
  /UnderlinePosition get Ts mul /To exch def
  /UnderlineThickness get Ts mul /Tt exch def
  ux uy To add cs 10 mul 26 idiv add moveto Tcx uy To add cs 10 mul 26 idiv add lineto
  Tt setlinewidth stroke
  grestore
} bd
/QT {
/Y22 exch store
/X22 exch store
/Y21 exch store
/X21 exch store
currentpoint
/Y21 load 2 mul add 3 div exch
/X21 load 2 mul add 3 div exch
/X21 load 2 mul /X22 load add 3 div
/Y21 load 2 mul /Y22 load add 3 div
/X22 load /Y22 load curveto
} bd
/SSPD {
dup length /d exch dict def
{
/v exch def
/k exch def
currentpagedevice k known {
/cpdv currentpagedevice k get def
v cpdv ne {
/upd false def
/nullv v type /nulltype eq def
/nullcpdv cpdv type /nulltype eq def
nullv nullcpdv or
{
/upd true def
} {
/sametype v type cpdv type eq def
sametype {
v type /arraytype eq {
/vlen v length def
/cpdvlen cpdv length def
vlen cpdvlen eq {
0 1 vlen 1 sub {
/i exch def
/obj v i get def
/cpdobj cpdv i get def
obj cpdobj ne {
/upd true def
exit
} if
} for
} {
/upd true def
} ifelse
} {
v type /dicttype eq {
v {
/dv exch def
/dk exch def
/cpddv cpdv dk get def
dv cpddv ne {
/upd true def
exit
} if
} forall
} {
/upd true def
} ifelse
} ifelse
} if
} ifelse
upd true eq {
d k v put
} if
} if
} if
} forall
d length 0 gt {
d setpagedevice
} if
} bd
/RE { % /NewFontName [NewEncodingArray] /FontName RE -
  findfont dup length dict begin
  {
    1 index /FID ne
    {def} {pop pop} ifelse
  } forall
  /Encoding exch def
  /FontName 1 index def
  currentdict definefont pop
  end
} bind def
%%EndResource
%%BeginResource: procset (Apache XML Graphics EPS ProcSet) 1.0 0
%%Version: 1.0 0
%%Copyright: (Copyright 2002-2003 The Apache Software Foundation. License terms: http://www.apache.org/licenses/LICENSE-2.0)
/BeginEPSF { %def
/b4_Inc_state save def         % Save state for cleanup
/dict_count countdictstack def % Count objects on dict stack
/op_count count 1 sub def      % Count objects on operand stack
userdict begin                 % Push userdict on dict stack
/showpage { } def              % Redefine showpage, { } = null proc
0 setgray 0 setlinecap         % Prepare graphics state
1 setlinewidth 0 setlinejoin
10 setmiterlimit [ ] 0 setdash newpath
/languagelevel where           % If level not equal to 1 then
{pop languagelevel             % set strokeadjust and
1 ne                           % overprint to their defaults.
{false setstrokeadjust false setoverprint
} if
} if
} bd
/EndEPSF { %def
count op_count sub {pop} repeat            % Clean up stacks
countdictstack dict_count sub {end} repeat
b4_Inc_state restore
} bd
%%EndResource
%FOPBeginFontDict
%%IncludeResource: font Courier-Bold
%%IncludeResource: font Helvetica
%%IncludeResource: font Courier-BoldOblique
%%IncludeResource: font Courier-Oblique
%%IncludeResource: font Times-Roman
%%IncludeResource: font Helvetica-BoldOblique
%%IncludeResource: font Helvetica-Bold
%%IncludeResource: font Helvetica-Oblique
%%IncludeResource: font Times-BoldItalic
%%IncludeResource: font Courier
%%IncludeResource: font Times-Italic
%%IncludeResource: font Times-Bold
%%IncludeResource: font Symbol
%%IncludeResource: font ZapfDingbats
%FOPEndFontDict
%%BeginResource: encoding WinAnsiEncoding
/WinAnsiEncoding [
/.notdef /.notdef /.notdef /.notdef /.notdef
/.notdef /.notdef /.notdef /.notdef /.notdef
/.notdef /.notdef /.notdef /.notdef /.notdef
/.notdef /.notdef /.notdef /.notdef /.notdef
/.notdef /.notdef /.notdef /.notdef /.notdef
/.notdef /.notdef /.notdef /.notdef /.notdef
/.notdef /.notdef /space /exclam /quotedbl
/numbersign /dollar /percent /ampersand /quotesingle
/parenleft /parenright /asterisk /plus /comma
/hyphen /period /slash /zero /one
/two /three /four /five /six
/seven /eight /nine /colon /semicolon
/less /equal /greater /question /at
/A /B /C /D /E
/F /G /H /I /J
/K /L /M /N /O
/P /Q /R /S /T
/U /V /W /X /Y
/Z /bracketleft /backslash /bracketright /asciicircum
/underscore /quoteleft /a /b /c
/d /e /f /g /h
/i /j /k /l /m
/n /o /p /q /r
/s /t /u /v /w
/x /y /z /braceleft /bar
/braceright /asciitilde /bullet /Euro /bullet
/quotesinglbase /florin /quotedblbase /ellipsis /dagger
/daggerdbl /circumflex /perthousand /Scaron /guilsinglleft
/OE /bullet /Zcaron /bullet /bullet
/quoteleft /quoteright /quotedblleft /quotedblright /bullet
/endash /emdash /asciitilde /trademark /scaron
/guilsinglright /oe /bullet /zcaron /Ydieresis
/space /exclamdown /cent /sterling /currency
/yen /brokenbar /section /dieresis /copyright
/ordfeminine /guillemotleft /logicalnot /sfthyphen /registered
/macron /degree /plusminus /twosuperior /threesuperior
/acute /mu /paragraph /middot /cedilla
/onesuperior /ordmasculine /guillemotright /onequarter /onehalf
/threequarters /questiondown /Agrave /Aacute /Acircumflex
/Atilde /Adieresis /Aring /AE /Ccedilla
/Egrave /Eacute /Ecircumflex /Edieresis /Igrave
/Iacute /Icircumflex /Idieresis /Eth /Ntilde
/Ograve /Oacute /Ocircumflex /Otilde /Odieresis
/multiply /Oslash /Ugrave /Uacute /Ucircumflex
/Udieresis /Yacute /Thorn /germandbls /agrave
/aacute /acircumflex /atilde /adieresis /aring
/ae /ccedilla /egrave /eacute /ecircumflex
/edieresis /igrave /iacute /icircumflex /idieresis
/eth /ntilde /ograve /oacute /ocircumflex
/otilde /odieresis /divide /oslash /ugrave
/uacute /ucircumflex /udieresis /yacute /thorn
/ydieresis
] def
%%EndResource
%FOPBeginFontReencode
/Courier-Bold findfont
dup length dict begin
  {1 index /FID ne {def} {pop pop} ifelse} forall
  /Encoding WinAnsiEncoding def
  currentdict
end
/Courier-Bold exch definefont pop
/Helvetica findfont
dup length dict begin
  {1 index /FID ne {def} {pop pop} ifelse} forall
  /Encoding WinAnsiEncoding def
  currentdict
end
/Helvetica exch definefont pop
/Courier-BoldOblique findfont
dup length dict begin
  {1 index /FID ne {def} {pop pop} ifelse} forall
  /Encoding WinAnsiEncoding def
  currentdict
end
/Courier-BoldOblique exch definefont pop
/Courier-Oblique findfont
dup length dict begin
  {1 index /FID ne {def} {pop pop} ifelse} forall
  /Encoding WinAnsiEncoding def
  currentdict
end
/Courier-Oblique exch definefont pop
/Times-Roman findfont
dup length dict begin
  {1 index /FID ne {def} {pop pop} ifelse} forall
  /Encoding WinAnsiEncoding def
  currentdict
end
/Times-Roman exch definefont pop
/Helvetica-BoldOblique findfont
dup length dict begin
  {1 index /FID ne {def} {pop pop} ifelse} forall
  /Encoding WinAnsiEncoding def
  currentdict
end
/Helvetica-BoldOblique exch definefont pop
/Helvetica-Bold findfont
dup length dict begin
  {1 index /FID ne {def} {pop pop} ifelse} forall
  /Encoding WinAnsiEncoding def
  currentdict
end
/Helvetica-Bold exch definefont pop
/Helvetica-Oblique findfont
dup length dict begin
  {1 index /FID ne {def} {pop pop} ifelse} forall
  /Encoding WinAnsiEncoding def
  currentdict
end
/Helvetica-Oblique exch definefont pop
/Times-BoldItalic findfont
dup length dict begin
  {1 index /FID ne {def} {pop pop} ifelse} forall
  /Encoding WinAnsiEncoding def
  currentdict
end
/Times-BoldItalic exch definefont pop
/Courier findfont
dup length dict begin
  {1 index /FID ne {def} {pop pop} ifelse} forall
  /Encoding WinAnsiEncoding def
  currentdict
end
/Courier exch definefont pop
/Times-Italic findfont
dup length dict begin
  {1 index /FID ne {def} {pop pop} ifelse} forall
  /Encoding WinAnsiEncoding def
  currentdict
end
/Times-Italic exch definefont pop
/Times-Bold findfont
dup length dict begin
  {1 index /FID ne {def} {pop pop} ifelse} forall
  /Encoding WinAnsiEncoding def
  currentdict
end
/Times-Bold exch definefont pop
%FOPEndFontReencode
%%EndProlog
%%Page: 1 1
%%PageBoundingBox: 0 0 428 310
%%BeginPageSetup
[1 0 0 -1 0 310] CT
%%EndPageSetup
GS
[0.75 0 0 0.75 0 0.25] CT
1 GC
N
0 0 570 413 re
f
GR
GS
[0.75 0 0 0.75 0 0.25] CT
1 GC
N
0 0 570 413 re
f
GR
GS
[0.75 0 0 0.75 0 0.25] CT
1 GC
N
74 368 M
516 368 L
516 31 L
74 31 L
cp
f
GR
GS
[0.75 0 0 0.75 0 0.25] CT
0.149 GC
2 setlinecap
1 LJ
0.667 LW
N
74 368 M
516 368 L
S
GR
GS
[0.75 0 0 0.75 0 0.25] CT
0.149 GC
2 setlinecap
1 LJ
0.667 LW
N
74 31 M
516 31 L
S
GR
GS
[0.75 0 0 0.75 0 0.25] CT
0.149 GC
2 setlinecap
1 LJ
0.667 LW
N
74 368 M
74 363.58 L
S
GR
GS
[0.75 0 0 0.75 0 0.25] CT
0.149 GC
2 setlinecap
1 LJ
0.667 LW
N
123.111 368 M
123.111 363.58 L
S
GR
GS
[0.75 0 0 0.75 0 0.25] CT
0.149 GC
2 setlinecap
1 LJ
0.667 LW
N
172.222 368 M
172.222 363.58 L
S
GR
GS
[0.75 0 0 0.75 0 0.25] CT
0.149 GC
2 setlinecap
1 LJ
0.667 LW
N
221.333 368 M
221.333 363.58 L
S
GR
GS
[0.75 0 0 0.75 0 0.25] CT
0.149 GC
2 setlinecap
1 LJ
0.667 LW
N
270.444 368 M
270.444 363.58 L
S
GR
GS
[0.75 0 0 0.75 0 0.25] CT
0.149 GC
2 setlinecap
1 LJ
0.667 LW
N
319.556 368 M
319.556 363.58 L
S
GR
GS
[0.75 0 0 0.75 0 0.25] CT
0.149 GC
2 setlinecap
1 LJ
0.667 LW
N
368.667 368 M
368.667 363.58 L
S
GR
GS
[0.75 0 0 0.75 0 0.25] CT
0.149 GC
2 setlinecap
1 LJ
0.667 LW
N
417.778 368 M
417.778 363.58 L
S
GR
GS
[0.75 0 0 0.75 0 0.25] CT
0.149 GC
2 setlinecap
1 LJ
0.667 LW
N
466.889 368 M
466.889 363.58 L
S
GR
GS
[0.75 0 0 0.75 0 0.25] CT
0.149 GC
2 setlinecap
1 LJ
0.667 LW
N
516 368 M
516 363.58 L
S
GR
GS
[0.75 0 0 0.75 0 0.25] CT
0.149 GC
2 setlinecap
1 LJ
0.667 LW
N
74 31 M
74 35.42 L
S
GR
GS
[0.75 0 0 0.75 0 0.25] CT
0.149 GC
2 setlinecap
1 LJ
0.667 LW
N
123.111 31 M
123.111 35.42 L
S
GR
GS
[0.75 0 0 0.75 0 0.25] CT
0.149 GC
2 setlinecap
1 LJ
0.667 LW
N
172.222 31 M
172.222 35.42 L
S
GR
GS
[0.75 0 0 0.75 0 0.25] CT
0.149 GC
2 setlinecap
1 LJ
0.667 LW
N
221.333 31 M
221.333 35.42 L
S
GR
GS
[0.75 0 0 0.75 0 0.25] CT
0.149 GC
2 setlinecap
1 LJ
0.667 LW
N
270.444 31 M
270.444 35.42 L
S
GR
GS
[0.75 0 0 0.75 0 0.25] CT
0.149 GC
2 setlinecap
1 LJ
0.667 LW
N
319.556 31 M
319.556 35.42 L
S
GR
GS
[0.75 0 0 0.75 0 0.25] CT
0.149 GC
2 setlinecap
1 LJ
0.667 LW
N
368.667 31 M
368.667 35.42 L
S
GR
GS
[0.75 0 0 0.75 0 0.25] CT
0.149 GC
2 setlinecap
1 LJ
0.667 LW
N
417.778 31 M
417.778 35.42 L
S
GR
GS
[0.75 0 0 0.75 0 0.25] CT
0.149 GC
2 setlinecap
1 LJ
0.667 LW
N
466.889 31 M
466.889 35.42 L
S
GR
GS
[0.75 0 0 0.75 0 0.25] CT
0.149 GC
2 setlinecap
1 LJ
0.667 LW
N
516 31 M
516 35.42 L
S
GR
GS
[0.75 0 0 0.75 55.5 280.25001] CT
0.149 GC
/Helvetica 13.333 F
GS
[1 0 0 1 0 0] CT
-12.5 13 moveto 
1 -1 scale
(100) t 
GR
GR
GS
[0.75 0 0 0.75 92.33334 280.25001] CT
0.149 GC
/Helvetica 13.333 F
GS
[1 0 0 1 0 0] CT
-12.5 13 moveto 
1 -1 scale
(200) t 
GR
GR
GS
[0.75 0 0 0.75 129.16667 280.25001] CT
0.149 GC
/Helvetica 13.333 F
GS
[1 0 0 1 0 0] CT
-12.5 13 moveto 
1 -1 scale
(300) t 
GR
GR
GS
[0.75 0 0 0.75 166 280.25001] CT
0.149 GC
/Helvetica 13.333 F
GS
[1 0 0 1 0 0] CT
-12.5 13 moveto 
1 -1 scale
(400) t 
GR
GR
GS
[0.75 0 0 0.75 202.83334 280.25001] CT
0.149 GC
/Helvetica 13.333 F
GS
[1 0 0 1 0 0] CT
-12.5 13 moveto 
1 -1 scale
(500) t 
GR
GR
GS
[0.75 0 0 0.75 239.66666 280.25001] CT
0.149 GC
/Helvetica 13.333 F
GS
[1 0 0 1 0 0] CT
-12.5 13 moveto 
1 -1 scale
(600) t 
GR
GR
GS
[0.75 0 0 0.75 276.49999 280.25001] CT
0.149 GC
/Helvetica 13.333 F
GS
[1 0 0 1 0 0] CT
-12.5 13 moveto 
1 -1 scale
(700) t 
GR
GR
GS
[0.75 0 0 0.75 313.33333 280.25001] CT
0.149 GC
/Helvetica 13.333 F
GS
[1 0 0 1 0 0] CT
-12.5 13 moveto 
1 -1 scale
(800) t 
GR
GR
GS
[0.75 0 0 0.75 350.16666 280.25001] CT
0.149 GC
/Helvetica 13.333 F
GS
[1 0 0 1 0 0] CT
-12.5 13 moveto 
1 -1 scale
(900) t 
GR
GR
GS
[0.75 0 0 0.75 387 280.25001] CT
0.149 GC
/Helvetica 13.333 F
GS
[1 0 0 1 0 0] CT
-17 13 moveto 
1 -1 scale
(1000) t 
GR
GR
GS
[0.75 0 0 0.75 221.25016 293.99999] CT
0.149 GC
N
-4.616 12.117 M
-4.601 12.086 -4.577 11.992 QT
-4.554 11.898 -4.515 11.843 QT
-4.476 11.789 -4.398 11.789 QT
-3.116 11.789 -2.695 11.726 QT
-2.288 11.617 -2.21 11.289 QT
-0.163 3.054 L
-0.101 2.867 -0.101 2.711 QT
-0.101 2.601 -0.616 2.601 QT
-1.491 2.601 L
-2.491 2.601 -3.038 2.906 QT
-3.585 3.211 -3.843 3.718 QT
-4.101 4.226 -4.507 5.382 QT
-4.554 5.507 -4.663 5.507 QT
-4.788 5.507 L
-4.945 5.507 -4.945 5.32 QT
-3.882 2.211 L
-3.851 2.07 -3.726 2.07 QT
5.134 2.07 L
5.29 2.07 5.29 2.273 QT
4.79 5.382 L
4.79 5.414 4.735 5.461 QT
4.68 5.507 4.649 5.507 QT
4.509 5.507 L
4.352 5.507 4.352 5.32 QT
4.524 4.257 4.524 3.82 QT
4.524 3.289 4.298 3.015 QT
4.071 2.742 3.72 2.672 QT
3.368 2.601 2.805 2.601 QT
1.93 2.601 L
1.524 2.601 1.384 2.672 QT
1.243 2.742 1.149 3.117 QT
-0.913 11.351 L
-0.913 11.382 -0.921 11.406 QT
-0.929 11.429 -0.945 11.476 QT
-0.945 11.664 -0.71 11.726 QT
-0.32 11.789 0.946 11.789 QT
1.102 11.789 1.102 11.992 QT
1.04 12.195 1.016 12.257 QT
0.993 12.32 0.852 12.32 QT
-4.46 12.32 L
-4.616 12.32 -4.616 12.117 QT
cp
f
GR
GS
[0.75 0 0 0.75 0 0.25] CT
0.149 GC
2 setlinecap
1 LJ
0.667 LW
N
74 368 M
74 31 L
S
GR
GS
[0.75 0 0 0.75 0 0.25] CT
0.149 GC
2 setlinecap
1 LJ
0.667 LW
N
516 368 M
516 31 L
S
GR
GS
[0.75 0 0 0.75 0 0.25] CT
0.149 GC
2 setlinecap
1 LJ
0.667 LW
N
74 368 M
78.42 368 L
S
GR
GS
[0.75 0 0 0.75 0 0.25] CT
0.149 GC
2 setlinecap
1 LJ
0.667 LW
N
74 319.857 M
78.42 319.857 L
S
GR
GS
[0.75 0 0 0.75 0 0.25] CT
0.149 GC
2 setlinecap
1 LJ
0.667 LW
N
74 271.714 M
78.42 271.714 L
S
GR
GS
[0.75 0 0 0.75 0 0.25] CT
0.149 GC
2 setlinecap
1 LJ
0.667 LW
N
74 223.571 M
78.42 223.571 L
S
GR
GS
[0.75 0 0 0.75 0 0.25] CT
0.149 GC
2 setlinecap
1 LJ
0.667 LW
N
74 175.429 M
78.42 175.429 L
S
GR
GS
[0.75 0 0 0.75 0 0.25] CT
0.149 GC
2 setlinecap
1 LJ
0.667 LW
N
74 127.286 M
78.42 127.286 L
S
GR
GS
[0.75 0 0 0.75 0 0.25] CT
0.149 GC
2 setlinecap
1 LJ
0.667 LW
N
74 79.143 M
78.42 79.143 L
S
GR
GS
[0.75 0 0 0.75 0 0.25] CT
0.149 GC
2 setlinecap
1 LJ
0.667 LW
N
74 31 M
78.42 31 L
S
GR
GS
[0.75 0 0 0.75 0 0.25] CT
0.149 GC
2 setlinecap
1 LJ
0.667 LW
N
516 368 M
511.58 368 L
S
GR
GS
[0.75 0 0 0.75 0 0.25] CT
0.149 GC
2 setlinecap
1 LJ
0.667 LW
N
516 319.857 M
511.58 319.857 L
S
GR
GS
[0.75 0 0 0.75 0 0.25] CT
0.149 GC
2 setlinecap
1 LJ
0.667 LW
N
516 271.714 M
511.58 271.714 L
S
GR
GS
[0.75 0 0 0.75 0 0.25] CT
0.149 GC
2 setlinecap
1 LJ
0.667 LW
N
516 223.571 M
511.58 223.571 L
S
GR
GS
[0.75 0 0 0.75 0 0.25] CT
0.149 GC
2 setlinecap
1 LJ
0.667 LW
N
516 175.429 M
511.58 175.429 L
S
GR
GS
[0.75 0 0 0.75 0 0.25] CT
0.149 GC
2 setlinecap
1 LJ
0.667 LW
N
516 127.286 M
511.58 127.286 L
S
GR
GS
[0.75 0 0 0.75 0 0.25] CT
0.149 GC
2 setlinecap
1 LJ
0.667 LW
N
516 79.143 M
511.58 79.143 L
S
GR
GS
[0.75 0 0 0.75 0 0.25] CT
0.149 GC
2 setlinecap
1 LJ
0.667 LW
N
516 31 M
511.58 31 L
S
GR
GS
[0.75 0 0 0.75 51.5 276.25] CT
0.149 GC
/Helvetica 13.333 F
GS
[1 0 0 1 0 0] CT
-29 4.5 moveto 
1 -1 scale
(0.05) t 
GR
GR
GS
[0.75 0 0 0.75 51.5 240.14286] CT
0.149 GC
/Helvetica 13.333 F
GS
[1 0 0 1 0 0] CT
-21 4.5 moveto 
1 -1 scale
(0.1) t 
GR
GR
GS
[0.75 0 0 0.75 51.5 204.03572] CT
0.149 GC
/Helvetica 13.333 F
GS
[1 0 0 1 0 0] CT
-29 4.5 moveto 
1 -1 scale
(0.15) t 
GR
GR
GS
[0.75 0 0 0.75 51.5 167.92857] CT
0.149 GC
/Helvetica 13.333 F
GS
[1 0 0 1 0 0] CT
-21 4.5 moveto 
1 -1 scale
(0.2) t 
GR
GR
GS
[0.75 0 0 0.75 51.5 131.82143] CT
0.149 GC
/Helvetica 13.333 F
GS
[1 0 0 1 0 0] CT
-29 4.5 moveto 
1 -1 scale
(0.25) t 
GR
GR
GS
[0.75 0 0 0.75 51.5 95.71428] CT
0.149 GC
/Helvetica 13.333 F
GS
[1 0 0 1 0 0] CT
-21 4.5 moveto 
1 -1 scale
(0.3) t 
GR
GR
GS
[0.75 0 0 0.75 51.5 59.60715] CT
0.149 GC
/Helvetica 13.333 F
GS
[1 0 0 1 0 0] CT
-29 4.5 moveto 
1 -1 scale
(0.35) t 
GR
GR
GS
[0.75 0 0 0.75 51.5 23.5] CT
0.149 GC
/Helvetica 13.333 F
GS
[1 0 0 1 0 0] CT
-21 4.5 moveto 
1 -1 scale
(0.4) t 
GR
GR
GS
[0 -0.75 0.75 0 26.75 149.87487] CT
0.149 GC
N
-46.709 -6.889 M
-46.178 -6.218 -45.396 -5.85 QT
-44.615 -5.483 -43.756 -5.483 QT
-42.928 -5.483 -42.248 -5.905 QT
-41.568 -6.327 -41.568 -7.108 QT
-41.568 -8.374 L
-41.568 -8.843 -43.443 -8.843 QT
-43.443 -9.374 L
-39.146 -9.374 L
-39.146 -8.843 L
-39.615 -8.843 -39.896 -8.764 QT
-40.178 -8.686 -40.178 -8.374 QT
-40.178 -5.405 L
-40.178 -5.358 -40.217 -5.319 QT
-40.256 -5.28 -40.303 -5.28 QT
-40.443 -5.28 -40.771 -5.608 QT
-41.1 -5.936 -41.287 -6.202 QT
-41.646 -5.561 -42.436 -5.257 QT
-43.225 -4.952 -44.068 -4.952 QT
-45.537 -4.952 -46.732 -5.702 QT
-47.928 -6.452 -48.623 -7.71 QT
-49.318 -8.968 -49.318 -10.405 QT
-49.318 -11.468 -48.92 -12.475 QT
-48.521 -13.483 -47.795 -14.241 QT
-47.068 -14.999 -46.107 -15.428 QT
-45.146 -15.858 -44.068 -15.858 QT
-43.303 -15.858 -42.607 -15.522 QT
-41.912 -15.186 -41.365 -14.577 QT
-40.506 -15.811 L
-40.412 -15.858 -40.396 -15.858 QT
-40.287 -15.858 L
-40.24 -15.858 -40.209 -15.819 QT
-40.178 -15.78 -40.178 -15.733 QT
-40.178 -11.686 L
-40.178 -11.546 -40.287 -11.546 QT
-40.553 -11.546 L
-40.693 -11.546 -40.693 -11.686 QT
-40.693 -12.108 -40.865 -12.647 QT
-41.037 -13.186 -41.311 -13.663 QT
-41.584 -14.139 -41.928 -14.514 QT
-42.771 -15.327 -43.865 -15.327 QT
-44.693 -15.327 -45.459 -14.952 QT
-46.225 -14.577 -46.74 -13.921 QT
-47.287 -13.218 -47.498 -12.319 QT
-47.709 -11.421 -47.709 -10.405 QT
-47.709 -8.108 -46.709 -6.889 QT
cp
f
GR
GS
[0 -0.75 0.75 0 26.75 149.87487] CT
0.149 GC
N
-38.184 -5.28 M
-38.184 -5.811 L
-37.684 -5.811 -37.348 -5.889 QT
-37.012 -5.968 -37.012 -6.28 QT
-37.012 -10.374 L
-37.012 -10.952 -37.239 -11.085 QT
-37.465 -11.218 -38.122 -11.218 QT
-38.122 -11.749 L
-35.965 -11.905 L
-35.965 -6.28 L
-35.965 -5.968 -35.676 -5.889 QT
-35.387 -5.811 -34.918 -5.811 QT
-34.918 -5.28 L
-38.184 -5.28 L
cp
-37.559 -14.483 M
-37.559 -14.811 -37.309 -15.061 QT
-37.059 -15.311 -36.731 -15.311 QT
-36.528 -15.311 -36.325 -15.202 QT
-36.122 -15.093 -36.012 -14.897 QT
-35.903 -14.702 -35.903 -14.483 QT
-35.903 -14.171 -36.153 -13.921 QT
-36.403 -13.671 -36.731 -13.671 QT
-37.059 -13.671 -37.309 -13.921 QT
-37.559 -14.171 -37.559 -14.483 QT
cp
f
GR
GS
[0 -0.75 0.75 0 26.75 149.87487] CT
0.149 GC
N
-34.126 -5.28 M
-34.126 -5.811 L
-33.626 -5.811 -33.29 -5.889 QT
-32.954 -5.968 -32.954 -6.28 QT
-32.954 -10.374 L
-32.954 -10.78 -33.079 -10.96 QT
-33.204 -11.139 -33.43 -11.178 QT
-33.657 -11.218 -34.126 -11.218 QT
-34.126 -11.749 L
-31.954 -11.905 L
-31.954 -10.436 L
-31.657 -11.093 -31.063 -11.499 QT
-30.469 -11.905 -29.782 -11.905 QT
-28.735 -11.905 -28.212 -11.405 QT
-27.688 -10.905 -27.688 -9.889 QT
-27.688 -6.28 L
-27.688 -5.968 -27.36 -5.889 QT
-27.032 -5.811 -26.516 -5.811 QT
-26.516 -5.28 L
-29.954 -5.28 L
-29.954 -5.811 L
-29.438 -5.811 -29.11 -5.889 QT
-28.782 -5.968 -28.782 -6.28 QT
-28.782 -9.843 L
-28.782 -10.577 -28.993 -11.046 QT
-29.204 -11.514 -29.876 -11.514 QT
-30.735 -11.514 -31.298 -10.819 QT
-31.86 -10.124 -31.86 -9.249 QT
-31.86 -6.28 L
-31.86 -5.968 -31.532 -5.889 QT
-31.204 -5.811 -30.704 -5.811 QT
-30.704 -5.28 L
-34.126 -5.28 L
cp
f
GR
GS
[0 -0.75 0.75 0 26.75 149.87487] CT
0.149 GC
N
-25.962 -5.28 M
-25.962 -5.811 L
-25.462 -5.811 -25.126 -5.889 QT
-24.79 -5.968 -24.79 -6.28 QT
-24.79 -10.374 L
-24.79 -10.952 -25.017 -11.085 QT
-25.243 -11.218 -25.899 -11.218 QT
-25.899 -11.749 L
-23.743 -11.905 L
-23.743 -6.28 L
-23.743 -5.968 -23.454 -5.889 QT
-23.165 -5.811 -22.696 -5.811 QT
-22.696 -5.28 L
-25.962 -5.28 L
cp
-25.337 -14.483 M
-25.337 -14.811 -25.087 -15.061 QT
-24.837 -15.311 -24.509 -15.311 QT
-24.306 -15.311 -24.102 -15.202 QT
-23.899 -15.093 -23.79 -14.897 QT
-23.681 -14.702 -23.681 -14.483 QT
-23.681 -14.171 -23.931 -13.921 QT
-24.181 -13.671 -24.509 -13.671 QT
-24.837 -13.671 -25.087 -13.921 QT
-25.337 -14.171 -25.337 -14.483 QT
cp
f
GR
GS
[0 -0.75 0.75 0 26.75 149.87487] CT
0.149 GC
N
-14.046 -6.889 M
-13.53 -6.233 -12.764 -5.858 QT
-11.999 -5.483 -11.171 -5.483 QT
-10.468 -5.483 -9.874 -5.757 QT
-9.28 -6.03 -8.843 -6.522 QT
-8.405 -7.014 -8.163 -7.632 QT
-7.921 -8.249 -7.921 -8.936 QT
-7.921 -9.061 -7.796 -9.061 QT
-7.608 -9.061 L
-7.499 -9.061 -7.499 -8.921 QT
-7.499 -8.124 -7.796 -7.397 QT
-8.093 -6.671 -8.639 -6.116 QT
-9.186 -5.561 -9.905 -5.257 QT
-10.624 -4.952 -11.389 -4.952 QT
-12.468 -4.952 -13.436 -5.389 QT
-14.405 -5.827 -15.116 -6.585 QT
-15.827 -7.343 -16.225 -8.335 QT
-16.624 -9.327 -16.624 -10.405 QT
-16.624 -11.483 -16.225 -12.483 QT
-15.827 -13.483 -15.116 -14.241 QT
-14.405 -14.999 -13.436 -15.428 QT
-12.468 -15.858 -11.389 -15.858 QT
-10.624 -15.858 -9.921 -15.522 QT
-9.218 -15.186 -8.686 -14.577 QT
-7.827 -15.811 L
-7.733 -15.858 -7.718 -15.858 QT
-7.608 -15.858 L
-7.561 -15.858 -7.53 -15.819 QT
-7.499 -15.78 -7.499 -15.733 QT
-7.499 -11.686 L
-7.499 -11.546 -7.608 -11.546 QT
-7.874 -11.546 L
-8.014 -11.546 -8.014 -11.686 QT
-8.014 -12.108 -8.186 -12.647 QT
-8.358 -13.186 -8.632 -13.663 QT
-8.905 -14.139 -9.249 -14.514 QT
-10.093 -15.327 -11.186 -15.327 QT
-12.014 -15.327 -12.772 -14.952 QT
-13.53 -14.577 -14.046 -13.921 QT
-14.593 -13.218 -14.804 -12.319 QT
-15.014 -11.421 -15.014 -10.405 QT
-15.014 -9.389 -14.804 -8.491 QT
-14.593 -7.593 -14.046 -6.889 QT
cp
f
GR
GS
[0 -0.75 0.75 0 26.75 149.87487] CT
0.149 GC
N
-3.125 -5.108 M
-4.031 -5.108 -4.797 -5.569 QT
-5.563 -6.03 -6.008 -6.796 QT
-6.453 -7.561 -6.453 -8.468 QT
-6.453 -9.155 -6.211 -9.796 QT
-5.969 -10.436 -5.508 -10.936 QT
-5.047 -11.436 -4.438 -11.718 QT
-3.828 -11.999 -3.125 -11.999 QT
-2.203 -11.999 -1.445 -11.514 QT
-0.688 -11.03 -0.25 -10.21 QT
0.187 -9.389 0.187 -8.468 QT
0.187 -7.577 -0.258 -6.803 QT
-0.703 -6.03 -1.469 -5.569 QT
-2.234 -5.108 -3.125 -5.108 QT
cp
-3.125 -5.546 M
-1.922 -5.546 -1.523 -6.421 QT
-1.125 -7.296 -1.125 -8.639 QT
-1.125 -9.389 -1.203 -9.889 QT
-1.281 -10.389 -1.547 -10.796 QT
-1.719 -11.03 -1.977 -11.218 QT
-2.234 -11.405 -2.523 -11.507 QT
-2.813 -11.608 -3.125 -11.608 QT
-3.594 -11.608 -4.016 -11.397 QT
-4.438 -11.186 -4.719 -10.796 QT
-5 -10.358 -5.07 -9.85 QT
-5.141 -9.343 -5.141 -8.639 QT
-5.141 -7.796 -5 -7.124 QT
-4.859 -6.452 -4.414 -5.999 QT
-3.969 -5.546 -3.125 -5.546 QT
cp
f
GR
GS
[0 -0.75 0.75 0 26.75 149.87487] CT
0.149 GC
N
4.6 -5.108 M
3.678 -5.108 2.92 -5.593 QT
2.163 -6.077 1.725 -6.874 QT
1.288 -7.671 1.288 -8.561 QT
1.288 -9.452 1.686 -10.241 QT
2.085 -11.03 2.795 -11.514 QT
3.506 -11.999 4.381 -11.999 QT
5.085 -11.999 5.592 -11.772 QT
6.1 -11.546 6.428 -11.132 QT
6.756 -10.718 6.92 -10.163 QT
7.085 -9.608 7.085 -8.936 QT
7.085 -8.749 6.944 -8.749 QT
2.6 -8.749 L
2.6 -8.577 L
2.6 -7.343 3.1 -6.444 QT
3.6 -5.546 4.741 -5.546 QT
5.194 -5.546 5.585 -5.757 QT
5.975 -5.968 6.264 -6.327 QT
6.553 -6.686 6.663 -7.108 QT
6.678 -7.155 6.717 -7.202 QT
6.756 -7.249 6.803 -7.249 QT
6.944 -7.249 L
7.085 -7.249 7.085 -7.046 QT
6.881 -6.202 6.178 -5.655 QT
5.475 -5.108 4.6 -5.108 QT
cp
2.616 -9.124 M
6.022 -9.124 L
6.022 -9.686 5.866 -10.264 QT
5.71 -10.843 5.342 -11.225 QT
4.975 -11.608 4.381 -11.608 QT
3.538 -11.608 3.077 -10.811 QT
2.616 -10.014 2.616 -9.124 QT
cp
f
GR
GS
[0 -0.75 0.75 0 26.75 149.87487] CT
0.149 GC
N
7.775 -5.28 M
7.775 -5.811 L
8.291 -5.811 8.619 -5.889 QT
8.947 -5.968 8.947 -6.28 QT
8.947 -11.218 L
7.791 -11.218 L
7.791 -11.749 L
8.947 -11.749 L
8.947 -13.546 L
8.947 -14.108 9.267 -14.553 QT
9.587 -14.999 10.08 -15.28 QT
10.572 -15.561 11.15 -15.71 QT
11.728 -15.858 12.259 -15.858 QT
12.775 -15.858 13.22 -15.639 QT
13.666 -15.421 13.884 -15.03 QT
14.884 -15.858 16.447 -15.858 QT
16.884 -15.858 17.314 -15.671 QT
17.744 -15.483 18.017 -15.132 QT
18.291 -14.78 18.291 -14.311 QT
18.291 -14.014 18.08 -13.803 QT
17.869 -13.593 17.572 -13.593 QT
17.259 -13.593 17.056 -13.796 QT
16.853 -13.999 16.853 -14.311 QT
16.853 -14.593 17.048 -14.811 QT
17.244 -15.03 17.525 -15.03 QT
17.056 -15.468 16.322 -15.468 QT
15.791 -15.468 15.267 -15.218 QT
14.744 -14.968 14.423 -14.522 QT
14.103 -14.077 14.103 -13.514 QT
14.103 -11.749 L
16.087 -11.749 L
18.306 -11.936 L
18.306 -6.28 L
18.306 -5.968 18.634 -5.889 QT
18.962 -5.811 19.478 -5.811 QT
19.478 -5.28 L
16.087 -5.28 L
16.087 -5.811 L
16.603 -5.811 16.931 -5.889 QT
17.259 -5.968 17.259 -6.28 QT
17.259 -10.405 L
17.259 -10.827 17.158 -10.999 QT
17.056 -11.171 16.666 -11.218 QT
14.15 -11.218 L
14.15 -6.28 L
14.15 -5.968 14.478 -5.889 QT
14.806 -5.811 15.322 -5.811 QT
15.322 -5.28 L
11.931 -5.28 L
11.931 -5.811 L
12.431 -5.811 12.767 -5.889 QT
13.103 -5.968 13.103 -6.28 QT
13.103 -11.218 L
9.994 -11.218 L
9.994 -6.28 L
9.994 -5.968 10.33 -5.889 QT
10.666 -5.811 11.166 -5.811 QT
11.166 -5.28 L
7.775 -5.28 L
cp
9.947 -11.749 M
13.103 -11.749 L
13.103 -13.546 L
13.103 -13.639 L
12.884 -13.718 12.767 -13.905 QT
12.65 -14.093 12.65 -14.311 QT
12.65 -14.608 12.845 -14.819 QT
13.041 -15.03 13.322 -15.03 QT
12.869 -15.468 12.134 -15.468 QT
11.587 -15.468 11.08 -15.218 QT
10.572 -14.968 10.259 -14.514 QT
9.947 -14.061 9.947 -13.514 QT
9.947 -11.749 L
cp
f
GR
GS
[0 -0.75 0.75 0 26.75 149.87487] CT
0.149 GC
N
23.341 -5.108 M
22.435 -5.108 21.692 -5.585 QT
20.95 -6.061 20.528 -6.843 QT
20.107 -7.624 20.107 -8.514 QT
20.107 -9.405 20.528 -10.218 QT
20.95 -11.03 21.692 -11.514 QT
22.435 -11.999 23.341 -11.999 QT
24.216 -11.999 24.942 -11.655 QT
25.669 -11.311 25.669 -10.53 QT
25.669 -10.233 25.458 -10.022 QT
25.247 -9.811 24.95 -9.811 QT
24.653 -9.811 24.442 -10.022 QT
24.232 -10.233 24.232 -10.53 QT
24.232 -10.796 24.396 -10.991 QT
24.56 -11.186 24.81 -11.233 QT
24.294 -11.561 23.357 -11.561 QT
22.638 -11.561 22.2 -11.085 QT
21.763 -10.608 21.583 -9.905 QT
21.403 -9.202 21.403 -8.514 QT
21.403 -7.796 21.622 -7.116 QT
21.841 -6.436 22.317 -5.991 QT
22.794 -5.546 23.528 -5.546 QT
24.232 -5.546 24.732 -5.983 QT
25.232 -6.421 25.419 -7.124 QT
25.419 -7.218 25.528 -7.218 QT
25.716 -7.218 L
25.763 -7.218 25.794 -7.178 QT
25.825 -7.139 25.825 -7.077 QT
25.825 -7.046 L
25.607 -6.155 24.935 -5.632 QT
24.263 -5.108 23.341 -5.108 QT
cp
f
GR
GS
[0 -0.75 0.75 0 26.75 149.87487] CT
0.149 GC
N
26.594 -5.28 M
26.594 -5.811 L
27.094 -5.811 27.43 -5.889 QT
27.766 -5.968 27.766 -6.28 QT
27.766 -10.374 L
27.766 -10.952 27.539 -11.085 QT
27.313 -11.218 26.656 -11.218 QT
26.656 -11.749 L
28.813 -11.905 L
28.813 -6.28 L
28.813 -5.968 29.102 -5.889 QT
29.391 -5.811 29.859 -5.811 QT
29.859 -5.28 L
26.594 -5.28 L
cp
27.219 -14.483 M
27.219 -14.811 27.469 -15.061 QT
27.719 -15.311 28.047 -15.311 QT
28.25 -15.311 28.453 -15.202 QT
28.656 -15.093 28.766 -14.897 QT
28.875 -14.702 28.875 -14.483 QT
28.875 -14.171 28.625 -13.921 QT
28.375 -13.671 28.047 -13.671 QT
27.719 -13.671 27.469 -13.921 QT
27.219 -14.171 27.219 -14.483 QT
cp
f
GR
GS
[0 -0.75 0.75 0 26.75 149.87487] CT
0.149 GC
N
33.934 -5.108 M
33.012 -5.108 32.254 -5.593 QT
31.496 -6.077 31.059 -6.874 QT
30.621 -7.671 30.621 -8.561 QT
30.621 -9.452 31.019 -10.241 QT
31.418 -11.03 32.129 -11.514 QT
32.84 -11.999 33.715 -11.999 QT
34.418 -11.999 34.926 -11.772 QT
35.434 -11.546 35.762 -11.132 QT
36.09 -10.718 36.254 -10.163 QT
36.418 -9.608 36.418 -8.936 QT
36.418 -8.749 36.277 -8.749 QT
31.934 -8.749 L
31.934 -8.577 L
31.934 -7.343 32.434 -6.444 QT
32.934 -5.546 34.074 -5.546 QT
34.527 -5.546 34.918 -5.757 QT
35.309 -5.968 35.598 -6.327 QT
35.887 -6.686 35.996 -7.108 QT
36.012 -7.155 36.051 -7.202 QT
36.09 -7.249 36.137 -7.249 QT
36.277 -7.249 L
36.418 -7.249 36.418 -7.046 QT
36.215 -6.202 35.512 -5.655 QT
34.809 -5.108 33.934 -5.108 QT
cp
31.949 -9.124 M
35.355 -9.124 L
35.355 -9.686 35.199 -10.264 QT
35.043 -10.843 34.676 -11.225 QT
34.309 -11.608 33.715 -11.608 QT
32.871 -11.608 32.41 -10.811 QT
31.949 -10.014 31.949 -9.124 QT
cp
f
GR
GS
[0 -0.75 0.75 0 26.75 149.87487] CT
0.149 GC
N
37.171 -5.28 M
37.171 -5.811 L
37.671 -5.811 38.007 -5.889 QT
38.343 -5.968 38.343 -6.28 QT
38.343 -10.374 L
38.343 -10.78 38.218 -10.96 QT
38.093 -11.139 37.866 -11.178 QT
37.64 -11.218 37.171 -11.218 QT
37.171 -11.749 L
39.343 -11.905 L
39.343 -10.436 L
39.64 -11.093 40.233 -11.499 QT
40.827 -11.905 41.515 -11.905 QT
42.561 -11.905 43.085 -11.405 QT
43.608 -10.905 43.608 -9.889 QT
43.608 -6.28 L
43.608 -5.968 43.936 -5.889 QT
44.265 -5.811 44.78 -5.811 QT
44.78 -5.28 L
41.343 -5.28 L
41.343 -5.811 L
41.858 -5.811 42.186 -5.889 QT
42.515 -5.968 42.515 -6.28 QT
42.515 -9.843 L
42.515 -10.577 42.304 -11.046 QT
42.093 -11.514 41.421 -11.514 QT
40.561 -11.514 39.999 -10.819 QT
39.436 -10.124 39.436 -9.249 QT
39.436 -6.28 L
39.436 -5.968 39.765 -5.889 QT
40.093 -5.811 40.593 -5.811 QT
40.593 -5.28 L
37.171 -5.28 L
cp
f
GR
GS
[0 -0.75 0.75 0 26.75 149.87487] CT
0.149 GC
N
45.99 -7.077 M
45.99 -11.218 L
44.74 -11.218 L
44.74 -11.608 L
45.724 -11.608 46.185 -12.522 QT
46.646 -13.436 46.646 -14.514 QT
47.083 -14.514 L
47.083 -11.749 L
49.193 -11.749 L
49.193 -11.218 L
47.083 -11.218 L
47.083 -7.108 L
47.083 -6.483 47.294 -6.014 QT
47.505 -5.546 48.037 -5.546 QT
48.552 -5.546 48.779 -6.046 QT
49.005 -6.546 49.005 -7.108 QT
49.005 -7.999 L
49.443 -7.999 L
49.443 -7.077 L
49.443 -6.608 49.271 -6.155 QT
49.099 -5.702 48.763 -5.405 QT
48.427 -5.108 47.943 -5.108 QT
47.037 -5.108 46.513 -5.647 QT
45.99 -6.186 45.99 -7.077 QT
cp
f
GR
GS
[0.75 0 0 0.75 0 0.25] CT
0 0.447 0.741 RC
1 LJ
0.667 LW
N
74 224.716 M
123.111 274.809 L
172.222 299.336 L
221.333 313.999 L
270.444 324.206 L
319.556 331.993 L
368.667 338.218 L
417.778 343.155 L
466.889 347.188 L
516 350.914 L
S
GR
GS
[0.75 0 0 0.75 55.5 168.78664] CT
0 0.447 0.741 RC
10.0 ML
0.667 LW
N
-2.828 -2.828 M
2.828 2.828 L
-2.828 2.828 M
2.828 -2.828 L
S
GR
GS
[0.75 0 0 0.75 92.33334 206.35651] CT
0 0.447 0.741 RC
10.0 ML
0.667 LW
N
-2.828 -2.828 M
2.828 2.828 L
-2.828 2.828 M
2.828 -2.828 L
S
GR
GS
[0.75 0 0 0.75 129.16667 224.75198] CT
0 0.447 0.741 RC
10.0 ML
0.667 LW
N
-2.828 -2.828 M
2.828 2.828 L
-2.828 2.828 M
2.828 -2.828 L
S
GR
GS
[0.75 0 0 0.75 166 235.74943] CT
0 0.447 0.741 RC
10.0 ML
0.667 LW
N
-2.828 -2.828 M
2.828 2.828 L
-2.828 2.828 M
2.828 -2.828 L
S
GR
GS
[0.75 0 0 0.75 202.83334 243.40477] CT
0 0.447 0.741 RC
10.0 ML
0.667 LW
N
-2.828 -2.828 M
2.828 2.828 L
-2.828 2.828 M
2.828 -2.828 L
S
GR
GS
[0.75 0 0 0.75 239.66666 249.24451] CT
0 0.447 0.741 RC
10.0 ML
0.667 LW
N
-2.828 -2.828 M
2.828 2.828 L
-2.828 2.828 M
2.828 -2.828 L
S
GR
GS
[0.75 0 0 0.75 276.49999 253.91326] CT
0 0.447 0.741 RC
10.0 ML
0.667 LW
N
-2.828 -2.828 M
2.828 2.828 L
-2.828 2.828 M
2.828 -2.828 L
S
GR
GS
[0.75 0 0 0.75 313.33333 257.61641] CT
0 0.447 0.741 RC
10.0 ML
0.667 LW
N
-2.828 -2.828 M
2.828 2.828 L
-2.828 2.828 M
2.828 -2.828 L
S
GR
GS
[0.75 0 0 0.75 350.16666 260.64117] CT
0 0.447 0.741 RC
10.0 ML
0.667 LW
N
-2.828 -2.828 M
2.828 2.828 L
-2.828 2.828 M
2.828 -2.828 L
S
GR
GS
[0.75 0 0 0.75 387 263.43548] CT
0 0.447 0.741 RC
10.0 ML
0.667 LW
N
-2.828 -2.828 M
2.828 2.828 L
-2.828 2.828 M
2.828 -2.828 L
S
GR
GS
[0.75 0 0 0.75 0 0.25] CT
0.851 0.325 0.098 RC
1 LJ
0.667 LW
N
74 112.804 M
123.111 161.031 L
172.222 192.621 L
221.333 215.957 L
270.444 232.861 L
319.556 246.493 L
368.667 257.982 L
417.778 267.305 L
466.889 274.922 L
516 282.055 L
S
GR
GS
[0.75 0 0 0.75 55.5 84.85298] CT
0.851 0.325 0.098 RC
10.0 ML
0.667 LW
N
-2.828 -2.828 M
2.828 2.828 L
-2.828 2.828 M
2.828 -2.828 L
S
GR
GS
[0.75 0 0 0.75 92.33334 121.02354] CT
0.851 0.325 0.098 RC
10.0 ML
0.667 LW
N
-2.828 -2.828 M
2.828 2.828 L
-2.828 2.828 M
2.828 -2.828 L
S
GR
GS
[0.75 0 0 0.75 129.16667 144.71584] CT
0.851 0.325 0.098 RC
10.0 ML
0.667 LW
N
-2.828 -2.828 M
2.828 2.828 L
-2.828 2.828 M
2.828 -2.828 L
S
GR
GS
[0.75 0 0 0.75 166 162.21769] CT
0.851 0.325 0.098 RC
10.0 ML
0.667 LW
N
-2.828 -2.828 M
2.828 2.828 L
-2.828 2.828 M
2.828 -2.828 L
S
GR
GS
[0.75 0 0 0.75 202.83334 174.89611] CT
0.851 0.325 0.098 RC
10.0 ML
0.667 LW
N
-2.828 -2.828 M
2.828 2.828 L
-2.828 2.828 M
2.828 -2.828 L
S
GR
GS
[0.75 0 0 0.75 239.66666 185.11986] CT
0.851 0.325 0.098 RC
10.0 ML
0.667 LW
N
-2.828 -2.828 M
2.828 2.828 L
-2.828 2.828 M
2.828 -2.828 L
S
GR
GS
[0.75 0 0 0.75 276.49999 193.73627] CT
0.851 0.325 0.098 RC
10.0 ML
0.667 LW
N
-2.828 -2.828 M
2.828 2.828 L
-2.828 2.828 M
2.828 -2.828 L
S
GR
GS
[0.75 0 0 0.75 313.33333 200.72904] CT
0.851 0.325 0.098 RC
10.0 ML
0.667 LW
N
-2.828 -2.828 M
2.828 2.828 L
-2.828 2.828 M
2.828 -2.828 L
S
GR
GS
[0.75 0 0 0.75 350.16666 206.44134] CT
0.851 0.325 0.098 RC
10.0 ML
0.667 LW
N
-2.828 -2.828 M
2.828 2.828 L
-2.828 2.828 M
2.828 -2.828 L
S
GR
GS
[0.75 0 0 0.75 387 211.79097] CT
0.851 0.325 0.098 RC
10.0 ML
0.667 LW
N
-2.828 -2.828 M
2.828 2.828 L
-2.828 2.828 M
2.828 -2.828 L
S
GR
GS
[0.75 0 0 0.75 0 0.25] CT
0.929 0.694 0.125 RC
1 LJ
0.667 LW
N
74 46.758 M
123.111 68.102 L
172.222 87.398 L
221.333 103.625 L
270.444 118.847 L
319.556 133.023 L
368.667 145.053 L
417.778 155.804 L
466.889 165.079 L
516 174.014 L
S
GR
GS
[0.75 0 0 0.75 55.5 35.31859] CT
0.929 0.694 0.125 RC
10.0 ML
0.667 LW
N
-2.828 -2.828 M
2.828 2.828 L
-2.828 2.828 M
2.828 -2.828 L
S
GR
GS
[0.75 0 0 0.75 92.33334 51.32633] CT
0.929 0.694 0.125 RC
10.0 ML
0.667 LW
N
-2.828 -2.828 M
2.828 2.828 L
-2.828 2.828 M
2.828 -2.828 L
S
GR
GS
[0.75 0 0 0.75 129.16667 65.79823] CT
0.929 0.694 0.125 RC
10.0 ML
0.667 LW
N
-2.828 -2.828 M
2.828 2.828 L
-2.828 2.828 M
2.828 -2.828 L
S
GR
GS
[0.75 0 0 0.75 166 77.969] CT
0.929 0.694 0.125 RC
10.0 ML
0.667 LW
N
-2.828 -2.828 M
2.828 2.828 L
-2.828 2.828 M
2.828 -2.828 L
S
GR
GS
[0.75 0 0 0.75 202.83334 89.3849] CT
0.929 0.694 0.125 RC
10.0 ML
0.667 LW
N
-2.828 -2.828 M
2.828 2.828 L
-2.828 2.828 M
2.828 -2.828 L
S
GR
GS
[0.75 0 0 0.75 239.66666 100.01721] CT
0.929 0.694 0.125 RC
10.0 ML
0.667 LW
N
-2.828 -2.828 M
2.828 2.828 L
-2.828 2.828 M
2.828 -2.828 L
S
GR
GS
[0.75 0 0 0.75 276.49999 109.03987] CT
0.929 0.694 0.125 RC
10.0 ML
0.667 LW
N
-2.828 -2.828 M
2.828 2.828 L
-2.828 2.828 M
2.828 -2.828 L
S
GR
GS
[0.75 0 0 0.75 313.33333 117.10309] CT
0.929 0.694 0.125 RC
10.0 ML
0.667 LW
N
-2.828 -2.828 M
2.828 2.828 L
-2.828 2.828 M
2.828 -2.828 L
S
GR
GS
[0.75 0 0 0.75 350.16666 124.05941] CT
0.929 0.694 0.125 RC
10.0 ML
0.667 LW
N
-2.828 -2.828 M
2.828 2.828 L
-2.828 2.828 M
2.828 -2.828 L
S
GR
GS
[0.75 0 0 0.75 387 130.76019] CT
0.929 0.694 0.125 RC
10.0 ML
0.667 LW
N
-2.828 -2.828 M
2.828 2.828 L
-2.828 2.828 M
2.828 -2.828 L
S
GR
GS
[0.75 0 0 0.75 0 0.25] CT
1 GC
N
427 93 M
427 44 L
503 44 L
503 93 L
cp
f
GR
GS
[0.75 0 0 0.75 348.13763 40.26452] CT
N
0.641 2.661 M
0.641 2.599 0.656 2.552 QT
2.391 -4.386 L
2.438 -4.589 2.453 -4.698 QT
2.453 -4.901 1.672 -4.901 QT
1.547 -4.901 1.547 -5.058 QT
1.547 -5.089 1.57 -5.159 QT
1.594 -5.229 1.625 -5.276 QT
1.656 -5.323 1.719 -5.323 QT
3.328 -5.448 L
3.375 -5.448 L
3.375 -5.433 3.414 -5.417 QT
3.453 -5.401 3.453 -5.386 QT
3.484 -5.323 3.484 -5.292 QT
2.219 -0.276 L
2.656 -0.464 3.313 -1.143 QT
3.969 -1.823 4.344 -2.12 QT
4.719 -2.417 5.281 -2.417 QT
5.609 -2.417 5.844 -2.19 QT
6.078 -1.964 6.078 -1.636 QT
6.078 -1.417 5.992 -1.237 QT
5.906 -1.058 5.75 -0.948 QT
5.594 -0.839 5.375 -0.839 QT
5.188 -0.839 5.055 -0.964 QT
4.922 -1.089 4.922 -1.276 QT
4.922 -1.558 5.125 -1.753 QT
5.328 -1.948 5.609 -1.948 QT
5.5 -2.12 5.25 -2.12 QT
4.906 -2.12 4.57 -1.909 QT
4.234 -1.698 3.852 -1.315 QT
3.469 -0.933 3.156 -0.612 QT
2.844 -0.292 2.563 -0.136 QT
3.281 -0.058 3.797 0.239 QT
4.313 0.536 4.313 1.13 QT
4.313 1.255 4.266 1.442 QT
4.172 1.896 4.172 2.161 QT
4.172 2.692 4.531 2.692 QT
4.969 2.692 5.195 2.224 QT
5.422 1.755 5.563 1.114 QT
5.594 1.052 5.672 1.052 QT
5.813 1.052 L
5.859 1.052 5.891 1.075 QT
5.922 1.099 5.922 1.146 QT
5.922 1.161 5.906 1.192 QT
5.453 3.021 4.516 3.021 QT
4.172 3.021 3.914 2.857 QT
3.656 2.692 3.516 2.419 QT
3.375 2.146 3.375 1.817 QT
3.375 1.614 3.422 1.411 QT
3.453 1.271 3.453 1.146 QT
3.453 0.692 3.047 0.45 QT
2.641 0.208 2.109 0.161 QT
1.5 2.599 L
1.453 2.786 1.32 2.903 QT
1.188 3.021 1.016 3.021 QT
0.859 3.021 0.75 2.911 QT
0.641 2.802 0.641 2.661 QT
cp
f
GR
GS
[0.75 0 0 0.75 348.13763 40.26452] CT
N
10.865 1.286 M
10.755 1.286 10.693 1.208 QT
10.63 1.13 10.63 1.052 QT
10.63 0.942 10.693 0.872 QT
10.755 0.802 10.865 0.802 QT
18.396 0.802 L
18.49 0.802 18.552 0.872 QT
18.615 0.942 18.615 1.052 QT
18.615 1.13 18.552 1.208 QT
18.49 1.286 18.396 1.286 QT
10.865 1.286 L
cp
10.865 -1.042 M
10.755 -1.042 10.693 -1.112 QT
10.63 -1.183 10.63 -1.292 QT
10.63 -1.37 10.693 -1.448 QT
10.755 -1.526 10.865 -1.526 QT
18.396 -1.526 L
18.49 -1.526 18.552 -1.448 QT
18.615 -1.37 18.615 -1.292 QT
18.615 -1.183 18.552 -1.112 QT
18.49 -1.042 18.396 -1.042 QT
10.865 -1.042 L
cp
f
GR
GS
[0.75 0 0 0.75 348.13763 40.26452] CT
N
23.734 2.88 M
23.734 2.458 L
25.234 2.458 25.234 2.083 QT
25.234 -4.229 L
24.625 -3.917 23.672 -3.917 QT
23.672 -4.339 L
25.141 -4.339 25.891 -5.12 QT
26.062 -5.12 L
26.094 -5.12 26.133 -5.081 QT
26.172 -5.042 26.172 -5.011 QT
26.172 2.083 L
26.172 2.458 27.672 2.458 QT
27.672 2.88 L
23.734 2.88 L
cp
f
GR
GS
[0.75 0 0 0.75 0 0.25] CT
0 0.447 0.741 RC
1 LJ
0.667 LW
N
431.02 53.353 M
461.169 53.353 L
S
GR
GS
[0.75 0 0 0.75 334.57068 40.26452] CT
0 0.447 0.741 RC
10.0 ML
0.667 LW
N
-2.828 -2.828 M
2.828 2.828 L
-2.828 2.828 M
2.828 -2.828 L
S
GR
GS
[0.75 0 0 0.75 348.13763 51.625] CT
N
/f490262150{0.641 2.661 M
0.641 2.599 0.656 2.552 QT
2.391 -4.386 L
2.438 -4.589 2.453 -4.698 QT
2.453 -4.901 1.672 -4.901 QT
1.547 -4.901 1.547 -5.058 QT
1.547 -5.089 1.57 -5.159 QT
1.594 -5.229 1.625 -5.276 QT
1.656 -5.323 1.719 -5.323 QT
3.328 -5.448 L
3.375 -5.448 L
3.375 -5.433 3.414 -5.417 QT
3.453 -5.401 3.453 -5.386 QT
3.484 -5.323 3.484 -5.292 QT
2.219 -0.276 L
2.656 -0.464 3.313 -1.143 QT
3.969 -1.823 4.344 -2.12 QT
4.719 -2.417 5.281 -2.417 QT
5.609 -2.417 5.844 -2.19 QT
6.078 -1.964 6.078 -1.636 QT
6.078 -1.417 5.992 -1.237 QT
5.906 -1.058 5.75 -0.948 QT
5.594 -0.839 5.375 -0.839 QT
5.188 -0.839 5.055 -0.964 QT
4.922 -1.089 4.922 -1.276 QT
4.922 -1.558 5.125 -1.753 QT
5.328 -1.948 5.609 -1.948 QT
5.5 -2.12 5.25 -2.12 QT
4.906 -2.12 4.57 -1.909 QT
4.234 -1.698 3.852 -1.315 QT
3.469 -0.933 3.156 -0.612 QT
2.844 -0.292 2.563 -0.136 QT
3.281 -0.058 3.797 0.239 QT
4.313 0.536 4.313 1.13 QT
4.313 1.255 4.266 1.442 QT
4.172 1.896 4.172 2.161 QT
4.172 2.692 4.531 2.692 QT
4.969 2.692 5.195 2.224 QT
5.422 1.755 5.563 1.114 QT
5.594 1.052 5.672 1.052 QT
5.813 1.052 L
5.859 1.052 5.891 1.075 QT
5.922 1.099 5.922 1.146 QT
5.922 1.161 5.906 1.192 QT
5.453 3.021 4.516 3.021 QT
4.172 3.021 3.914 2.857 QT
3.656 2.692 3.516 2.419 QT
3.375 2.146 3.375 1.817 QT
3.375 1.614 3.422 1.411 QT
3.453 1.271 3.453 1.146 QT
3.453 0.692 3.047 0.45 QT
2.641 0.208 2.109 0.161 QT
1.5 2.599 L
1.453 2.786 1.32 2.903 QT
1.188 3.021 1.016 3.021 QT
0.859 3.021 0.75 2.911 QT
0.641 2.802 0.641 2.661 QT
cp}def
f490262150
f
GR
GS
[0.75 0 0 0.75 348.13763 51.625] CT
N
/f-1139849563{10.865 1.286 M
10.755 1.286 10.693 1.208 QT
10.63 1.13 10.63 1.052 QT
10.63 0.942 10.693 0.872 QT
10.755 0.802 10.865 0.802 QT
18.396 0.802 L
18.49 0.802 18.552 0.872 QT
18.615 0.942 18.615 1.052 QT
18.615 1.13 18.552 1.208 QT
18.49 1.286 18.396 1.286 QT
10.865 1.286 L
cp
10.865 -1.042 M
10.755 -1.042 10.693 -1.112 QT
10.63 -1.183 10.63 -1.292 QT
10.63 -1.37 10.693 -1.448 QT
10.755 -1.526 10.865 -1.526 QT
18.396 -1.526 L
18.49 -1.526 18.552 -1.448 QT
18.615 -1.37 18.615 -1.292 QT
18.615 -1.183 18.552 -1.112 QT
18.49 -1.042 18.396 -1.042 QT
10.865 -1.042 L
cp}def
f-1139849563
f
GR
GS
[0.75 0 0 0.75 348.13763 51.625] CT
N
/f-1835762031{23.672 1.521 M
23.797 1.864 24.047 2.153 QT
24.297 2.442 24.648 2.599 QT
25 2.755 25.375 2.755 QT
26.234 2.755 26.562 2.083 QT
26.891 1.411 26.891 0.458 QT
26.891 0.036 26.883 -0.245 QT
26.875 -0.526 26.797 -0.792 QT
26.687 -1.214 26.414 -1.534 QT
26.141 -1.854 25.734 -1.854 QT
25.328 -1.854 25.039 -1.729 QT
24.75 -1.604 24.57 -1.44 QT
24.391 -1.276 24.25 -1.097 QT
24.109 -0.917 24.062 -0.901 QT
23.937 -0.901 L
23.906 -0.901 23.859 -0.94 QT
23.812 -0.979 23.812 -1.011 QT
23.812 -5.026 L
23.812 -5.042 23.851 -5.081 QT
23.891 -5.12 23.937 -5.12 QT
23.969 -5.12 L
24.781 -4.729 25.687 -4.729 QT
26.578 -4.729 27.406 -5.12 QT
27.437 -5.12 L
27.484 -5.12 27.516 -5.089 QT
27.547 -5.058 27.547 -5.026 QT
27.547 -4.901 L
27.547 -4.854 27.531 -4.854 QT
27.109 -4.308 26.492 -4.003 QT
25.875 -3.698 25.219 -3.698 QT
24.734 -3.698 24.234 -3.823 QT
24.234 -1.558 L
24.625 -1.886 24.937 -2.026 QT
25.25 -2.167 25.75 -2.167 QT
26.406 -2.167 26.93 -1.784 QT
27.453 -1.401 27.734 -0.784 QT
28.016 -0.167 28.016 0.458 QT
28.016 1.192 27.664 1.802 QT
27.312 2.411 26.703 2.778 QT
26.094 3.146 25.375 3.146 QT
24.781 3.146 24.289 2.841 QT
23.797 2.536 23.508 2.021 QT
23.219 1.505 23.219 0.927 QT
23.219 0.646 23.398 0.482 QT
23.578 0.317 23.844 0.317 QT
24.109 0.317 24.281 0.489 QT
24.453 0.661 24.453 0.927 QT
24.453 1.177 24.281 1.357 QT
24.109 1.536 23.844 1.536 QT
23.797 1.536 23.742 1.528 QT
23.687 1.521 23.672 1.521 QT
cp}def
f-1835762031
f
GR
GS
[0.75 0 0 0.75 0 0.25] CT
0.851 0.325 0.098 RC
1 LJ
0.667 LW
N
431.02 68.5 M
461.169 68.5 L
S
GR
GS
[0.75 0 0 0.75 334.57068 51.625] CT
0.851 0.325 0.098 RC
10.0 ML
0.667 LW
N
-2.828 -2.828 M
2.828 2.828 L
-2.828 2.828 M
2.828 -2.828 L
S
GR
GS
[0.75 0 0 0.75 348.13763 62.98548] CT
N
f490262150
f
GR
GS
[0.75 0 0 0.75 348.13763 62.98548] CT
N
f-1139849563
f
GR
GS
[0.75 0 0 0.75 348.13763 62.98548] CT
N
/f-1117441035{23.219 2.88 M
23.219 2.552 L
23.219 2.521 23.25 2.489 QT
25.109 0.427 L
25.531 -0.026 25.797 -0.339 QT
26.062 -0.651 26.32 -1.058 QT
26.578 -1.464 26.726 -1.878 QT
26.875 -2.292 26.875 -2.761 QT
26.875 -3.261 26.695 -3.706 QT
26.516 -4.151 26.156 -4.425 QT
25.797 -4.698 25.281 -4.698 QT
24.766 -4.698 24.344 -4.378 QT
23.922 -4.058 23.75 -3.573 QT
23.797 -3.573 23.891 -3.573 QT
24.156 -3.573 24.344 -3.393 QT
24.531 -3.214 24.531 -2.933 QT
24.531 -2.651 24.344 -2.464 QT
24.156 -2.276 23.891 -2.276 QT
23.609 -2.276 23.414 -2.472 QT
23.219 -2.667 23.219 -2.933 QT
23.219 -3.386 23.391 -3.776 QT
23.562 -4.167 23.883 -4.479 QT
24.203 -4.792 24.601 -4.956 QT
25 -5.12 25.453 -5.12 QT
26.141 -5.12 26.734 -4.823 QT
27.328 -4.526 27.672 -4.003 QT
28.016 -3.479 28.016 -2.761 QT
28.016 -2.245 27.789 -1.776 QT
27.562 -1.308 27.203 -0.925 QT
26.844 -0.542 26.289 -0.05 QT
25.734 0.442 25.562 0.599 QT
24.203 1.911 L
25.344 1.911 L
26.203 1.911 26.773 1.896 QT
27.344 1.88 27.375 1.849 QT
27.516 1.692 27.672 0.739 QT
28.016 0.739 L
27.672 2.88 L
23.219 2.88 L
cp}def
f-1117441035
f
GR
GS
[0.75 0 0 0.75 348.13763 62.98548] CT
N
/f-1204500604{31.625 3.146 M
30.156 3.146 29.625 1.935 QT
29.094 0.724 29.094 -0.948 QT
29.094 -1.995 29.281 -2.909 QT
29.469 -3.823 30.039 -4.472 QT
30.609 -5.12 31.625 -5.12 QT
32.422 -5.12 32.922 -4.729 QT
33.422 -4.339 33.687 -3.729 QT
33.953 -3.12 34.047 -2.417 QT
34.141 -1.714 34.141 -0.948 QT
34.141 0.083 33.953 0.982 QT
33.766 1.88 33.211 2.513 QT
32.656 3.146 31.625 3.146 QT
cp
31.625 2.833 M
32.297 2.833 32.625 2.146 QT
32.953 1.458 33.031 0.63 QT
33.109 -0.198 33.109 -1.136 QT
33.109 -2.042 33.031 -2.808 QT
32.953 -3.573 32.625 -4.19 QT
32.297 -4.808 31.625 -4.808 QT
30.953 -4.808 30.625 -4.183 QT
30.297 -3.558 30.219 -2.8 QT
30.141 -2.042 30.141 -1.136 QT
30.141 -0.479 30.172 0.114 QT
30.203 0.708 30.344 1.341 QT
30.484 1.974 30.797 2.403 QT
31.109 2.833 31.625 2.833 QT
cp}def
f-1204500604
f
GR
GS
[0.75 0 0 0.75 0 0.25] CT
0.929 0.694 0.125 RC
1 LJ
0.667 LW
N
431.02 83.647 M
461.169 83.647 L
S
GR
GS
[0.75 0 0 0.75 334.57068 62.98548] CT
0.929 0.694 0.125 RC
10.0 ML
0.667 LW
N
-2.828 -2.828 M
2.828 2.828 L
-2.828 2.828 M
2.828 -2.828 L
S
GR
GS
[0.75 0 0 0.75 0 0.25] CT
0.149 GC
10.0 ML
0.667 LW
N
427 93 M
427 44 L
503 44 L
503 93 L
cp
S
GR
%%Trailer
%%Pages: 1
%%EOF
