%!PS-Adobe-3.0 EPSF-3.0
%%Creator: (MATLAB, The Mathworks, Inc. Version 9.1.0.441655 \(R2016b\). Operating System: Linux)
%%Title: ./pool_32.eps
%%CreationDate: 2018-05-25T08:53:55
%%Pages: (atend)
%%BoundingBox:    54     7   354   293
%%LanguageLevel: 3
%%EndComments
%%BeginProlog
%%BeginResource: procset (Apache XML Graphics Std ProcSet) 1.2 0
%%Version: 1.2 0
%%Copyright: (Copyright 2001-2003,2010 The Apache Software Foundation. License terms: http://www.apache.org/licenses/LICENSE-2.0)
/bd{bind def}bind def
/ld{load def}bd
/GR/grestore ld
/M/moveto ld
/LJ/setlinejoin ld
/C/curveto ld
/f/fill ld
/LW/setlinewidth ld
/GC/setgray ld
/t/show ld
/N/newpath ld
/CT/concat ld
/cp/closepath ld
/S/stroke ld
/L/lineto ld
/CC/setcmykcolor ld
/A/ashow ld
/GS/gsave ld
/RC/setrgbcolor ld
/RM/rmoveto ld
/ML/setmiterlimit ld
/re {4 2 roll M
1 index 0 rlineto
0 exch rlineto
neg 0 rlineto
cp } bd
/_ctm matrix def
/_tm matrix def
/BT { _ctm currentmatrix pop matrix _tm copy pop 0 0 moveto } bd
/ET { _ctm setmatrix } bd
/iTm { _ctm setmatrix _tm concat } bd
/Tm { _tm astore pop iTm 0 0 moveto } bd
/ux 0.0 def
/uy 0.0 def
/F {
  /Tp exch def
  /Tf exch def
  Tf findfont Tp scalefont setfont
  /cf Tf def  /cs Tp def
} bd
/ULS {currentpoint /uy exch def /ux exch def} bd
/ULE {
  /Tcx currentpoint pop def
  gsave
  newpath
  cf findfont cs scalefont dup
  /FontMatrix get 0 get /Ts exch def /FontInfo get dup
  /UnderlinePosition get Ts mul /To exch def
  /UnderlineThickness get Ts mul /Tt exch def
  ux uy To add moveto  Tcx uy To add lineto
  Tt setlinewidth stroke
  grestore
} bd
/OLE {
  /Tcx currentpoint pop def
  gsave
  newpath
  cf findfont cs scalefont dup
  /FontMatrix get 0 get /Ts exch def /FontInfo get dup
  /UnderlinePosition get Ts mul /To exch def
  /UnderlineThickness get Ts mul /Tt exch def
  ux uy To add cs add moveto Tcx uy To add cs add lineto
  Tt setlinewidth stroke
  grestore
} bd
/SOE {
  /Tcx currentpoint pop def
  gsave
  newpath
  cf findfont cs scalefont dup
  /FontMatrix get 0 get /Ts exch def /FontInfo get dup
  /UnderlinePosition get Ts mul /To exch def
  /UnderlineThickness get Ts mul /Tt exch def
  ux uy To add cs 10 mul 26 idiv add moveto Tcx uy To add cs 10 mul 26 idiv add lineto
  Tt setlinewidth stroke
  grestore
} bd
/QT {
/Y22 exch store
/X22 exch store
/Y21 exch store
/X21 exch store
currentpoint
/Y21 load 2 mul add 3 div exch
/X21 load 2 mul add 3 div exch
/X21 load 2 mul /X22 load add 3 div
/Y21 load 2 mul /Y22 load add 3 div
/X22 load /Y22 load curveto
} bd
/SSPD {
dup length /d exch dict def
{
/v exch def
/k exch def
currentpagedevice k known {
/cpdv currentpagedevice k get def
v cpdv ne {
/upd false def
/nullv v type /nulltype eq def
/nullcpdv cpdv type /nulltype eq def
nullv nullcpdv or
{
/upd true def
} {
/sametype v type cpdv type eq def
sametype {
v type /arraytype eq {
/vlen v length def
/cpdvlen cpdv length def
vlen cpdvlen eq {
0 1 vlen 1 sub {
/i exch def
/obj v i get def
/cpdobj cpdv i get def
obj cpdobj ne {
/upd true def
exit
} if
} for
} {
/upd true def
} ifelse
} {
v type /dicttype eq {
v {
/dv exch def
/dk exch def
/cpddv cpdv dk get def
dv cpddv ne {
/upd true def
exit
} if
} forall
} {
/upd true def
} ifelse
} ifelse
} if
} ifelse
upd true eq {
d k v put
} if
} if
} if
} forall
d length 0 gt {
d setpagedevice
} if
} bd
/RE { % /NewFontName [NewEncodingArray] /FontName RE -
  findfont dup length dict begin
  {
    1 index /FID ne
    {def} {pop pop} ifelse
  } forall
  /Encoding exch def
  /FontName 1 index def
  currentdict definefont pop
  end
} bind def
%%EndResource
%%BeginResource: procset (Apache XML Graphics EPS ProcSet) 1.0 0
%%Version: 1.0 0
%%Copyright: (Copyright 2002-2003 The Apache Software Foundation. License terms: http://www.apache.org/licenses/LICENSE-2.0)
/BeginEPSF { %def
/b4_Inc_state save def         % Save state for cleanup
/dict_count countdictstack def % Count objects on dict stack
/op_count count 1 sub def      % Count objects on operand stack
userdict begin                 % Push userdict on dict stack
/showpage { } def              % Redefine showpage, { } = null proc
0 setgray 0 setlinecap         % Prepare graphics state
1 setlinewidth 0 setlinejoin
10 setmiterlimit [ ] 0 setdash newpath
/languagelevel where           % If level not equal to 1 then
{pop languagelevel             % set strokeadjust and
1 ne                           % overprint to their defaults.
{false setstrokeadjust false setoverprint
} if
} if
} bd
/EndEPSF { %def
count op_count sub {pop} repeat            % Clean up stacks
countdictstack dict_count sub {end} repeat
b4_Inc_state restore
} bd
%%EndResource
%FOPBeginFontDict
%%IncludeResource: font Courier-Bold
%%IncludeResource: font Helvetica
%%IncludeResource: font Courier-BoldOblique
%%IncludeResource: font Courier-Oblique
%%IncludeResource: font Times-Roman
%%IncludeResource: font Helvetica-BoldOblique
%%IncludeResource: font Helvetica-Bold
%%IncludeResource: font Helvetica-Oblique
%%IncludeResource: font Times-BoldItalic
%%IncludeResource: font Courier
%%IncludeResource: font Times-Italic
%%IncludeResource: font Times-Bold
%%IncludeResource: font Symbol
%%IncludeResource: font ZapfDingbats
%FOPEndFontDict
%%BeginResource: encoding WinAnsiEncoding
/WinAnsiEncoding [
/.notdef /.notdef /.notdef /.notdef /.notdef
/.notdef /.notdef /.notdef /.notdef /.notdef
/.notdef /.notdef /.notdef /.notdef /.notdef
/.notdef /.notdef /.notdef /.notdef /.notdef
/.notdef /.notdef /.notdef /.notdef /.notdef
/.notdef /.notdef /.notdef /.notdef /.notdef
/.notdef /.notdef /space /exclam /quotedbl
/numbersign /dollar /percent /ampersand /quotesingle
/parenleft /parenright /asterisk /plus /comma
/hyphen /period /slash /zero /one
/two /three /four /five /six
/seven /eight /nine /colon /semicolon
/less /equal /greater /question /at
/A /B /C /D /E
/F /G /H /I /J
/K /L /M /N /O
/P /Q /R /S /T
/U /V /W /X /Y
/Z /bracketleft /backslash /bracketright /asciicircum
/underscore /quoteleft /a /b /c
/d /e /f /g /h
/i /j /k /l /m
/n /o /p /q /r
/s /t /u /v /w
/x /y /z /braceleft /bar
/braceright /asciitilde /bullet /Euro /bullet
/quotesinglbase /florin /quotedblbase /ellipsis /dagger
/daggerdbl /circumflex /perthousand /Scaron /guilsinglleft
/OE /bullet /Zcaron /bullet /bullet
/quoteleft /quoteright /quotedblleft /quotedblright /bullet
/endash /emdash /asciitilde /trademark /scaron
/guilsinglright /oe /bullet /zcaron /Ydieresis
/space /exclamdown /cent /sterling /currency
/yen /brokenbar /section /dieresis /copyright
/ordfeminine /guillemotleft /logicalnot /sfthyphen /registered
/macron /degree /plusminus /twosuperior /threesuperior
/acute /mu /paragraph /middot /cedilla
/onesuperior /ordmasculine /guillemotright /onequarter /onehalf
/threequarters /questiondown /Agrave /Aacute /Acircumflex
/Atilde /Adieresis /Aring /AE /Ccedilla
/Egrave /Eacute /Ecircumflex /Edieresis /Igrave
/Iacute /Icircumflex /Idieresis /Eth /Ntilde
/Ograve /Oacute /Ocircumflex /Otilde /Odieresis
/multiply /Oslash /Ugrave /Uacute /Ucircumflex
/Udieresis /Yacute /Thorn /germandbls /agrave
/aacute /acircumflex /atilde /adieresis /aring
/ae /ccedilla /egrave /eacute /ecircumflex
/edieresis /igrave /iacute /icircumflex /idieresis
/eth /ntilde /ograve /oacute /ocircumflex
/otilde /odieresis /divide /oslash /ugrave
/uacute /ucircumflex /udieresis /yacute /thorn
/ydieresis
] def
%%EndResource
%FOPBeginFontReencode
/Courier-Bold findfont
dup length dict begin
  {1 index /FID ne {def} {pop pop} ifelse} forall
  /Encoding WinAnsiEncoding def
  currentdict
end
/Courier-Bold exch definefont pop
/Helvetica findfont
dup length dict begin
  {1 index /FID ne {def} {pop pop} ifelse} forall
  /Encoding WinAnsiEncoding def
  currentdict
end
/Helvetica exch definefont pop
/Courier-BoldOblique findfont
dup length dict begin
  {1 index /FID ne {def} {pop pop} ifelse} forall
  /Encoding WinAnsiEncoding def
  currentdict
end
/Courier-BoldOblique exch definefont pop
/Courier-Oblique findfont
dup length dict begin
  {1 index /FID ne {def} {pop pop} ifelse} forall
  /Encoding WinAnsiEncoding def
  currentdict
end
/Courier-Oblique exch definefont pop
/Times-Roman findfont
dup length dict begin
  {1 index /FID ne {def} {pop pop} ifelse} forall
  /Encoding WinAnsiEncoding def
  currentdict
end
/Times-Roman exch definefont pop
/Helvetica-BoldOblique findfont
dup length dict begin
  {1 index /FID ne {def} {pop pop} ifelse} forall
  /Encoding WinAnsiEncoding def
  currentdict
end
/Helvetica-BoldOblique exch definefont pop
/Helvetica-Bold findfont
dup length dict begin
  {1 index /FID ne {def} {pop pop} ifelse} forall
  /Encoding WinAnsiEncoding def
  currentdict
end
/Helvetica-Bold exch definefont pop
/Helvetica-Oblique findfont
dup length dict begin
  {1 index /FID ne {def} {pop pop} ifelse} forall
  /Encoding WinAnsiEncoding def
  currentdict
end
/Helvetica-Oblique exch definefont pop
/Times-BoldItalic findfont
dup length dict begin
  {1 index /FID ne {def} {pop pop} ifelse} forall
  /Encoding WinAnsiEncoding def
  currentdict
end
/Times-BoldItalic exch definefont pop
/Courier findfont
dup length dict begin
  {1 index /FID ne {def} {pop pop} ifelse} forall
  /Encoding WinAnsiEncoding def
  currentdict
end
/Courier exch definefont pop
/Times-Italic findfont
dup length dict begin
  {1 index /FID ne {def} {pop pop} ifelse} forall
  /Encoding WinAnsiEncoding def
  currentdict
end
/Times-Italic exch definefont pop
/Times-Bold findfont
dup length dict begin
  {1 index /FID ne {def} {pop pop} ifelse} forall
  /Encoding WinAnsiEncoding def
  currentdict
end
/Times-Bold exch definefont pop
%FOPEndFontReencode
%%EndProlog
%%Page: 1 1
%%PageBoundingBox: 0 0 420 315
%%BeginPageSetup
[1 0 0 -1 0 315] CT
%%EndPageSetup
GS
[0.75 0 0 0.75 0 0] CT
1 GC
N
0 0 560 420 re
f
GR
GS
[0.75 0 0 0.75 0 0] CT
1 GC
N
0 0 560 420 re
f
GR
GS
[0.75 0 0 0.75 0 0] CT
1 GC
N
465 31 M
115 31 L
115 374 L
465 374 L
cp
f
GR
GS
[5.25 0 0 5.14506 88.875 23.24846] CT
[1 0 0 1 0 0] CT
N
0 50 M
0 0 L
32 0 L
32 50 L
cp
clip
GS
0 0 translate
32 50 scale
%AXGBeginBitmap: java.awt.image.BufferedImage
{{
/RawData currentfile /ASCII85Decode filter def
/Data RawData /FlateDecode filter def
/DeviceRGB setcolorspace
<<
  /Decode [0 1 0 1 0 1]
  /BitsPerComponent 8
  /Width 32
  /ImageType 1
  /DataSource Data
  /ImageMatrix [32 0 0 50 0 0]
  /Height 50
>> image
} stopped {handleerror} if
  RawData flushfile
} exec
Gb"[$Mtb7g7clep,'-Jdg1Y7#-mA`o,DGFQ6;R3.S:`!I;[!VT=H.8V4<e57;\ZG9a$^"N+JWU(UX;Ir
2`0#W2DPip&d]?mE7\"U=ZVp7/;%gS@A4oH>i9Yla@W!kg8C\laWO(RRA2gE~>

%AXGEndBitmap
GR
GR
GS
[0.75 0 0 0.75 0 0] CT
0.149 GC
2 setlinecap
1 LJ
0.667 LW
N
115 374 M
465 374 L
S
GR
GS
[0.75 0 0 0.75 0 0] CT
0.149 GC
2 setlinecap
1 LJ
0.667 LW
N
115 31 M
465 31 L
S
GR
GS
[0.75 0 0 0.75 0 0] CT
0.149 GC
2 setlinecap
1 LJ
0.667 LW
N
115 374 M
115 370.5 L
S
GR
GS
[0.75 0 0 0.75 0 0] CT
0.149 GC
2 setlinecap
1 LJ
0.667 LW
N
185 374 M
185 370.5 L
S
GR
GS
[0.75 0 0 0.75 0 0] CT
0.149 GC
2 setlinecap
1 LJ
0.667 LW
N
255 374 M
255 370.5 L
S
GR
GS
[0.75 0 0 0.75 0 0] CT
0.149 GC
2 setlinecap
1 LJ
0.667 LW
N
325 374 M
325 370.5 L
S
GR
GS
[0.75 0 0 0.75 0 0] CT
0.149 GC
2 setlinecap
1 LJ
0.667 LW
N
395 374 M
395 370.5 L
S
GR
GS
[0.75 0 0 0.75 0 0] CT
0.149 GC
2 setlinecap
1 LJ
0.667 LW
N
465 374 M
465 370.5 L
S
GR
GS
[0.75 0 0 0.75 0 0] CT
0.149 GC
2 setlinecap
1 LJ
0.667 LW
N
115 31 M
115 34.5 L
S
GR
GS
[0.75 0 0 0.75 0 0] CT
0.149 GC
2 setlinecap
1 LJ
0.667 LW
N
185 31 M
185 34.5 L
S
GR
GS
[0.75 0 0 0.75 0 0] CT
0.149 GC
2 setlinecap
1 LJ
0.667 LW
N
255 31 M
255 34.5 L
S
GR
GS
[0.75 0 0 0.75 0 0] CT
0.149 GC
2 setlinecap
1 LJ
0.667 LW
N
325 31 M
325 34.5 L
S
GR
GS
[0.75 0 0 0.75 0 0] CT
0.149 GC
2 setlinecap
1 LJ
0.667 LW
N
395 31 M
395 34.5 L
S
GR
GS
[0.75 0 0 0.75 0 0] CT
0.149 GC
2 setlinecap
1 LJ
0.667 LW
N
465 31 M
465 34.5 L
S
GR
GS
[0.75 0 0 0.75 86.25 284.50001] CT
0.149 GC
/Helvetica 13.333 F
GS
[1 0 0 1 0 0] CT
-4.5 13 moveto 
1 -1 scale
(0) t 
GR
GR
GS
[0.75 0 0 0.75 138.75 284.50001] CT
0.149 GC
/Helvetica 13.333 F
GS
[1 0 0 1 0 0] CT
-8.5 13 moveto 
1 -1 scale
(10) t 
GR
GR
GS
[0.75 0 0 0.75 191.25 284.50001] CT
0.149 GC
/Helvetica 13.333 F
GS
[1 0 0 1 0 0] CT
-8.5 13 moveto 
1 -1 scale
(20) t 
GR
GR
GS
[0.75 0 0 0.75 243.75 284.50001] CT
0.149 GC
/Helvetica 13.333 F
GS
[1 0 0 1 0 0] CT
-8.5 13 moveto 
1 -1 scale
(30) t 
GR
GR
GS
[0.75 0 0 0.75 296.25 284.50001] CT
0.149 GC
/Helvetica 13.333 F
GS
[1 0 0 1 0 0] CT
-8.5 13 moveto 
1 -1 scale
(40) t 
GR
GR
GS
[0.75 0 0 0.75 348.75 284.50001] CT
0.149 GC
/Helvetica 13.333 F
GS
[1 0 0 1 0 0] CT
-8.5 13 moveto 
1 -1 scale
(50) t 
GR
GR
GS
[0.75 0 0 0.75 217.50011 298.24999] CT
0.149 GC
N
-19.265 12.32 M
-19.265 11.789 L
-18.515 11.789 -17.804 11.703 QT
-17.093 11.617 -17.093 11.32 QT
-17.093 3.07 L
-17.093 2.757 -17.273 2.679 QT
-17.453 2.601 -17.843 2.601 QT
-18.484 2.601 L
-19.718 2.601 -20.234 3.148 QT
-20.499 3.414 -20.617 4.007 QT
-20.734 4.601 -20.828 5.507 QT
-21.249 5.507 L
-20.968 2.07 L
-11.812 2.07 L
-11.515 5.507 L
-11.953 5.507 L
-12.046 4.539 -12.156 3.976 QT
-12.265 3.414 -12.531 3.148 QT
-13.062 2.601 -14.296 2.601 QT
-14.921 2.601 L
-15.203 2.601 -15.351 2.625 QT
-15.499 2.648 -15.593 2.75 QT
-15.687 2.851 -15.687 3.07 QT
-15.687 11.32 L
-15.687 11.617 -14.976 11.703 QT
-14.265 11.789 -13.515 11.789 QT
-13.515 12.32 L
-19.265 12.32 L
cp
f
GR
GS
[0.75 0 0 0.75 217.50011 298.24999] CT
0.149 GC
N
-10.735 12.32 M
-10.735 11.789 L
-10.235 11.789 -9.899 11.711 QT
-9.563 11.632 -9.563 11.32 QT
-9.563 7.226 L
-9.563 6.648 -9.79 6.515 QT
-10.016 6.382 -10.672 6.382 QT
-10.672 5.851 L
-8.516 5.695 L
-8.516 11.32 L
-8.516 11.632 -8.227 11.711 QT
-7.938 11.789 -7.469 11.789 QT
-7.469 12.32 L
-10.735 12.32 L
cp
-10.11 3.117 M
-10.11 2.789 -9.86 2.539 QT
-9.61 2.289 -9.282 2.289 QT
-9.079 2.289 -8.876 2.398 QT
-8.672 2.507 -8.563 2.703 QT
-8.454 2.898 -8.454 3.117 QT
-8.454 3.429 -8.704 3.679 QT
-8.954 3.929 -9.282 3.929 QT
-9.61 3.929 -9.86 3.679 QT
-10.11 3.429 -10.11 3.117 QT
cp
f
GR
GS
[0.75 0 0 0.75 217.50011 298.24999] CT
0.149 GC
N
-6.677 12.32 M
-6.677 11.789 L
-6.177 11.789 -5.841 11.711 QT
-5.505 11.632 -5.505 11.32 QT
-5.505 7.226 L
-5.505 6.82 -5.63 6.64 QT
-5.755 6.461 -5.981 6.422 QT
-6.208 6.382 -6.677 6.382 QT
-6.677 5.851 L
-4.505 5.695 L
-4.505 7.164 L
-4.208 6.507 -3.614 6.101 QT
-3.02 5.695 -2.333 5.695 QT
-0.598 5.695 -0.302 7.101 QT
-0.005 6.461 0.573 6.078 QT
1.152 5.695 1.839 5.695 QT
2.527 5.695 2.988 5.914 QT
3.448 6.132 3.683 6.586 QT
3.917 7.039 3.917 7.711 QT
3.917 11.32 L
3.917 11.632 4.253 11.711 QT
4.589 11.789 5.089 11.789 QT
5.089 12.32 L
1.667 12.32 L
1.667 11.789 L
2.167 11.789 2.503 11.711 QT
2.839 11.632 2.839 11.32 QT
2.839 7.757 L
2.839 7.007 2.62 6.547 QT
2.402 6.086 1.745 6.086 QT
0.886 6.086 0.323 6.781 QT
-0.239 7.476 -0.239 8.351 QT
-0.239 11.32 L
-0.239 11.632 0.089 11.711 QT
0.417 11.789 0.933 11.789 QT
0.933 12.32 L
-2.505 12.32 L
-2.505 11.789 L
-1.989 11.789 -1.661 11.711 QT
-1.333 11.632 -1.333 11.32 QT
-1.333 7.757 L
-1.333 7.023 -1.544 6.554 QT
-1.755 6.086 -2.427 6.086 QT
-3.286 6.086 -3.848 6.781 QT
-4.411 7.476 -4.411 8.351 QT
-4.411 11.32 L
-4.411 11.632 -4.083 11.711 QT
-3.755 11.789 -3.255 11.789 QT
-3.255 12.32 L
-6.677 12.32 L
cp
f
GR
GS
[0.75 0 0 0.75 217.50011 298.24999] CT
0.149 GC
N
8.827 12.492 M
7.905 12.492 7.147 12.007 QT
6.39 11.523 5.952 10.726 QT
5.515 9.929 5.515 9.039 QT
5.515 8.148 5.913 7.359 QT
6.311 6.57 7.022 6.086 QT
7.733 5.601 8.608 5.601 QT
9.311 5.601 9.819 5.828 QT
10.327 6.054 10.655 6.468 QT
10.983 6.882 11.147 7.437 QT
11.311 7.992 11.311 8.664 QT
11.311 8.851 11.171 8.851 QT
6.827 8.851 L
6.827 9.023 L
6.827 10.257 7.327 11.156 QT
7.827 12.054 8.968 12.054 QT
9.421 12.054 9.811 11.843 QT
10.202 11.632 10.491 11.273 QT
10.78 10.914 10.889 10.492 QT
10.905 10.445 10.944 10.398 QT
10.983 10.351 11.03 10.351 QT
11.171 10.351 L
11.311 10.351 11.311 10.554 QT
11.108 11.398 10.405 11.945 QT
9.702 12.492 8.827 12.492 QT
cp
6.843 8.476 M
10.249 8.476 L
10.249 7.914 10.093 7.336 QT
9.936 6.757 9.569 6.375 QT
9.202 5.992 8.608 5.992 QT
7.765 5.992 7.304 6.789 QT
6.843 7.586 6.843 8.476 QT
cp
f
GR
GS
[0.75 0 0 0.75 217.50011 298.24999] CT
0.149 GC
N
17.438 11.101 M
17.438 10.882 17.469 10.679 QT
18.563 6.382 L
16.984 6.382 L
16.828 6.382 16.828 6.179 QT
16.891 5.851 17.031 5.851 QT
18.688 5.851 L
19.297 3.414 L
19.344 3.211 19.523 3.07 QT
19.703 2.929 19.922 2.929 QT
20.109 2.929 20.242 3.047 QT
20.375 3.164 20.375 3.351 QT
20.375 3.398 20.367 3.422 QT
20.359 3.445 20.359 3.476 QT
19.75 5.851 L
21.297 5.851 L
21.453 5.851 21.453 6.054 QT
21.438 6.086 21.422 6.172 QT
21.406 6.257 21.367 6.32 QT
21.328 6.382 21.25 6.382 QT
19.625 6.382 L
18.547 10.711 L
18.438 11.148 18.438 11.445 QT
18.438 12.086 18.875 12.086 QT
19.531 12.086 20.039 11.468 QT
20.547 10.851 20.828 10.117 QT
20.875 10.023 20.938 10.023 QT
21.125 10.023 L
21.188 10.023 21.219 10.062 QT
21.25 10.101 21.25 10.164 QT
21.25 10.195 21.234 10.211 QT
20.906 11.117 20.281 11.804 QT
19.656 12.492 18.844 12.492 QT
18.25 12.492 17.844 12.101 QT
17.438 11.711 17.438 11.101 QT
cp
f
GR
GS
[0.75 0 0 0.75 0 0] CT
0.149 GC
2 setlinecap
1 LJ
0.667 LW
N
115 31 M
115 374 L
S
GR
GS
[0.75 0 0 0.75 0 0] CT
0.149 GC
2 setlinecap
1 LJ
0.667 LW
N
465 31 M
465 374 L
S
GR
GS
[0.75 0 0 0.75 0 0] CT
0.149 GC
2 setlinecap
1 LJ
0.667 LW
N
115 59 M
118.5 59 L
S
GR
GS
[0.75 0 0 0.75 0 0] CT
0.149 GC
2 setlinecap
1 LJ
0.667 LW
N
115 94 M
118.5 94 L
S
GR
GS
[0.75 0 0 0.75 0 0] CT
0.149 GC
2 setlinecap
1 LJ
0.667 LW
N
115 129 M
118.5 129 L
S
GR
GS
[0.75 0 0 0.75 0 0] CT
0.149 GC
2 setlinecap
1 LJ
0.667 LW
N
115 164 M
118.5 164 L
S
GR
GS
[0.75 0 0 0.75 0 0] CT
0.149 GC
2 setlinecap
1 LJ
0.667 LW
N
115 199 M
118.5 199 L
S
GR
GS
[0.75 0 0 0.75 0 0] CT
0.149 GC
2 setlinecap
1 LJ
0.667 LW
N
115 234 M
118.5 234 L
S
GR
GS
[0.75 0 0 0.75 0 0] CT
0.149 GC
2 setlinecap
1 LJ
0.667 LW
N
115 269 M
118.5 269 L
S
GR
GS
[0.75 0 0 0.75 0 0] CT
0.149 GC
2 setlinecap
1 LJ
0.667 LW
N
115 304 M
118.5 304 L
S
GR
GS
[0.75 0 0 0.75 0 0] CT
0.149 GC
2 setlinecap
1 LJ
0.667 LW
N
115 339 M
118.5 339 L
S
GR
GS
[0.75 0 0 0.75 0 0] CT
0.149 GC
2 setlinecap
1 LJ
0.667 LW
N
115 374 M
118.5 374 L
S
GR
GS
[0.75 0 0 0.75 0 0] CT
0.149 GC
2 setlinecap
1 LJ
0.667 LW
N
465 59 M
461.5 59 L
S
GR
GS
[0.75 0 0 0.75 0 0] CT
0.149 GC
2 setlinecap
1 LJ
0.667 LW
N
465 94 M
461.5 94 L
S
GR
GS
[0.75 0 0 0.75 0 0] CT
0.149 GC
2 setlinecap
1 LJ
0.667 LW
N
465 129 M
461.5 129 L
S
GR
GS
[0.75 0 0 0.75 0 0] CT
0.149 GC
2 setlinecap
1 LJ
0.667 LW
N
465 164 M
461.5 164 L
S
GR
GS
[0.75 0 0 0.75 0 0] CT
0.149 GC
2 setlinecap
1 LJ
0.667 LW
N
465 199 M
461.5 199 L
S
GR
GS
[0.75 0 0 0.75 0 0] CT
0.149 GC
2 setlinecap
1 LJ
0.667 LW
N
465 234 M
461.5 234 L
S
GR
GS
[0.75 0 0 0.75 0 0] CT
0.149 GC
2 setlinecap
1 LJ
0.667 LW
N
465 269 M
461.5 269 L
S
GR
GS
[0.75 0 0 0.75 0 0] CT
0.149 GC
2 setlinecap
1 LJ
0.667 LW
N
465 304 M
461.5 304 L
S
GR
GS
[0.75 0 0 0.75 0 0] CT
0.149 GC
2 setlinecap
1 LJ
0.667 LW
N
465 339 M
461.5 339 L
S
GR
GS
[0.75 0 0 0.75 0 0] CT
0.149 GC
2 setlinecap
1 LJ
0.667 LW
N
465 374 M
461.5 374 L
S
GR
GS
[0.75 0 0 0.75 82.25 44.25] CT
0.149 GC
/Helvetica 13.333 F
GS
[1 0 0 1 0 0] CT
-9 4.5 moveto 
1 -1 scale
(5) t 
GR
GR
GS
[0.75 0 0 0.75 82.25 70.5] CT
0.149 GC
/Helvetica 13.333 F
GS
[1 0 0 1 0 0] CT
-17 4.5 moveto 
1 -1 scale
(10) t 
GR
GR
GS
[0.75 0 0 0.75 82.25 96.75] CT
0.149 GC
/Helvetica 13.333 F
GS
[1 0 0 1 0 0] CT
-17 4.5 moveto 
1 -1 scale
(15) t 
GR
GR
GS
[0.75 0 0 0.75 82.25 123] CT
0.149 GC
/Helvetica 13.333 F
GS
[1 0 0 1 0 0] CT
-17 4.5 moveto 
1 -1 scale
(20) t 
GR
GR
GS
[0.75 0 0 0.75 82.25 149.25] CT
0.149 GC
/Helvetica 13.333 F
GS
[1 0 0 1 0 0] CT
-17 4.5 moveto 
1 -1 scale
(25) t 
GR
GR
GS
[0.75 0 0 0.75 82.25 175.5] CT
0.149 GC
/Helvetica 13.333 F
GS
[1 0 0 1 0 0] CT
-17 4.5 moveto 
1 -1 scale
(30) t 
GR
GR
GS
[0.75 0 0 0.75 82.25 201.75] CT
0.149 GC
/Helvetica 13.333 F
GS
[1 0 0 1 0 0] CT
-17 4.5 moveto 
1 -1 scale
(35) t 
GR
GR
GS
[0.75 0 0 0.75 82.25 228] CT
0.149 GC
/Helvetica 13.333 F
GS
[1 0 0 1 0 0] CT
-17 4.5 moveto 
1 -1 scale
(40) t 
GR
GR
GS
[0.75 0 0 0.75 82.25 254.25] CT
0.149 GC
/Helvetica 13.333 F
GS
[1 0 0 1 0 0] CT
-17 4.5 moveto 
1 -1 scale
(45) t 
GR
GR
GS
[0.75 0 0 0.75 82.25 280.5] CT
0.149 GC
/Helvetica 13.333 F
GS
[1 0 0 1 0 0] CT
-17 4.5 moveto 
1 -1 scale
(50) t 
GR
GR
GS
[0 -0.75 0.75 0 66.5 151.87487] CT
0.149 GC
N
-23.635 -5.28 M
-23.635 -5.811 L
-22.291 -5.811 -21.994 -6.686 QT
-18.838 -15.858 L
-18.791 -16.014 -18.603 -16.014 QT
-18.4 -16.014 L
-18.213 -16.014 -18.166 -15.858 QT
-14.869 -6.28 L
-14.744 -5.968 -14.346 -5.889 QT
-13.947 -5.811 -13.369 -5.811 QT
-13.369 -5.28 L
-17.557 -5.28 L
-17.557 -5.811 L
-16.307 -5.811 -16.307 -6.218 QT
-16.307 -6.28 L
-17.119 -8.624 L
-20.76 -8.624 L
-21.432 -6.686 L
-21.447 -6.639 -21.447 -6.546 QT
-21.447 -6.171 -21.088 -5.991 QT
-20.728 -5.811 -20.322 -5.811 QT
-20.322 -5.28 L
-23.635 -5.28 L
cp
-20.588 -9.155 M
-17.291 -9.155 L
-18.947 -13.936 L
-20.588 -9.155 L
cp
f
GR
GS
[0 -0.75 0.75 0 66.5 151.87487] CT
0.149 GC
N
-12.697 -4.108 M
-12.697 -4.639 -12.314 -5.038 QT
-11.932 -5.436 -11.385 -5.608 QT
-11.697 -5.843 -11.853 -6.186 QT
-12.01 -6.53 -12.01 -6.921 QT
-12.01 -7.624 -11.557 -8.155 QT
-12.244 -8.827 -12.244 -9.702 QT
-12.244 -10.171 -12.041 -10.585 QT
-11.838 -10.999 -11.478 -11.296 QT
-11.119 -11.593 -10.682 -11.749 QT
-10.244 -11.905 -9.791 -11.905 QT
-8.9 -11.905 -8.182 -11.389 QT
-7.869 -11.718 -7.447 -11.897 QT
-7.025 -12.077 -6.572 -12.077 QT
-6.26 -12.077 -6.057 -11.843 QT
-5.853 -11.608 -5.853 -11.296 QT
-5.853 -11.108 -5.986 -10.968 QT
-6.119 -10.827 -6.307 -10.827 QT
-6.494 -10.827 -6.635 -10.968 QT
-6.775 -11.108 -6.775 -11.296 QT
-6.775 -11.577 -6.588 -11.686 QT
-7.369 -11.686 -7.932 -11.139 QT
-7.65 -10.874 -7.486 -10.483 QT
-7.322 -10.093 -7.322 -9.702 QT
-7.322 -9.061 -7.674 -8.553 QT
-8.025 -8.046 -8.603 -7.764 QT
-9.182 -7.483 -9.791 -7.483 QT
-10.603 -7.483 -11.291 -7.936 QT
-11.494 -7.639 -11.494 -7.28 QT
-11.494 -6.874 -11.236 -6.577 QT
-10.978 -6.28 -10.588 -6.28 QT
-9.353 -6.28 L
-8.463 -6.28 -7.744 -6.124 QT
-7.025 -5.968 -6.541 -5.483 QT
-6.057 -4.999 -6.057 -4.108 QT
-6.057 -3.452 -6.611 -3.014 QT
-7.166 -2.577 -7.939 -2.382 QT
-8.713 -2.186 -9.369 -2.186 QT
-10.041 -2.186 -10.814 -2.382 QT
-11.588 -2.577 -12.142 -3.014 QT
-12.697 -3.452 -12.697 -4.108 QT
cp
-11.853 -4.108 M
-11.853 -3.608 -11.447 -3.264 QT
-11.041 -2.921 -10.463 -2.757 QT
-9.885 -2.593 -9.369 -2.593 QT
-8.869 -2.593 -8.291 -2.757 QT
-7.713 -2.921 -7.307 -3.264 QT
-6.9 -3.608 -6.9 -4.108 QT
-6.9 -4.889 -7.611 -5.124 QT
-8.322 -5.358 -9.353 -5.358 QT
-10.588 -5.358 L
-10.932 -5.358 -11.221 -5.194 QT
-11.51 -5.03 -11.682 -4.733 QT
-11.853 -4.436 -11.853 -4.108 QT
cp
-9.791 -7.889 M
-8.51 -7.889 -8.51 -9.702 QT
-8.51 -10.483 -8.783 -10.991 QT
-9.057 -11.499 -9.791 -11.499 QT
-10.525 -11.499 -10.791 -10.991 QT
-11.057 -10.483 -11.057 -9.702 QT
-11.057 -9.202 -10.955 -8.803 QT
-10.853 -8.405 -10.58 -8.147 QT
-10.307 -7.889 -9.791 -7.889 QT
cp
f
GR
GS
[0 -0.75 0.75 0 66.5 151.87487] CT
0.149 GC
N
-2.051 -5.108 M
-2.973 -5.108 -3.731 -5.593 QT
-4.489 -6.077 -4.926 -6.874 QT
-5.364 -7.671 -5.364 -8.561 QT
-5.364 -9.452 -4.965 -10.241 QT
-4.567 -11.03 -3.856 -11.514 QT
-3.145 -11.999 -2.27 -11.999 QT
-1.567 -11.999 -1.059 -11.772 QT
-0.551 -11.546 -0.223 -11.132 QT
0.105 -10.718 0.269 -10.163 QT
0.433 -9.608 0.433 -8.936 QT
0.433 -8.749 0.292 -8.749 QT
-4.051 -8.749 L
-4.051 -8.577 L
-4.051 -7.343 -3.551 -6.444 QT
-3.051 -5.546 -1.911 -5.546 QT
-1.458 -5.546 -1.067 -5.757 QT
-0.676 -5.968 -0.387 -6.327 QT
-0.098 -6.686 0.011 -7.108 QT
0.027 -7.155 0.066 -7.202 QT
0.105 -7.249 0.152 -7.249 QT
0.292 -7.249 L
0.433 -7.249 0.433 -7.046 QT
0.23 -6.202 -0.473 -5.655 QT
-1.176 -5.108 -2.051 -5.108 QT
cp
-4.036 -9.124 M
-0.629 -9.124 L
-0.629 -9.686 -0.786 -10.264 QT
-0.942 -10.843 -1.309 -11.225 QT
-1.676 -11.608 -2.27 -11.608 QT
-3.114 -11.608 -3.575 -10.811 QT
-4.036 -10.014 -4.036 -9.124 QT
cp
f
GR
GS
[0 -0.75 0.75 0 66.5 151.87487] CT
0.149 GC
N
1.186 -5.28 M
1.186 -5.811 L
1.686 -5.811 2.022 -5.889 QT
2.358 -5.968 2.358 -6.28 QT
2.358 -10.374 L
2.358 -10.78 2.233 -10.96 QT
2.108 -11.139 1.881 -11.178 QT
1.655 -11.218 1.186 -11.218 QT
1.186 -11.749 L
3.358 -11.905 L
3.358 -10.436 L
3.655 -11.093 4.248 -11.499 QT
4.842 -11.905 5.53 -11.905 QT
6.577 -11.905 7.1 -11.405 QT
7.623 -10.905 7.623 -9.889 QT
7.623 -6.28 L
7.623 -5.968 7.952 -5.889 QT
8.28 -5.811 8.795 -5.811 QT
8.795 -5.28 L
5.358 -5.28 L
5.358 -5.811 L
5.873 -5.811 6.202 -5.889 QT
6.53 -5.968 6.53 -6.28 QT
6.53 -9.843 L
6.53 -10.577 6.319 -11.046 QT
6.108 -11.514 5.436 -11.514 QT
4.577 -11.514 4.014 -10.819 QT
3.452 -10.124 3.452 -9.249 QT
3.452 -6.28 L
3.452 -5.968 3.78 -5.889 QT
4.108 -5.811 4.608 -5.811 QT
4.608 -5.28 L
1.186 -5.28 L
cp
f
GR
GS
[0 -0.75 0.75 0 66.5 151.87487] CT
0.149 GC
N
10.005 -7.077 M
10.005 -11.218 L
8.755 -11.218 L
8.755 -11.608 L
9.739 -11.608 10.2 -12.522 QT
10.661 -13.436 10.661 -14.514 QT
11.099 -14.514 L
11.099 -11.749 L
13.208 -11.749 L
13.208 -11.218 L
11.099 -11.218 L
11.099 -7.108 L
11.099 -6.483 11.31 -6.014 QT
11.52 -5.546 12.052 -5.546 QT
12.567 -5.546 12.794 -6.046 QT
13.02 -6.546 13.02 -7.108 QT
13.02 -7.999 L
13.458 -7.999 L
13.458 -7.077 L
13.458 -6.608 13.286 -6.155 QT
13.114 -5.702 12.778 -5.405 QT
12.442 -5.108 11.958 -5.108 QT
11.052 -5.108 10.528 -5.647 QT
10.005 -6.186 10.005 -7.077 QT
cp
f
GR
GS
[0 -0.75 0.75 0 66.5 151.87487] CT
0.149 GC
N
20.238 -6.358 M
20.238 -6.639 20.363 -6.936 QT
21.566 -10.171 L
21.769 -10.718 21.769 -11.077 QT
21.769 -11.514 21.441 -11.514 QT
20.847 -11.514 20.465 -10.905 QT
20.082 -10.296 19.894 -9.546 QT
19.863 -9.452 19.769 -9.452 QT
19.597 -9.452 L
19.472 -9.452 19.472 -9.593 QT
19.472 -9.624 L
19.707 -10.53 20.207 -11.218 QT
20.707 -11.905 21.472 -11.905 QT
22.004 -11.905 22.371 -11.553 QT
22.738 -11.202 22.738 -10.671 QT
22.738 -10.389 22.613 -10.077 QT
21.41 -6.858 L
21.191 -6.358 21.191 -5.952 QT
21.191 -5.514 21.535 -5.514 QT
22.129 -5.514 22.519 -6.139 QT
22.91 -6.764 23.066 -7.483 QT
23.097 -7.577 23.191 -7.577 QT
23.379 -7.577 L
23.426 -7.577 23.465 -7.538 QT
23.504 -7.499 23.504 -7.436 QT
23.504 -7.421 23.488 -7.389 QT
23.285 -6.546 22.777 -5.827 QT
22.269 -5.108 21.519 -5.108 QT
20.988 -5.108 20.613 -5.475 QT
20.238 -5.843 20.238 -6.358 QT
cp
21.926 -14.374 M
21.926 -14.686 22.191 -14.944 QT
22.457 -15.202 22.769 -15.202 QT
23.035 -15.202 23.199 -15.046 QT
23.363 -14.889 23.363 -14.639 QT
23.363 -14.311 23.09 -14.053 QT
22.816 -13.796 22.504 -13.796 QT
22.254 -13.796 22.09 -13.96 QT
21.926 -14.124 21.926 -14.374 QT
cp
f
GR
%%Trailer
%%Pages: 1
%%EOF
